============================================
PLATFORM_VERSION_CODENAME=REL
PLATFORM_VERSION=4.0.4
TARGET_PRODUCT=nitrogen6x
TARGET_BUILD_VARIANT=eng
TARGET_BUILD_TYPE=release
TARGET_BUILD_APPS=
TARGET_ARCH=arm
TARGET_ARCH_VARIANT=armv7-a-neon
HOST_ARCH=x86
HOST_OS=linux
HOST_BUILD_TYPE=release
BUILD_ID=UNKNOWN
BUILD_NUMBER=eng.raja.20130404.132347
============================================
external/libnfc-1.6.0-rc1
make: Entering directory `/media/908a347e-7db6-4533-aa18-a448b2ad70d0/home/raja/myandroid_wifi'
external/wpa_supplicant_8/wpa_supplicant/Android.mk:38: NL80211 doesn't belong to Broadcom
hardware/imx/alsa/Android.mk:46: Nitrogen6x
No private recovery resources for TARGET_DEVICE nitrogen6x
Symlink: out/target/product/nitrogen6x/root/sbin/ueventd -> ../init
Target ram disk: out/target/product/nitrogen6x/ramdisk.img
mkdir -p out/target/product/nitrogen6x/boot/
mkimage -A arm -O linux -T ramdisk -n "RAM Disk" -d out/target/product/nitrogen6x/ramdisk.img out/target/product/nitrogen6x/boot/uramdisk.img
Image Name:   RAM Disk
Created:      Thu Apr  4 13:24:10 2013
Image Type:   ARM Linux RAMDisk Image (gzip compressed)
Data Size:    212492 Bytes = 207.51 kB = 0.20 MB
Load Address: 00000000
Entry Point:  00000000
make -C kernel_imx -j8 uImage modules ARCH=arm CROSS_COMPILE=`pwd`/prebuilt/linux-x86/toolchain/arm-eabi-4.4.3/bin/arm-eabi-
make[1]: Entering directory `/media/908a347e-7db6-4533-aa18-a448b2ad70d0/home/raja/myandroid_wifi/kernel_imx'
  CHK     include/linux/version.h
  CHK     include/generated/utsrelease.h
make[2]: `include/generated/mach-types.h' is up to date.
  CALL    scripts/checksyscalls.sh
  CHK     include/generated/compile.h
  CC      sound/soc/codecs/max98089.o
sound/soc/codecs/max98089.c: In function 'max98089_add_widgets':
sound/soc/codecs/max98089.c:1239: warning: passing argument 1 of 'snd_soc_dapm_new_controls' from incompatible pointer type
include/sound/soc-dapm.h:342: note: expected 'struct snd_soc_dapm_context *' but argument is of type 'struct snd_soc_codec *'
sound/soc/codecs/max98089.c:1241: warning: passing argument 1 of 'snd_soc_dapm_add_routes' from incompatible pointer type
include/sound/soc-dapm.h:349: note: expected 'struct snd_soc_dapm_context *' but argument is of type 'struct snd_soc_codec *'
sound/soc/codecs/max98089.c:1246: warning: passing argument 1 of 'snd_soc_dapm_new_widgets' from incompatible pointer type
include/sound/soc-dapm.h:347: note: expected 'struct snd_soc_dapm_context *' but argument is of type 'struct snd_soc_codec *'
sound/soc/codecs/max98089.c: In function 'max98089_dai2_hw_params':
sound/soc/codecs/max98089.c:1383: warning: format '%8x' expects type 'unsigned int', but argument 2 has type 'struct snd_soc_codec *'
sound/soc/codecs/max98089.c:1393: warning: format '%.8x' expects type 'unsigned int', but argument 2 has type 'struct snd_soc_codec *'
sound/soc/codecs/max98089.c:1400: warning: format '%.8x' expects type 'unsigned int', but argument 2 has type 'struct snd_soc_codec *'
sound/soc/codecs/max98089.c:1411: warning: format '%.8x' expects type 'unsigned int', but argument 2 has type 'struct snd_soc_codec *'
sound/soc/codecs/max98089.c:1411: warning: too many arguments for format
sound/soc/codecs/max98089.c:1417: warning: format '%.8x' expects type 'unsigned int', but argument 2 has type 'struct snd_soc_codec *'
sound/soc/codecs/max98089.c:1442: warning: too many arguments for format
sound/soc/codecs/max98089.c: In function 'max98089_probe':
sound/soc/codecs/max98089.c:2034: warning: format '%.8x' expects type 'unsigned int', but argument 2 has type 'struct snd_soc_codec *'
sound/soc/codecs/max98089.c:2034: warning: too many arguments for format
sound/soc/codecs/max98089.c: At top level:
sound/soc/codecs/max98089.c:2130: warning: initialization from incompatible pointer type
sound/soc/codecs/max98089.c: In function 'max98089_i2c_probe':
sound/soc/codecs/max98089.c:2144: warning: format '%.8x' expects type 'unsigned int', but argument 2 has type 'struct i2c_client *'
sound/soc/codecs/max98089.c:2144: warning: format '%.8x' expects type 'unsigned int', but argument 3 has type 'const struct i2c_device_id *'
sound/soc/codecs/max98089.c: At top level:
sound/soc/codecs/max98089.c:1236: warning: 'max98089_add_widgets' defined but not used
  LD      sound/soc/codecs/snd-soc-ac97.o
  LD      sound/soc/codecs/snd-soc-ad1836.o
  LD      sound/soc/codecs/snd-soc-ad193x.o
  LD      sound/soc/codecs/snd-soc-ad1980.o
  LD      sound/soc/codecs/snd-soc-ads117x.o
  LD      sound/soc/codecs/snd-soc-ak4104.o
  LD      sound/soc/codecs/snd-soc-ak4535.o
  LD      sound/soc/codecs/snd-soc-ad73311.o
  LD      sound/soc/codecs/snd-soc-mxc-hdmi.o
  LD      sound/soc/codecs/snd-soc-mxc-spdif.o
  LD      sound/soc/codecs/snd-soc-ak4641.o
  LD      sound/soc/codecs/snd-soc-ak4642.o
  LD      sound/soc/codecs/snd-soc-ak4671.o
  LD      sound/soc/codecs/snd-soc-alc5623.o
  LD      sound/soc/codecs/snd-soc-cs42l51.o
  LD      sound/soc/codecs/snd-soc-cs4270.o
  LD      sound/soc/codecs/snd-soc-cs4271.o
  LD      sound/soc/codecs/snd-soc-cs42888.o
  LD      sound/soc/codecs/snd-soc-cx20442.o
  LD      sound/soc/codecs/snd-soc-da7210.o
  LD      sound/soc/codecs/snd-soc-dfbmcs320.o
  LD      sound/soc/codecs/snd-soc-l3.o
  LD      sound/soc/codecs/snd-soc-max98089.o
  LD      sound/soc/codecs/snd-soc-max9850.o
  LD      sound/soc/codecs/snd-soc-pcm3008.o
  LD      sound/soc/codecs/snd-soc-sgtl5000.o
  LD      sound/soc/codecs/snd-soc-spdif.o
  LD      sound/soc/codecs/snd-soc-max98095.o
  LD      sound/soc/codecs/snd-soc-ssm2602.o
  LD      sound/soc/codecs/snd-soc-stac9766.o
  LD      sound/soc/codecs/snd-soc-tlv320aic23.o
  LD      sound/soc/codecs/snd-soc-tlv320aic26.o
  LD      sound/soc/codecs/snd-soc-tlv320aic3x.o
  LD      sound/soc/codecs/snd-soc-tlv320aic32x4.o
  LD      sound/soc/codecs/snd-soc-tlv320dac33.o
  LD      sound/soc/codecs/snd-soc-uda134x.o
  LD      sound/soc/codecs/snd-soc-wm1250-ev1.o
  LD      sound/soc/codecs/snd-soc-uda1380.o
  LD      sound/soc/codecs/snd-soc-wm8510.o
  LD      sound/soc/codecs/snd-soc-wm8523.o
  LD      sound/soc/codecs/snd-soc-wm8580.o
  LD      sound/soc/codecs/snd-soc-wm8711.o
  LD      sound/soc/codecs/snd-soc-wm8727.o
  LD      sound/soc/codecs/snd-soc-wm8728.o
  LD      sound/soc/codecs/snd-soc-wm8731.o
  LD      sound/soc/codecs/snd-soc-wm8737.o
  LD      sound/soc/codecs/snd-soc-wm8741.o
  LD      sound/soc/codecs/snd-soc-wm8750.o
  LD      sound/soc/codecs/snd-soc-wm8753.o
  LD      sound/soc/codecs/snd-soc-wm8770.o
  LD      sound/soc/codecs/snd-soc-wm8776.o
  LD      sound/soc/codecs/snd-soc-wm8804.o
  LD      sound/soc/codecs/snd-soc-wm8900.o
  LD      sound/soc/codecs/snd-soc-wm8903.o
  LD      sound/soc/codecs/snd-soc-wm8904.o
  LD      sound/soc/codecs/snd-soc-wm8915.o
  LD      sound/soc/codecs/snd-soc-wm8940.o
  LD      sound/soc/codecs/snd-soc-wm8955.o
  LD      sound/soc/codecs/snd-soc-wm8960.o
  LD      sound/soc/codecs/snd-soc-wm8961.o
  LD      sound/soc/codecs/snd-soc-wm8962.o
  LD      sound/soc/codecs/snd-soc-wm8971.o
  LD      sound/soc/codecs/snd-soc-wm8974.o
  LD      sound/soc/codecs/snd-soc-wm8978.o
  LD      sound/soc/codecs/snd-soc-wm8985.o
  LD      sound/soc/codecs/snd-soc-wm8988.o
  LD      sound/soc/codecs/snd-soc-wm8990.o
  LD      sound/soc/codecs/snd-soc-wm8991.o
  LD      sound/soc/codecs/snd-soc-wm8993.o
  LD      sound/soc/codecs/snd-soc-wm8994.o
  LD      sound/soc/codecs/snd-soc-wm8995.o
  LD      sound/soc/codecs/snd-soc-wm9081.o
  LD      sound/soc/codecs/snd-soc-wm9705.o
  LD      sound/soc/codecs/snd-soc-wm9712.o
  LD      sound/soc/codecs/snd-soc-wm9713.o
  LD      sound/soc/codecs/snd-soc-wm-hubs.o
  LD      sound/soc/codecs/snd-soc-lm4857.o
  LD      sound/soc/codecs/snd-soc-max9877.o
  LD      sound/soc/codecs/snd-soc-tpa6130a2.o
  LD      sound/soc/codecs/snd-soc-wm2000.o
  LD      sound/soc/codecs/snd-soc-wm9090.o
  LD      sound/soc/codecs/built-in.o
  LD      sound/soc/built-in.o
  LD      sound/built-in.o
  LD      vmlinux.o
  MODPOST vmlinux.o
WARNING: modpost: Found 2 section mismatch(es).
To see full details build your kernel with:
'make CONFIG_DEBUG_SECTION_MISMATCH=y'
  GEN     .version
  CHK     include/generated/compile.h
  UPD     include/generated/compile.h
  CC      init/version.o
  LD      init/built-in.o
  LD      .tmp_vmlinux1
  KSYM    .tmp_kallsyms1.S
  AS      .tmp_kallsyms1.o
  LD      .tmp_vmlinux2
  KSYM    .tmp_kallsyms2.S
  AS      .tmp_kallsyms2.o
  LD      vmlinux
  SYSMAP  System.map
  SYSMAP  .tmp_System.map
  Building modules, stage 2.
  MODPOST 9 modules
  OBJCOPY arch/arm/boot/Image
  Kernel: arch/arm/boot/Image is ready
  GZIP    arch/arm/boot/compressed/piggy.gzip
  SHIPPED arch/arm/boot/compressed/lib1funcs.S
  AS      arch/arm/boot/compressed/lib1funcs.o
  AS      arch/arm/boot/compressed/piggy.gzip.o
  LD      arch/arm/boot/compressed/vmlinux
  OBJCOPY arch/arm/boot/zImage
  Kernel: arch/arm/boot/zImage is ready
  UIMAGE  arch/arm/boot/uImage
Image Name:   Linux-3.0.35
Created:      Thu Apr  4 13:24:20 2013
Image Type:   ARM Linux Kernel Image (uncompressed)
Data Size:    4315532 Bytes = 4214.39 kB = 4.12 MB
Load Address: 10008000
Entry Point:  10008000
  Image arch/arm/boot/uImage is ready
make[1]: Leaving directory `/media/908a347e-7db6-4533-aa18-a448b2ad70d0/home/raja/myandroid_wifi/kernel_imx'
install -D kernel_imx/arch/arm/boot/uImage out/target/product/nitrogen6x/uImage
install -D kernel_imx/arch/arm/boot/zImage out/target/product/nitrogen6x/kernel
Target boot image: out/target/product/nitrogen6x/boot.img
----- Making recovery image ------
rm -rf out/target/product/nitrogen6x/recovery
mkdir -p out/target/product/nitrogen6x/recovery
mkdir -p out/target/product/nitrogen6x/recovery/root
mkdir -p out/target/product/nitrogen6x/recovery/root/etc
mkdir -p out/target/product/nitrogen6x/recovery/root/tmp
echo Copying baseline ramdisk...
Copying baseline ramdisk...
cp -R out/target/product/nitrogen6x/root out/target/product/nitrogen6x/recovery
rm out/target/product/nitrogen6x/recovery/root/init*.rc
echo Modifying ramdisk contents...
Modifying ramdisk contents...
cp -f bootable/recovery/etc/init.rc out/target/product/nitrogen6x/recovery/root/
cp -f out/target/product/nitrogen6x/obj/EXECUTABLES/recovery_intermediates/recovery out/target/product/nitrogen6x/recovery/root/sbin/
cp -rf bootable/recovery/res out/target/product/nitrogen6x/recovery/root/
cp -f device/boundary/nitrogen6x/recovery.fstab out/target/product/nitrogen6x/recovery/root/etc/recovery.fstab
cp out/target/product/nitrogen6x/obj/PACKAGING/ota_keys_intermediates/keys out/target/product/nitrogen6x/recovery/root/res/keys
cat out/target/product/nitrogen6x/root/default.prop out/target/product/nitrogen6x/system/build.prop \
	        > out/target/product/nitrogen6x/recovery/root/default.prop
mkdir -p out/target/product/nitrogen6x/recovery/root/system/bin/
mkdir -p out/target/product/nitrogen6x/recovery/root/system/lib/
cp -f out/target/product/nitrogen6x/system/bin/linker out/target/product/nitrogen6x/system/bin/sh out/target/product/nitrogen6x/system/bin/mke2fs out/target/product/nitrogen6x/recovery/root/system/bin/
cp -f out/target/product/nitrogen6x/system/lib/libc.so out/target/product/nitrogen6x/system/lib/libm.so out/target/product/nitrogen6x/system/lib/libstdc++.so out/target/product/nitrogen6x/system/lib/libext2_blkid.so out/target/product/nitrogen6x/system/lib/libext2_com_err.so out/target/product/nitrogen6x/system/lib/libext2_e2p.so out/target/product/nitrogen6x/system/lib/libext2fs.so out/target/product/nitrogen6x/system/lib/libext2_profile.so out/target/product/nitrogen6x/system/lib/libext2_uuid.so out/target/product/nitrogen6x/recovery/root/system/lib/
out/host/linux-x86/bin/mkbootfs out/target/product/nitrogen6x/recovery/root | out/host/linux-x86/bin/minigzip > out/target/product/nitrogen6x/ramdisk-recovery.img
out/host/linux-x86/bin/mkbootimg  --kernel out/target/product/nitrogen6x/kernel  --ramdisk out/target/product/nitrogen6x/ramdisk-recovery.img --cmdline "console=ttymxc1,115200 init=/init video=mxcfb0 video=mxcfb1:off video=mxcfb2:off fbmem=10M vmalloc=400M androidboot.console=ttymxc1" --base 0x10800000 --output out/target/product/nitrogen6x/recovery.img
----- Made recovery image -------- out/target/product/nitrogen6x/recovery.img
mkdir -p out/target/product/nitrogen6x/
mkimage -A arm -O linux -T ramdisk -n "RAM Disk" -d out/target/product/nitrogen6x/ramdisk-recovery.img out/target/product/nitrogen6x/uramdisk-recovery.img
Image Name:   RAM Disk
Created:      Thu Apr  4 13:24:23 2013
Image Type:   ARM Linux RAMDisk Image (gzip compressed)
Data Size:    983552 Bytes = 960.50 kB = 0.94 MB
Load Address: 00000000
Entry Point:  00000000
make -C kernel_imx -j8 ARCH=arm CROSS_COMPILE=`pwd`/prebuilt/linux-x86/toolchain/arm-eabi-4.4.3/bin/arm-eabi- INSTALL_MOD_PATH=../out/target/product/nitrogen6x modules_install
make[1]: Entering directory `/media/908a347e-7db6-4533-aa18-a448b2ad70d0/home/raja/myandroid_wifi/kernel_imx'
  INSTALL crypto/tcrypt.ko
  INSTALL drivers/hid/hid-samsung.ko
  INSTALL drivers/hid/hid-sunplus.ko
  INSTALL drivers/hid/hid-sony.ko
  INSTALL drivers/misc/mxs-perfmon.ko
  INSTALL drivers/net/wireless/wl12xx/wl12xx_sdio.ko
  INSTALL drivers/scsi/scsi_wait_scan.ko
  INSTALL fs/nls/nls_ascii.ko
  INSTALL fs/nls/nls_utf8.ko
  DEPMOD  3.0.35
make[1]: Leaving directory `/media/908a347e-7db6-4533-aa18-a448b2ad70d0/home/raja/myandroid_wifi/kernel_imx'
Copy: out/target/product/nitrogen6x/boot/uImage
make -C myfiles/mybusybox OUT_DIR=/media/908a347e-7db6-4533-aa18-a448b2ad70d0/home/raja/myandroid_wifi/out/target/product/nitrogen6x/system
make[1]: Entering directory `/media/908a347e-7db6-4533-aa18-a448b2ad70d0/home/raja/myandroid_wifi/myfiles/mybusybox'
./install.sh /media/908a347e-7db6-4533-aa18-a448b2ad70d0/home/raja/myandroid_wifi/out/target/product/nitrogen6x/system --symlinks
  /media/908a347e-7db6-4533-aa18-a448b2ad70d0/home/raja/myandroid_wifi/out/target/product/nitrogen6x/system/bin/[ -> busybox
  /media/908a347e-7db6-4533-aa18-a448b2ad70d0/home/raja/myandroid_wifi/out/target/product/nitrogen6x/system/bin/[[ -> busybox
  /media/908a347e-7db6-4533-aa18-a448b2ad70d0/home/raja/myandroid_wifi/out/target/product/nitrogen6x/system/bin/addgroup -> busybox
  /media/908a347e-7db6-4533-aa18-a448b2ad70d0/home/raja/myandroid_wifi/out/target/product/nitrogen6x/system/bin/adduser -> busybox
  /media/908a347e-7db6-4533-aa18-a448b2ad70d0/home/raja/myandroid_wifi/out/target/product/nitrogen6x/system/bin/ash -> busybox
  /media/908a347e-7db6-4533-aa18-a448b2ad70d0/home/raja/myandroid_wifi/out/target/product/nitrogen6x/system/bin/cat -> busybox
  /media/908a347e-7db6-4533-aa18-a448b2ad70d0/home/raja/myandroid_wifi/out/target/product/nitrogen6x/system/bin/catv -> busybox
  /media/908a347e-7db6-4533-aa18-a448b2ad70d0/home/raja/myandroid_wifi/out/target/product/nitrogen6x/system/bin/chattr -> busybox
  /media/908a347e-7db6-4533-aa18-a448b2ad70d0/home/raja/myandroid_wifi/out/target/product/nitrogen6x/system/bin/chgrp -> busybox
  /media/908a347e-7db6-4533-aa18-a448b2ad70d0/home/raja/myandroid_wifi/out/target/product/nitrogen6x/system/bin/chmod -> busybox
  /media/908a347e-7db6-4533-aa18-a448b2ad70d0/home/raja/myandroid_wifi/out/target/product/nitrogen6x/system/bin/chown -> busybox
  /media/908a347e-7db6-4533-aa18-a448b2ad70d0/home/raja/myandroid_wifi/out/target/product/nitrogen6x/system/bin/cp -> busybox
  /media/908a347e-7db6-4533-aa18-a448b2ad70d0/home/raja/myandroid_wifi/out/target/product/nitrogen6x/system/bin/cpio -> busybox
  /media/908a347e-7db6-4533-aa18-a448b2ad70d0/home/raja/myandroid_wifi/out/target/product/nitrogen6x/system/bin/cttyhack -> busybox
  /media/908a347e-7db6-4533-aa18-a448b2ad70d0/home/raja/myandroid_wifi/out/target/product/nitrogen6x/system/bin/date -> busybox
  /media/908a347e-7db6-4533-aa18-a448b2ad70d0/home/raja/myandroid_wifi/out/target/product/nitrogen6x/system/bin/dd -> busybox
  /media/908a347e-7db6-4533-aa18-a448b2ad70d0/home/raja/myandroid_wifi/out/target/product/nitrogen6x/system/bin/delgroup -> busybox
  /media/908a347e-7db6-4533-aa18-a448b2ad70d0/home/raja/myandroid_wifi/out/target/product/nitrogen6x/system/bin/deluser -> busybox
  /media/908a347e-7db6-4533-aa18-a448b2ad70d0/home/raja/myandroid_wifi/out/target/product/nitrogen6x/system/bin/df -> busybox
  /media/908a347e-7db6-4533-aa18-a448b2ad70d0/home/raja/myandroid_wifi/out/target/product/nitrogen6x/system/bin/dmesg -> busybox
  /media/908a347e-7db6-4533-aa18-a448b2ad70d0/home/raja/myandroid_wifi/out/target/product/nitrogen6x/system/bin/dnsdomainname -> busybox
  /media/908a347e-7db6-4533-aa18-a448b2ad70d0/home/raja/myandroid_wifi/out/target/product/nitrogen6x/system/bin/dumpkmap -> busybox
  /media/908a347e-7db6-4533-aa18-a448b2ad70d0/home/raja/myandroid_wifi/out/target/product/nitrogen6x/system/bin/echo -> busybox
  /media/908a347e-7db6-4533-aa18-a448b2ad70d0/home/raja/myandroid_wifi/out/target/product/nitrogen6x/system/bin/ed -> busybox
  /media/908a347e-7db6-4533-aa18-a448b2ad70d0/home/raja/myandroid_wifi/out/target/product/nitrogen6x/system/bin/egrep -> busybox
  /media/908a347e-7db6-4533-aa18-a448b2ad70d0/home/raja/myandroid_wifi/out/target/product/nitrogen6x/system/bin/false -> busybox
  /media/908a347e-7db6-4533-aa18-a448b2ad70d0/home/raja/myandroid_wifi/out/target/product/nitrogen6x/system/bin/fdflush -> busybox
  /media/908a347e-7db6-4533-aa18-a448b2ad70d0/home/raja/myandroid_wifi/out/target/product/nitrogen6x/system/bin/fgrep -> busybox
  /media/908a347e-7db6-4533-aa18-a448b2ad70d0/home/raja/myandroid_wifi/out/target/product/nitrogen6x/system/bin/fsync -> busybox
  /media/908a347e-7db6-4533-aa18-a448b2ad70d0/home/raja/myandroid_wifi/out/target/product/nitrogen6x/system/bin/getopt -> busybox
  /media/908a347e-7db6-4533-aa18-a448b2ad70d0/home/raja/myandroid_wifi/out/target/product/nitrogen6x/system/bin/grep -> busybox
  /media/908a347e-7db6-4533-aa18-a448b2ad70d0/home/raja/myandroid_wifi/out/target/product/nitrogen6x/system/bin/gunzip -> busybox
  /media/908a347e-7db6-4533-aa18-a448b2ad70d0/home/raja/myandroid_wifi/out/target/product/nitrogen6x/system/bin/gzip -> busybox
  /media/908a347e-7db6-4533-aa18-a448b2ad70d0/home/raja/myandroid_wifi/out/target/product/nitrogen6x/system/bin/hostname -> busybox
  /media/908a347e-7db6-4533-aa18-a448b2ad70d0/home/raja/myandroid_wifi/out/target/product/nitrogen6x/system/bin/hush -> busybox
  /media/908a347e-7db6-4533-aa18-a448b2ad70d0/home/raja/myandroid_wifi/out/target/product/nitrogen6x/system/bin/ionice -> busybox
  /media/908a347e-7db6-4533-aa18-a448b2ad70d0/home/raja/myandroid_wifi/out/target/product/nitrogen6x/system/bin/ip -> busybox
  /media/908a347e-7db6-4533-aa18-a448b2ad70d0/home/raja/myandroid_wifi/out/target/product/nitrogen6x/system/bin/ipaddr -> busybox
  /media/908a347e-7db6-4533-aa18-a448b2ad70d0/home/raja/myandroid_wifi/out/target/product/nitrogen6x/system/bin/ipcalc -> busybox
  /media/908a347e-7db6-4533-aa18-a448b2ad70d0/home/raja/myandroid_wifi/out/target/product/nitrogen6x/system/bin/iplink -> busybox
  /media/908a347e-7db6-4533-aa18-a448b2ad70d0/home/raja/myandroid_wifi/out/target/product/nitrogen6x/system/bin/iproute -> busybox
  /media/908a347e-7db6-4533-aa18-a448b2ad70d0/home/raja/myandroid_wifi/out/target/product/nitrogen6x/system/bin/iprule -> busybox
  /media/908a347e-7db6-4533-aa18-a448b2ad70d0/home/raja/myandroid_wifi/out/target/product/nitrogen6x/system/bin/iptunnel -> busybox
  /media/908a347e-7db6-4533-aa18-a448b2ad70d0/home/raja/myandroid_wifi/out/target/product/nitrogen6x/system/bin/kill -> busybox
  /media/908a347e-7db6-4533-aa18-a448b2ad70d0/home/raja/myandroid_wifi/out/target/product/nitrogen6x/system/bin/linux32 -> busybox
  /media/908a347e-7db6-4533-aa18-a448b2ad70d0/home/raja/myandroid_wifi/out/target/product/nitrogen6x/system/bin/linux64 -> busybox
  /media/908a347e-7db6-4533-aa18-a448b2ad70d0/home/raja/myandroid_wifi/out/target/product/nitrogen6x/system/bin/ln -> busybox
  /media/908a347e-7db6-4533-aa18-a448b2ad70d0/home/raja/myandroid_wifi/out/target/product/nitrogen6x/system/bin/login -> busybox
  /media/908a347e-7db6-4533-aa18-a448b2ad70d0/home/raja/myandroid_wifi/out/target/product/nitrogen6x/system/bin/ls -> busybox
  /media/908a347e-7db6-4533-aa18-a448b2ad70d0/home/raja/myandroid_wifi/out/target/product/nitrogen6x/system/bin/lsattr -> busybox
  /media/908a347e-7db6-4533-aa18-a448b2ad70d0/home/raja/myandroid_wifi/out/target/product/nitrogen6x/system/bin/lzop -> busybox
  /media/908a347e-7db6-4533-aa18-a448b2ad70d0/home/raja/myandroid_wifi/out/target/product/nitrogen6x/system/bin/makemime -> busybox
  /media/908a347e-7db6-4533-aa18-a448b2ad70d0/home/raja/myandroid_wifi/out/target/product/nitrogen6x/system/bin/mkdir -> busybox
  /media/908a347e-7db6-4533-aa18-a448b2ad70d0/home/raja/myandroid_wifi/out/target/product/nitrogen6x/system/bin/mknod -> busybox
  /media/908a347e-7db6-4533-aa18-a448b2ad70d0/home/raja/myandroid_wifi/out/target/product/nitrogen6x/system/bin/mktemp -> busybox
  /media/908a347e-7db6-4533-aa18-a448b2ad70d0/home/raja/myandroid_wifi/out/target/product/nitrogen6x/system/bin/more -> busybox
  /media/908a347e-7db6-4533-aa18-a448b2ad70d0/home/raja/myandroid_wifi/out/target/product/nitrogen6x/system/bin/mount -> busybox
  /media/908a347e-7db6-4533-aa18-a448b2ad70d0/home/raja/myandroid_wifi/out/target/product/nitrogen6x/system/bin/mountpoint -> busybox
  /media/908a347e-7db6-4533-aa18-a448b2ad70d0/home/raja/myandroid_wifi/out/target/product/nitrogen6x/system/bin/msh -> busybox
  /media/908a347e-7db6-4533-aa18-a448b2ad70d0/home/raja/myandroid_wifi/out/target/product/nitrogen6x/system/bin/mt -> busybox
  /media/908a347e-7db6-4533-aa18-a448b2ad70d0/home/raja/myandroid_wifi/out/target/product/nitrogen6x/system/bin/mv -> busybox
  /media/908a347e-7db6-4533-aa18-a448b2ad70d0/home/raja/myandroid_wifi/out/target/product/nitrogen6x/system/bin/netstat -> busybox
  /media/908a347e-7db6-4533-aa18-a448b2ad70d0/home/raja/myandroid_wifi/out/target/product/nitrogen6x/system/bin/nice -> busybox
  /media/908a347e-7db6-4533-aa18-a448b2ad70d0/home/raja/myandroid_wifi/out/target/product/nitrogen6x/system/bin/pidof -> busybox
  /media/908a347e-7db6-4533-aa18-a448b2ad70d0/home/raja/myandroid_wifi/out/target/product/nitrogen6x/system/bin/ping -> busybox
  /media/908a347e-7db6-4533-aa18-a448b2ad70d0/home/raja/myandroid_wifi/out/target/product/nitrogen6x/system/bin/ping6 -> busybox
  /media/908a347e-7db6-4533-aa18-a448b2ad70d0/home/raja/myandroid_wifi/out/target/product/nitrogen6x/system/bin/pipe_progress -> busybox
  /media/908a347e-7db6-4533-aa18-a448b2ad70d0/home/raja/myandroid_wifi/out/target/product/nitrogen6x/system/bin/printenv -> busybox
  /media/908a347e-7db6-4533-aa18-a448b2ad70d0/home/raja/myandroid_wifi/out/target/product/nitrogen6x/system/bin/ps -> busybox
  /media/908a347e-7db6-4533-aa18-a448b2ad70d0/home/raja/myandroid_wifi/out/target/product/nitrogen6x/system/bin/pwd -> busybox
  /media/908a347e-7db6-4533-aa18-a448b2ad70d0/home/raja/myandroid_wifi/out/target/product/nitrogen6x/system/bin/reformime -> busybox
  /media/908a347e-7db6-4533-aa18-a448b2ad70d0/home/raja/myandroid_wifi/out/target/product/nitrogen6x/system/bin/rm -> busybox
  /media/908a347e-7db6-4533-aa18-a448b2ad70d0/home/raja/myandroid_wifi/out/target/product/nitrogen6x/system/bin/rmdir -> busybox
  /media/908a347e-7db6-4533-aa18-a448b2ad70d0/home/raja/myandroid_wifi/out/target/product/nitrogen6x/system/bin/run-parts -> busybox
  /media/908a347e-7db6-4533-aa18-a448b2ad70d0/home/raja/myandroid_wifi/out/target/product/nitrogen6x/system/bin/scriptreplay -> busybox
  /media/908a347e-7db6-4533-aa18-a448b2ad70d0/home/raja/myandroid_wifi/out/target/product/nitrogen6x/system/bin/sed -> busybox
  /media/908a347e-7db6-4533-aa18-a448b2ad70d0/home/raja/myandroid_wifi/out/target/product/nitrogen6x/system/bin/setarch -> busybox
  /media/908a347e-7db6-4533-aa18-a448b2ad70d0/home/raja/myandroid_wifi/out/target/product/nitrogen6x/system/bin/sleep -> busybox
  /media/908a347e-7db6-4533-aa18-a448b2ad70d0/home/raja/myandroid_wifi/out/target/product/nitrogen6x/system/bin/stat -> busybox
  /media/908a347e-7db6-4533-aa18-a448b2ad70d0/home/raja/myandroid_wifi/out/target/product/nitrogen6x/system/bin/stty -> busybox
  /media/908a347e-7db6-4533-aa18-a448b2ad70d0/home/raja/myandroid_wifi/out/target/product/nitrogen6x/system/bin/su -> busybox
  /media/908a347e-7db6-4533-aa18-a448b2ad70d0/home/raja/myandroid_wifi/out/target/product/nitrogen6x/system/bin/sync -> busybox
  /media/908a347e-7db6-4533-aa18-a448b2ad70d0/home/raja/myandroid_wifi/out/target/product/nitrogen6x/system/bin/tar -> busybox
  /media/908a347e-7db6-4533-aa18-a448b2ad70d0/home/raja/myandroid_wifi/out/target/product/nitrogen6x/system/bin/test -> busybox
  /media/908a347e-7db6-4533-aa18-a448b2ad70d0/home/raja/myandroid_wifi/out/target/product/nitrogen6x/system/bin/touch -> busybox
  /media/908a347e-7db6-4533-aa18-a448b2ad70d0/home/raja/myandroid_wifi/out/target/product/nitrogen6x/system/bin/true -> busybox
  /media/908a347e-7db6-4533-aa18-a448b2ad70d0/home/raja/myandroid_wifi/out/target/product/nitrogen6x/system/bin/umount -> busybox
  /media/908a347e-7db6-4533-aa18-a448b2ad70d0/home/raja/myandroid_wifi/out/target/product/nitrogen6x/system/bin/uname -> busybox
  /media/908a347e-7db6-4533-aa18-a448b2ad70d0/home/raja/myandroid_wifi/out/target/product/nitrogen6x/system/bin/uncompress -> busybox
  /media/908a347e-7db6-4533-aa18-a448b2ad70d0/home/raja/myandroid_wifi/out/target/product/nitrogen6x/system/bin/usleep -> busybox
  /media/908a347e-7db6-4533-aa18-a448b2ad70d0/home/raja/myandroid_wifi/out/target/product/nitrogen6x/system/bin/vi -> busybox
  /media/908a347e-7db6-4533-aa18-a448b2ad70d0/home/raja/myandroid_wifi/out/target/product/nitrogen6x/system/bin/watch -> busybox
  /media/908a347e-7db6-4533-aa18-a448b2ad70d0/home/raja/myandroid_wifi/out/target/product/nitrogen6x/system/bin/zcat -> busybox
  /media/908a347e-7db6-4533-aa18-a448b2ad70d0/home/raja/myandroid_wifi/out/target/product/nitrogen6x/system/linuxrc -> bin/busybox
  /media/908a347e-7db6-4533-aa18-a448b2ad70d0/home/raja/myandroid_wifi/out/target/product/nitrogen6x/system/sbin/adjtimex -> ../bin/busybox
  /media/908a347e-7db6-4533-aa18-a448b2ad70d0/home/raja/myandroid_wifi/out/target/product/nitrogen6x/system/sbin/arp -> ../bin/busybox
  /media/908a347e-7db6-4533-aa18-a448b2ad70d0/home/raja/myandroid_wifi/out/target/product/nitrogen6x/system/sbin/blkid -> ../bin/busybox
  /media/908a347e-7db6-4533-aa18-a448b2ad70d0/home/raja/myandroid_wifi/out/target/product/nitrogen6x/system/sbin/depmod -> ../bin/busybox
  /media/908a347e-7db6-4533-aa18-a448b2ad70d0/home/raja/myandroid_wifi/out/target/product/nitrogen6x/system/sbin/devmem -> ../bin/busybox
  /media/908a347e-7db6-4533-aa18-a448b2ad70d0/home/raja/myandroid_wifi/out/target/product/nitrogen6x/system/sbin/fbsplash -> ../bin/busybox
  /media/908a347e-7db6-4533-aa18-a448b2ad70d0/home/raja/myandroid_wifi/out/target/product/nitrogen6x/system/sbin/fdisk -> ../bin/busybox
  /media/908a347e-7db6-4533-aa18-a448b2ad70d0/home/raja/myandroid_wifi/out/target/product/nitrogen6x/system/sbin/findfs -> ../bin/busybox
  /media/908a347e-7db6-4533-aa18-a448b2ad70d0/home/raja/myandroid_wifi/out/target/product/nitrogen6x/system/sbin/freeramdisk -> ../bin/busybox
  /media/908a347e-7db6-4533-aa18-a448b2ad70d0/home/raja/myandroid_wifi/out/target/product/nitrogen6x/system/sbin/fsck -> ../bin/busybox
  /media/908a347e-7db6-4533-aa18-a448b2ad70d0/home/raja/myandroid_wifi/out/target/product/nitrogen6x/system/sbin/fsck.minix -> ../bin/busybox
  /media/908a347e-7db6-4533-aa18-a448b2ad70d0/home/raja/myandroid_wifi/out/target/product/nitrogen6x/system/sbin/getty -> ../bin/busybox
  /media/908a347e-7db6-4533-aa18-a448b2ad70d0/home/raja/myandroid_wifi/out/target/product/nitrogen6x/system/sbin/hdparm -> ../bin/busybox
  /media/908a347e-7db6-4533-aa18-a448b2ad70d0/home/raja/myandroid_wifi/out/target/product/nitrogen6x/system/sbin/hwclock -> ../bin/busybox
  /media/908a347e-7db6-4533-aa18-a448b2ad70d0/home/raja/myandroid_wifi/out/target/product/nitrogen6x/system/sbin/ifconfig -> ../bin/busybox
  /media/908a347e-7db6-4533-aa18-a448b2ad70d0/home/raja/myandroid_wifi/out/target/product/nitrogen6x/system/sbin/ifdown -> ../bin/busybox
  /media/908a347e-7db6-4533-aa18-a448b2ad70d0/home/raja/myandroid_wifi/out/target/product/nitrogen6x/system/sbin/ifenslave -> ../bin/busybox
  /media/908a347e-7db6-4533-aa18-a448b2ad70d0/home/raja/myandroid_wifi/out/target/product/nitrogen6x/system/sbin/ifup -> ../bin/busybox
  /media/908a347e-7db6-4533-aa18-a448b2ad70d0/home/raja/myandroid_wifi/out/target/product/nitrogen6x/system/sbin/klogd -> ../bin/busybox
  /media/908a347e-7db6-4533-aa18-a448b2ad70d0/home/raja/myandroid_wifi/out/target/product/nitrogen6x/system/sbin/loadkmap -> ../bin/busybox
  /media/908a347e-7db6-4533-aa18-a448b2ad70d0/home/raja/myandroid_wifi/out/target/product/nitrogen6x/system/sbin/logread -> ../bin/busybox
  /media/908a347e-7db6-4533-aa18-a448b2ad70d0/home/raja/myandroid_wifi/out/target/product/nitrogen6x/system/sbin/losetup -> ../bin/busybox
  /media/908a347e-7db6-4533-aa18-a448b2ad70d0/home/raja/myandroid_wifi/out/target/product/nitrogen6x/system/sbin/lsmod -> ../bin/busybox
  /media/908a347e-7db6-4533-aa18-a448b2ad70d0/home/raja/myandroid_wifi/out/target/product/nitrogen6x/system/sbin/makedevs -> ../bin/busybox
  /media/908a347e-7db6-4533-aa18-a448b2ad70d0/home/raja/myandroid_wifi/out/target/product/nitrogen6x/system/sbin/man -> ../bin/busybox
  /media/908a347e-7db6-4533-aa18-a448b2ad70d0/home/raja/myandroid_wifi/out/target/product/nitrogen6x/system/sbin/mdev -> ../bin/busybox
  /media/908a347e-7db6-4533-aa18-a448b2ad70d0/home/raja/myandroid_wifi/out/target/product/nitrogen6x/system/sbin/mkdosfs -> ../bin/busybox
  /media/908a347e-7db6-4533-aa18-a448b2ad70d0/home/raja/myandroid_wifi/out/target/product/nitrogen6x/system/sbin/mkfs.minix -> ../bin/busybox
  /media/908a347e-7db6-4533-aa18-a448b2ad70d0/home/raja/myandroid_wifi/out/target/product/nitrogen6x/system/sbin/mkfs.vfat -> ../bin/busybox
  /media/908a347e-7db6-4533-aa18-a448b2ad70d0/home/raja/myandroid_wifi/out/target/product/nitrogen6x/system/sbin/mkswap -> ../bin/busybox
  /media/908a347e-7db6-4533-aa18-a448b2ad70d0/home/raja/myandroid_wifi/out/target/product/nitrogen6x/system/sbin/modprobe -> ../bin/busybox
  /media/908a347e-7db6-4533-aa18-a448b2ad70d0/home/raja/myandroid_wifi/out/target/product/nitrogen6x/system/sbin/nameif -> ../bin/busybox
  /media/908a347e-7db6-4533-aa18-a448b2ad70d0/home/raja/myandroid_wifi/out/target/product/nitrogen6x/system/sbin/pivot_root -> ../bin/busybox
  /media/908a347e-7db6-4533-aa18-a448b2ad70d0/home/raja/myandroid_wifi/out/target/product/nitrogen6x/system/sbin/poweroff -> ../bin/busybox
  /media/908a347e-7db6-4533-aa18-a448b2ad70d0/home/raja/myandroid_wifi/out/target/product/nitrogen6x/system/sbin/raidautorun -> ../bin/busybox
  /media/908a347e-7db6-4533-aa18-a448b2ad70d0/home/raja/myandroid_wifi/out/target/product/nitrogen6x/system/sbin/rmmod -> ../bin/busybox
  /media/908a347e-7db6-4533-aa18-a448b2ad70d0/home/raja/myandroid_wifi/out/target/product/nitrogen6x/system/sbin/route -> ../bin/busybox
  /media/908a347e-7db6-4533-aa18-a448b2ad70d0/home/raja/myandroid_wifi/out/target/product/nitrogen6x/system/sbin/runlevel -> ../bin/busybox
  /media/908a347e-7db6-4533-aa18-a448b2ad70d0/home/raja/myandroid_wifi/out/target/product/nitrogen6x/system/sbin/setconsole -> ../bin/busybox
  /media/908a347e-7db6-4533-aa18-a448b2ad70d0/home/raja/myandroid_wifi/out/target/product/nitrogen6x/system/sbin/slattach -> ../bin/busybox
  /media/908a347e-7db6-4533-aa18-a448b2ad70d0/home/raja/myandroid_wifi/out/target/product/nitrogen6x/system/sbin/start-stop-daemon -> ../bin/busybox
  /media/908a347e-7db6-4533-aa18-a448b2ad70d0/home/raja/myandroid_wifi/out/target/product/nitrogen6x/system/sbin/sulogin -> ../bin/busybox
  /media/908a347e-7db6-4533-aa18-a448b2ad70d0/home/raja/myandroid_wifi/out/target/product/nitrogen6x/system/sbin/swapoff -> ../bin/busybox
  /media/908a347e-7db6-4533-aa18-a448b2ad70d0/home/raja/myandroid_wifi/out/target/product/nitrogen6x/system/sbin/swapon -> ../bin/busybox
  /media/908a347e-7db6-4533-aa18-a448b2ad70d0/home/raja/myandroid_wifi/out/target/product/nitrogen6x/system/sbin/switch_root -> ../bin/busybox
  /media/908a347e-7db6-4533-aa18-a448b2ad70d0/home/raja/myandroid_wifi/out/target/product/nitrogen6x/system/sbin/sysctl -> ../bin/busybox
  /media/908a347e-7db6-4533-aa18-a448b2ad70d0/home/raja/myandroid_wifi/out/target/product/nitrogen6x/system/sbin/syslogd -> ../bin/busybox
  /media/908a347e-7db6-4533-aa18-a448b2ad70d0/home/raja/myandroid_wifi/out/target/product/nitrogen6x/system/sbin/tunctl -> ../bin/busybox
  /media/908a347e-7db6-4533-aa18-a448b2ad70d0/home/raja/myandroid_wifi/out/target/product/nitrogen6x/system/sbin/udhcpc -> ../bin/busybox
  /media/908a347e-7db6-4533-aa18-a448b2ad70d0/home/raja/myandroid_wifi/out/target/product/nitrogen6x/system/sbin/vconfig -> ../bin/busybox
  /media/908a347e-7db6-4533-aa18-a448b2ad70d0/home/raja/myandroid_wifi/out/target/product/nitrogen6x/system/sbin/watchdog -> ../bin/busybox
  /media/908a347e-7db6-4533-aa18-a448b2ad70d0/home/raja/myandroid_wifi/out/target/product/nitrogen6x/system/sbin/zcip -> ../bin/busybox
  /media/908a347e-7db6-4533-aa18-a448b2ad70d0/home/raja/myandroid_wifi/out/target/product/nitrogen6x/system/usr/bin/ar -> ../../bin/busybox
  /media/908a347e-7db6-4533-aa18-a448b2ad70d0/home/raja/myandroid_wifi/out/target/product/nitrogen6x/system/usr/bin/arping -> ../../bin/busybox
  /media/908a347e-7db6-4533-aa18-a448b2ad70d0/home/raja/myandroid_wifi/out/target/product/nitrogen6x/system/usr/bin/awk -> ../../bin/busybox
  /media/908a347e-7db6-4533-aa18-a448b2ad70d0/home/raja/myandroid_wifi/out/target/product/nitrogen6x/system/usr/bin/basename -> ../../bin/busybox
  /media/908a347e-7db6-4533-aa18-a448b2ad70d0/home/raja/myandroid_wifi/out/target/product/nitrogen6x/system/usr/bin/beep -> ../../bin/busybox
  /media/908a347e-7db6-4533-aa18-a448b2ad70d0/home/raja/myandroid_wifi/out/target/product/nitrogen6x/system/usr/bin/bunzip2 -> ../../bin/busybox
  /media/908a347e-7db6-4533-aa18-a448b2ad70d0/home/raja/myandroid_wifi/out/target/product/nitrogen6x/system/usr/bin/bzcat -> ../../bin/busybox
  /media/908a347e-7db6-4533-aa18-a448b2ad70d0/home/raja/myandroid_wifi/out/target/product/nitrogen6x/system/usr/bin/bzip2 -> ../../bin/busybox
  /media/908a347e-7db6-4533-aa18-a448b2ad70d0/home/raja/myandroid_wifi/out/target/product/nitrogen6x/system/usr/bin/cal -> ../../bin/busybox
  /media/908a347e-7db6-4533-aa18-a448b2ad70d0/home/raja/myandroid_wifi/out/target/product/nitrogen6x/system/usr/bin/chat -> ../../bin/busybox
  /media/908a347e-7db6-4533-aa18-a448b2ad70d0/home/raja/myandroid_wifi/out/target/product/nitrogen6x/system/usr/bin/chpst -> ../../bin/busybox
  /media/908a347e-7db6-4533-aa18-a448b2ad70d0/home/raja/myandroid_wifi/out/target/product/nitrogen6x/system/usr/bin/chrt -> ../../bin/busybox
  /media/908a347e-7db6-4533-aa18-a448b2ad70d0/home/raja/myandroid_wifi/out/target/product/nitrogen6x/system/usr/bin/chvt -> ../../bin/busybox
  /media/908a347e-7db6-4533-aa18-a448b2ad70d0/home/raja/myandroid_wifi/out/target/product/nitrogen6x/system/usr/bin/cksum -> ../../bin/busybox
  /media/908a347e-7db6-4533-aa18-a448b2ad70d0/home/raja/myandroid_wifi/out/target/product/nitrogen6x/system/usr/bin/clear -> ../../bin/busybox
  /media/908a347e-7db6-4533-aa18-a448b2ad70d0/home/raja/myandroid_wifi/out/target/product/nitrogen6x/system/usr/bin/cmp -> ../../bin/busybox
  /media/908a347e-7db6-4533-aa18-a448b2ad70d0/home/raja/myandroid_wifi/out/target/product/nitrogen6x/system/usr/bin/comm -> ../../bin/busybox
  /media/908a347e-7db6-4533-aa18-a448b2ad70d0/home/raja/myandroid_wifi/out/target/product/nitrogen6x/system/usr/bin/crontab -> ../../bin/busybox
  /media/908a347e-7db6-4533-aa18-a448b2ad70d0/home/raja/myandroid_wifi/out/target/product/nitrogen6x/system/usr/bin/cryptpw -> ../../bin/busybox
  /media/908a347e-7db6-4533-aa18-a448b2ad70d0/home/raja/myandroid_wifi/out/target/product/nitrogen6x/system/usr/bin/cut -> ../../bin/busybox
  /media/908a347e-7db6-4533-aa18-a448b2ad70d0/home/raja/myandroid_wifi/out/target/product/nitrogen6x/system/usr/bin/dc -> ../../bin/busybox
  /media/908a347e-7db6-4533-aa18-a448b2ad70d0/home/raja/myandroid_wifi/out/target/product/nitrogen6x/system/usr/bin/deallocvt -> ../../bin/busybox
  /media/908a347e-7db6-4533-aa18-a448b2ad70d0/home/raja/myandroid_wifi/out/target/product/nitrogen6x/system/usr/bin/diff -> ../../bin/busybox
  /media/908a347e-7db6-4533-aa18-a448b2ad70d0/home/raja/myandroid_wifi/out/target/product/nitrogen6x/system/usr/bin/dirname -> ../../bin/busybox
  /media/908a347e-7db6-4533-aa18-a448b2ad70d0/home/raja/myandroid_wifi/out/target/product/nitrogen6x/system/usr/bin/dos2unix -> ../../bin/busybox
  /media/908a347e-7db6-4533-aa18-a448b2ad70d0/home/raja/myandroid_wifi/out/target/product/nitrogen6x/system/usr/bin/du -> ../../bin/busybox
  /media/908a347e-7db6-4533-aa18-a448b2ad70d0/home/raja/myandroid_wifi/out/target/product/nitrogen6x/system/usr/bin/dumpleases -> ../../bin/busybox
  /media/908a347e-7db6-4533-aa18-a448b2ad70d0/home/raja/myandroid_wifi/out/target/product/nitrogen6x/system/usr/bin/eject -> ../../bin/busybox
  /media/908a347e-7db6-4533-aa18-a448b2ad70d0/home/raja/myandroid_wifi/out/target/product/nitrogen6x/system/usr/bin/env -> ../../bin/busybox
  /media/908a347e-7db6-4533-aa18-a448b2ad70d0/home/raja/myandroid_wifi/out/target/product/nitrogen6x/system/usr/bin/envdir -> ../../bin/busybox
  /media/908a347e-7db6-4533-aa18-a448b2ad70d0/home/raja/myandroid_wifi/out/target/product/nitrogen6x/system/usr/bin/envuidgid -> ../../bin/busybox
  /media/908a347e-7db6-4533-aa18-a448b2ad70d0/home/raja/myandroid_wifi/out/target/product/nitrogen6x/system/usr/bin/ether-wake -> ../../bin/busybox
  /media/908a347e-7db6-4533-aa18-a448b2ad70d0/home/raja/myandroid_wifi/out/target/product/nitrogen6x/system/usr/bin/expand -> ../../bin/busybox
  /media/908a347e-7db6-4533-aa18-a448b2ad70d0/home/raja/myandroid_wifi/out/target/product/nitrogen6x/system/usr/bin/expr -> ../../bin/busybox
  /media/908a347e-7db6-4533-aa18-a448b2ad70d0/home/raja/myandroid_wifi/out/target/product/nitrogen6x/system/usr/bin/fdformat -> ../../bin/busybox
  /media/908a347e-7db6-4533-aa18-a448b2ad70d0/home/raja/myandroid_wifi/out/target/product/nitrogen6x/system/usr/bin/find -> ../../bin/busybox
  /media/908a347e-7db6-4533-aa18-a448b2ad70d0/home/raja/myandroid_wifi/out/target/product/nitrogen6x/system/usr/bin/fold -> ../../bin/busybox
  /media/908a347e-7db6-4533-aa18-a448b2ad70d0/home/raja/myandroid_wifi/out/target/product/nitrogen6x/system/usr/bin/free -> ../../bin/busybox
  /media/908a347e-7db6-4533-aa18-a448b2ad70d0/home/raja/myandroid_wifi/out/target/product/nitrogen6x/system/usr/bin/ftpget -> ../../bin/busybox
  /media/908a347e-7db6-4533-aa18-a448b2ad70d0/home/raja/myandroid_wifi/out/target/product/nitrogen6x/system/usr/bin/ftpput -> ../../bin/busybox
  /media/908a347e-7db6-4533-aa18-a448b2ad70d0/home/raja/myandroid_wifi/out/target/product/nitrogen6x/system/usr/bin/fuser -> ../../bin/busybox
  /media/908a347e-7db6-4533-aa18-a448b2ad70d0/home/raja/myandroid_wifi/out/target/product/nitrogen6x/system/usr/bin/hd -> ../../bin/busybox
  /media/908a347e-7db6-4533-aa18-a448b2ad70d0/home/raja/myandroid_wifi/out/target/product/nitrogen6x/system/usr/bin/head -> ../../bin/busybox
  /media/908a347e-7db6-4533-aa18-a448b2ad70d0/home/raja/myandroid_wifi/out/target/product/nitrogen6x/system/usr/bin/hexdump -> ../../bin/busybox
  /media/908a347e-7db6-4533-aa18-a448b2ad70d0/home/raja/myandroid_wifi/out/target/product/nitrogen6x/system/usr/bin/hostid -> ../../bin/busybox
  /media/908a347e-7db6-4533-aa18-a448b2ad70d0/home/raja/myandroid_wifi/out/target/product/nitrogen6x/system/usr/bin/id -> ../../bin/busybox
  /media/908a347e-7db6-4533-aa18-a448b2ad70d0/home/raja/myandroid_wifi/out/target/product/nitrogen6x/system/usr/bin/ifplugd -> ../../bin/busybox
  /media/908a347e-7db6-4533-aa18-a448b2ad70d0/home/raja/myandroid_wifi/out/target/product/nitrogen6x/system/usr/bin/install -> ../../bin/busybox
  /media/908a347e-7db6-4533-aa18-a448b2ad70d0/home/raja/myandroid_wifi/out/target/product/nitrogen6x/system/usr/bin/ipcrm -> ../../bin/busybox
  /media/908a347e-7db6-4533-aa18-a448b2ad70d0/home/raja/myandroid_wifi/out/target/product/nitrogen6x/system/usr/bin/ipcs -> ../../bin/busybox
  /media/908a347e-7db6-4533-aa18-a448b2ad70d0/home/raja/myandroid_wifi/out/target/product/nitrogen6x/system/usr/bin/kbd_mode -> ../../bin/busybox
  /media/908a347e-7db6-4533-aa18-a448b2ad70d0/home/raja/myandroid_wifi/out/target/product/nitrogen6x/system/usr/bin/killall -> ../../bin/busybox
  /media/908a347e-7db6-4533-aa18-a448b2ad70d0/home/raja/myandroid_wifi/out/target/product/nitrogen6x/system/usr/bin/killall5 -> ../../bin/busybox
  /media/908a347e-7db6-4533-aa18-a448b2ad70d0/home/raja/myandroid_wifi/out/target/product/nitrogen6x/system/usr/bin/last -> ../../bin/busybox
  /media/908a347e-7db6-4533-aa18-a448b2ad70d0/home/raja/myandroid_wifi/out/target/product/nitrogen6x/system/usr/bin/length -> ../../bin/busybox
  /media/908a347e-7db6-4533-aa18-a448b2ad70d0/home/raja/myandroid_wifi/out/target/product/nitrogen6x/system/usr/bin/less -> ../../bin/busybox
  /media/908a347e-7db6-4533-aa18-a448b2ad70d0/home/raja/myandroid_wifi/out/target/product/nitrogen6x/system/usr/bin/logger -> ../../bin/busybox
  /media/908a347e-7db6-4533-aa18-a448b2ad70d0/home/raja/myandroid_wifi/out/target/product/nitrogen6x/system/usr/bin/logname -> ../../bin/busybox
  /media/908a347e-7db6-4533-aa18-a448b2ad70d0/home/raja/myandroid_wifi/out/target/product/nitrogen6x/system/usr/bin/lpq -> ../../bin/busybox
  /media/908a347e-7db6-4533-aa18-a448b2ad70d0/home/raja/myandroid_wifi/out/target/product/nitrogen6x/system/usr/bin/lpr -> ../../bin/busybox
  /media/908a347e-7db6-4533-aa18-a448b2ad70d0/home/raja/myandroid_wifi/out/target/product/nitrogen6x/system/usr/bin/lzmacat -> ../../bin/busybox
  /media/908a347e-7db6-4533-aa18-a448b2ad70d0/home/raja/myandroid_wifi/out/target/product/nitrogen6x/system/usr/bin/lzopcat -> ../../bin/busybox
  /media/908a347e-7db6-4533-aa18-a448b2ad70d0/home/raja/myandroid_wifi/out/target/product/nitrogen6x/system/usr/bin/md5sum -> ../../bin/busybox
  /media/908a347e-7db6-4533-aa18-a448b2ad70d0/home/raja/myandroid_wifi/out/target/product/nitrogen6x/system/usr/bin/mesg -> ../../bin/busybox
  /media/908a347e-7db6-4533-aa18-a448b2ad70d0/home/raja/myandroid_wifi/out/target/product/nitrogen6x/system/usr/bin/microcom -> ../../bin/busybox
  /media/908a347e-7db6-4533-aa18-a448b2ad70d0/home/raja/myandroid_wifi/out/target/product/nitrogen6x/system/usr/bin/mkfifo -> ../../bin/busybox
  /media/908a347e-7db6-4533-aa18-a448b2ad70d0/home/raja/myandroid_wifi/out/target/product/nitrogen6x/system/usr/bin/mkpasswd -> ../../bin/busybox
  /media/908a347e-7db6-4533-aa18-a448b2ad70d0/home/raja/myandroid_wifi/out/target/product/nitrogen6x/system/usr/bin/nc -> ../../bin/busybox
  /media/908a347e-7db6-4533-aa18-a448b2ad70d0/home/raja/myandroid_wifi/out/target/product/nitrogen6x/system/usr/bin/nmeter -> ../../bin/busybox
  /media/908a347e-7db6-4533-aa18-a448b2ad70d0/home/raja/myandroid_wifi/out/target/product/nitrogen6x/system/usr/bin/nohup -> ../../bin/busybox
  /media/908a347e-7db6-4533-aa18-a448b2ad70d0/home/raja/myandroid_wifi/out/target/product/nitrogen6x/system/usr/bin/nslookup -> ../../bin/busybox
  /media/908a347e-7db6-4533-aa18-a448b2ad70d0/home/raja/myandroid_wifi/out/target/product/nitrogen6x/system/usr/bin/od -> ../../bin/busybox
  /media/908a347e-7db6-4533-aa18-a448b2ad70d0/home/raja/myandroid_wifi/out/target/product/nitrogen6x/system/usr/bin/openvt -> ../../bin/busybox
  /media/908a347e-7db6-4533-aa18-a448b2ad70d0/home/raja/myandroid_wifi/out/target/product/nitrogen6x/system/usr/bin/passwd -> ../../bin/busybox
  /media/908a347e-7db6-4533-aa18-a448b2ad70d0/home/raja/myandroid_wifi/out/target/product/nitrogen6x/system/usr/bin/patch -> ../../bin/busybox
  /media/908a347e-7db6-4533-aa18-a448b2ad70d0/home/raja/myandroid_wifi/out/target/product/nitrogen6x/system/usr/bin/pgrep -> ../../bin/busybox
  /media/908a347e-7db6-4533-aa18-a448b2ad70d0/home/raja/myandroid_wifi/out/target/product/nitrogen6x/system/usr/bin/pkill -> ../../bin/busybox
  /media/908a347e-7db6-4533-aa18-a448b2ad70d0/home/raja/myandroid_wifi/out/target/product/nitrogen6x/system/usr/bin/printf -> ../../bin/busybox
  /media/908a347e-7db6-4533-aa18-a448b2ad70d0/home/raja/myandroid_wifi/out/target/product/nitrogen6x/system/usr/bin/pscan -> ../../bin/busybox
  /media/908a347e-7db6-4533-aa18-a448b2ad70d0/home/raja/myandroid_wifi/out/target/product/nitrogen6x/system/usr/bin/readahead -> ../../bin/busybox
  /media/908a347e-7db6-4533-aa18-a448b2ad70d0/home/raja/myandroid_wifi/out/target/product/nitrogen6x/system/usr/bin/readlink -> ../../bin/busybox
  /media/908a347e-7db6-4533-aa18-a448b2ad70d0/home/raja/myandroid_wifi/out/target/product/nitrogen6x/system/usr/bin/realpath -> ../../bin/busybox
  /media/908a347e-7db6-4533-aa18-a448b2ad70d0/home/raja/myandroid_wifi/out/target/product/nitrogen6x/system/usr/bin/renice -> ../../bin/busybox
  /media/908a347e-7db6-4533-aa18-a448b2ad70d0/home/raja/myandroid_wifi/out/target/product/nitrogen6x/system/usr/bin/reset -> ../../bin/busybox
  /media/908a347e-7db6-4533-aa18-a448b2ad70d0/home/raja/myandroid_wifi/out/target/product/nitrogen6x/system/usr/bin/resize -> ../../bin/busybox
  /media/908a347e-7db6-4533-aa18-a448b2ad70d0/home/raja/myandroid_wifi/out/target/product/nitrogen6x/system/usr/bin/rtcwake -> ../../bin/busybox
  /media/908a347e-7db6-4533-aa18-a448b2ad70d0/home/raja/myandroid_wifi/out/target/product/nitrogen6x/system/usr/bin/runsv -> ../../bin/busybox
  /media/908a347e-7db6-4533-aa18-a448b2ad70d0/home/raja/myandroid_wifi/out/target/product/nitrogen6x/system/usr/bin/runsvdir -> ../../bin/busybox
  /media/908a347e-7db6-4533-aa18-a448b2ad70d0/home/raja/myandroid_wifi/out/target/product/nitrogen6x/system/usr/bin/rx -> ../../bin/busybox
  /media/908a347e-7db6-4533-aa18-a448b2ad70d0/home/raja/myandroid_wifi/out/target/product/nitrogen6x/system/usr/bin/script -> ../../bin/busybox
  /media/908a347e-7db6-4533-aa18-a448b2ad70d0/home/raja/myandroid_wifi/out/target/product/nitrogen6x/system/usr/bin/seq -> ../../bin/busybox
  /media/908a347e-7db6-4533-aa18-a448b2ad70d0/home/raja/myandroid_wifi/out/target/product/nitrogen6x/system/usr/bin/setkeycodes -> ../../bin/busybox
  /media/908a347e-7db6-4533-aa18-a448b2ad70d0/home/raja/myandroid_wifi/out/target/product/nitrogen6x/system/usr/bin/setsid -> ../../bin/busybox
  /media/908a347e-7db6-4533-aa18-a448b2ad70d0/home/raja/myandroid_wifi/out/target/product/nitrogen6x/system/usr/bin/setuidgid -> ../../bin/busybox
  /media/908a347e-7db6-4533-aa18-a448b2ad70d0/home/raja/myandroid_wifi/out/target/product/nitrogen6x/system/usr/bin/sha1sum -> ../../bin/busybox
  /media/908a347e-7db6-4533-aa18-a448b2ad70d0/home/raja/myandroid_wifi/out/target/product/nitrogen6x/system/usr/bin/sha256sum -> ../../bin/busybox
  /media/908a347e-7db6-4533-aa18-a448b2ad70d0/home/raja/myandroid_wifi/out/target/product/nitrogen6x/system/usr/bin/sha512sum -> ../../bin/busybox
  /media/908a347e-7db6-4533-aa18-a448b2ad70d0/home/raja/myandroid_wifi/out/target/product/nitrogen6x/system/usr/bin/showkey -> ../../bin/busybox
  /media/908a347e-7db6-4533-aa18-a448b2ad70d0/home/raja/myandroid_wifi/out/target/product/nitrogen6x/system/usr/bin/softlimit -> ../../bin/busybox
  /media/908a347e-7db6-4533-aa18-a448b2ad70d0/home/raja/myandroid_wifi/out/target/product/nitrogen6x/system/usr/bin/sort -> ../../bin/busybox
  /media/908a347e-7db6-4533-aa18-a448b2ad70d0/home/raja/myandroid_wifi/out/target/product/nitrogen6x/system/usr/bin/split -> ../../bin/busybox
  /media/908a347e-7db6-4533-aa18-a448b2ad70d0/home/raja/myandroid_wifi/out/target/product/nitrogen6x/system/usr/bin/strings -> ../../bin/busybox
  /media/908a347e-7db6-4533-aa18-a448b2ad70d0/home/raja/myandroid_wifi/out/target/product/nitrogen6x/system/usr/bin/sum -> ../../bin/busybox
  /media/908a347e-7db6-4533-aa18-a448b2ad70d0/home/raja/myandroid_wifi/out/target/product/nitrogen6x/system/usr/bin/sv -> ../../bin/busybox
  /media/908a347e-7db6-4533-aa18-a448b2ad70d0/home/raja/myandroid_wifi/out/target/product/nitrogen6x/system/usr/bin/tac -> ../../bin/busybox
  /media/908a347e-7db6-4533-aa18-a448b2ad70d0/home/raja/myandroid_wifi/out/target/product/nitrogen6x/system/usr/bin/tail -> ../../bin/busybox
  /media/908a347e-7db6-4533-aa18-a448b2ad70d0/home/raja/myandroid_wifi/out/target/product/nitrogen6x/system/usr/bin/tcpsvd -> ../../bin/busybox
  /media/908a347e-7db6-4533-aa18-a448b2ad70d0/home/raja/myandroid_wifi/out/target/product/nitrogen6x/system/usr/bin/tee -> ../../bin/busybox
  /media/908a347e-7db6-4533-aa18-a448b2ad70d0/home/raja/myandroid_wifi/out/target/product/nitrogen6x/system/usr/bin/telnet -> ../../bin/busybox
  /media/908a347e-7db6-4533-aa18-a448b2ad70d0/home/raja/myandroid_wifi/out/target/product/nitrogen6x/system/usr/bin/tftp -> ../../bin/busybox
  /media/908a347e-7db6-4533-aa18-a448b2ad70d0/home/raja/myandroid_wifi/out/target/product/nitrogen6x/system/usr/bin/tftpd -> ../../bin/busybox
  /media/908a347e-7db6-4533-aa18-a448b2ad70d0/home/raja/myandroid_wifi/out/target/product/nitrogen6x/system/usr/bin/time -> ../../bin/busybox
  /media/908a347e-7db6-4533-aa18-a448b2ad70d0/home/raja/myandroid_wifi/out/target/product/nitrogen6x/system/usr/bin/timeout -> ../../bin/busybox
  /media/908a347e-7db6-4533-aa18-a448b2ad70d0/home/raja/myandroid_wifi/out/target/product/nitrogen6x/system/usr/bin/top -> ../../bin/busybox
  /media/908a347e-7db6-4533-aa18-a448b2ad70d0/home/raja/myandroid_wifi/out/target/product/nitrogen6x/system/usr/bin/tr -> ../../bin/busybox
  /media/908a347e-7db6-4533-aa18-a448b2ad70d0/home/raja/myandroid_wifi/out/target/product/nitrogen6x/system/usr/bin/traceroute -> ../../bin/busybox
  /media/908a347e-7db6-4533-aa18-a448b2ad70d0/home/raja/myandroid_wifi/out/target/product/nitrogen6x/system/usr/bin/tty -> ../../bin/busybox
  /media/908a347e-7db6-4533-aa18-a448b2ad70d0/home/raja/myandroid_wifi/out/target/product/nitrogen6x/system/usr/bin/ttysize -> ../../bin/busybox
  /media/908a347e-7db6-4533-aa18-a448b2ad70d0/home/raja/myandroid_wifi/out/target/product/nitrogen6x/system/usr/bin/udpsvd -> ../../bin/busybox
  /media/908a347e-7db6-4533-aa18-a448b2ad70d0/home/raja/myandroid_wifi/out/target/product/nitrogen6x/system/usr/bin/unexpand -> ../../bin/busybox
  /media/908a347e-7db6-4533-aa18-a448b2ad70d0/home/raja/myandroid_wifi/out/target/product/nitrogen6x/system/usr/bin/uniq -> ../../bin/busybox
  /media/908a347e-7db6-4533-aa18-a448b2ad70d0/home/raja/myandroid_wifi/out/target/product/nitrogen6x/system/usr/bin/unix2dos -> ../../bin/busybox
  /media/908a347e-7db6-4533-aa18-a448b2ad70d0/home/raja/myandroid_wifi/out/target/product/nitrogen6x/system/usr/bin/unlzma -> ../../bin/busybox
  /media/908a347e-7db6-4533-aa18-a448b2ad70d0/home/raja/myandroid_wifi/out/target/product/nitrogen6x/system/usr/bin/unlzop -> ../../bin/busybox
  /media/908a347e-7db6-4533-aa18-a448b2ad70d0/home/raja/myandroid_wifi/out/target/product/nitrogen6x/system/usr/bin/unzip -> ../../bin/busybox
  /media/908a347e-7db6-4533-aa18-a448b2ad70d0/home/raja/myandroid_wifi/out/target/product/nitrogen6x/system/usr/bin/uptime -> ../../bin/busybox
  /media/908a347e-7db6-4533-aa18-a448b2ad70d0/home/raja/myandroid_wifi/out/target/product/nitrogen6x/system/usr/bin/uudecode -> ../../bin/busybox
  /media/908a347e-7db6-4533-aa18-a448b2ad70d0/home/raja/myandroid_wifi/out/target/product/nitrogen6x/system/usr/bin/uuencode -> ../../bin/busybox
  /media/908a347e-7db6-4533-aa18-a448b2ad70d0/home/raja/myandroid_wifi/out/target/product/nitrogen6x/system/usr/bin/vlock -> ../../bin/busybox
  /media/908a347e-7db6-4533-aa18-a448b2ad70d0/home/raja/myandroid_wifi/out/target/product/nitrogen6x/system/usr/bin/volname -> ../../bin/busybox
  /media/908a347e-7db6-4533-aa18-a448b2ad70d0/home/raja/myandroid_wifi/out/target/product/nitrogen6x/system/usr/bin/wc -> ../../bin/busybox
  /media/908a347e-7db6-4533-aa18-a448b2ad70d0/home/raja/myandroid_wifi/out/target/product/nitrogen6x/system/usr/bin/wget -> ../../bin/busybox
  /media/908a347e-7db6-4533-aa18-a448b2ad70d0/home/raja/myandroid_wifi/out/target/product/nitrogen6x/system/usr/bin/which -> ../../bin/busybox
  /media/908a347e-7db6-4533-aa18-a448b2ad70d0/home/raja/myandroid_wifi/out/target/product/nitrogen6x/system/usr/bin/who -> ../../bin/busybox
  /media/908a347e-7db6-4533-aa18-a448b2ad70d0/home/raja/myandroid_wifi/out/target/product/nitrogen6x/system/usr/bin/whoami -> ../../bin/busybox
  /media/908a347e-7db6-4533-aa18-a448b2ad70d0/home/raja/myandroid_wifi/out/target/product/nitrogen6x/system/usr/bin/xargs -> ../../bin/busybox
  /media/908a347e-7db6-4533-aa18-a448b2ad70d0/home/raja/myandroid_wifi/out/target/product/nitrogen6x/system/usr/bin/yes -> ../../bin/busybox
  /media/908a347e-7db6-4533-aa18-a448b2ad70d0/home/raja/myandroid_wifi/out/target/product/nitrogen6x/system/usr/sbin/brctl -> ../../bin/busybox
  /media/908a347e-7db6-4533-aa18-a448b2ad70d0/home/raja/myandroid_wifi/out/target/product/nitrogen6x/system/usr/sbin/chpasswd -> ../../bin/busybox
  /media/908a347e-7db6-4533-aa18-a448b2ad70d0/home/raja/myandroid_wifi/out/target/product/nitrogen6x/system/usr/sbin/chroot -> ../../bin/busybox
  /media/908a347e-7db6-4533-aa18-a448b2ad70d0/home/raja/myandroid_wifi/out/target/product/nitrogen6x/system/usr/sbin/crond -> ../../bin/busybox
  /media/908a347e-7db6-4533-aa18-a448b2ad70d0/home/raja/myandroid_wifi/out/target/product/nitrogen6x/system/usr/sbin/dhcprelay -> ../../bin/busybox
  /media/908a347e-7db6-4533-aa18-a448b2ad70d0/home/raja/myandroid_wifi/out/target/product/nitrogen6x/system/usr/sbin/dnsd -> ../../bin/busybox
  /media/908a347e-7db6-4533-aa18-a448b2ad70d0/home/raja/myandroid_wifi/out/target/product/nitrogen6x/system/usr/sbin/fakeidentd -> ../../bin/busybox
  /media/908a347e-7db6-4533-aa18-a448b2ad70d0/home/raja/myandroid_wifi/out/target/product/nitrogen6x/system/usr/sbin/fbset -> ../../bin/busybox
  /media/908a347e-7db6-4533-aa18-a448b2ad70d0/home/raja/myandroid_wifi/out/target/product/nitrogen6x/system/usr/sbin/ftpd -> ../../bin/busybox
  /media/908a347e-7db6-4533-aa18-a448b2ad70d0/home/raja/myandroid_wifi/out/target/product/nitrogen6x/system/usr/sbin/httpd -> ../../bin/busybox
  /media/908a347e-7db6-4533-aa18-a448b2ad70d0/home/raja/myandroid_wifi/out/target/product/nitrogen6x/system/usr/sbin/inetd -> ../../bin/busybox
  /media/908a347e-7db6-4533-aa18-a448b2ad70d0/home/raja/myandroid_wifi/out/target/product/nitrogen6x/system/usr/sbin/loadfont -> ../../bin/busybox
  /media/908a347e-7db6-4533-aa18-a448b2ad70d0/home/raja/myandroid_wifi/out/target/product/nitrogen6x/system/usr/sbin/lpd -> ../../bin/busybox
  /media/908a347e-7db6-4533-aa18-a448b2ad70d0/home/raja/myandroid_wifi/out/target/product/nitrogen6x/system/usr/sbin/popmaildir -> ../../bin/busybox
  /media/908a347e-7db6-4533-aa18-a448b2ad70d0/home/raja/myandroid_wifi/out/target/product/nitrogen6x/system/usr/sbin/rdate -> ../../bin/busybox
  /media/908a347e-7db6-4533-aa18-a448b2ad70d0/home/raja/myandroid_wifi/out/target/product/nitrogen6x/system/usr/sbin/rdev -> ../../bin/busybox
  /media/908a347e-7db6-4533-aa18-a448b2ad70d0/home/raja/myandroid_wifi/out/target/product/nitrogen6x/system/usr/sbin/readprofile -> ../../bin/busybox
  /media/908a347e-7db6-4533-aa18-a448b2ad70d0/home/raja/myandroid_wifi/out/target/product/nitrogen6x/system/usr/sbin/sendmail -> ../../bin/busybox
  /media/908a347e-7db6-4533-aa18-a448b2ad70d0/home/raja/myandroid_wifi/out/target/product/nitrogen6x/system/usr/sbin/setfont -> ../../bin/busybox
  /media/908a347e-7db6-4533-aa18-a448b2ad70d0/home/raja/myandroid_wifi/out/target/product/nitrogen6x/system/usr/sbin/setlogcons -> ../../bin/busybox
  /media/908a347e-7db6-4533-aa18-a448b2ad70d0/home/raja/myandroid_wifi/out/target/product/nitrogen6x/system/usr/sbin/svlogd -> ../../bin/busybox
  /media/908a347e-7db6-4533-aa18-a448b2ad70d0/home/raja/myandroid_wifi/out/target/product/nitrogen6x/system/usr/sbin/telnetd -> ../../bin/busybox
  /media/908a347e-7db6-4533-aa18-a448b2ad70d0/home/raja/myandroid_wifi/out/target/product/nitrogen6x/system/usr/sbin/udhcpd -> ../../bin/busybox
make[1]: Leaving directory `/media/908a347e-7db6-4533-aa18-a448b2ad70d0/home/raja/myandroid_wifi/myfiles/mybusybox'
make -C myfiles/sysvinit-2.88dsf/ install ROOT=/media/908a347e-7db6-4533-aa18-a448b2ad70d0/home/raja/myandroid_wifi/out/target/product/nitrogen6x/system
make[1]: Entering directory `/media/908a347e-7db6-4533-aa18-a448b2ad70d0/home/raja/myandroid_wifi/myfiles/sysvinit-2.88dsf'
make -C src install
make[2]: Entering directory `/media/908a347e-7db6-4533-aa18-a448b2ad70d0/home/raja/myandroid_wifi/myfiles/sysvinit-2.88dsf/src'
install -m 755 -d /media/908a347e-7db6-4533-aa18-a448b2ad70d0/home/raja/myandroid_wifi/out/target/product/nitrogen6x/system/bin/ /media/908a347e-7db6-4533-aa18-a448b2ad70d0/home/raja/myandroid_wifi/out/target/product/nitrogen6x/system/sbin/
install -m 755 -d /media/908a347e-7db6-4533-aa18-a448b2ad70d0/home/raja/myandroid_wifi/out/target/product/nitrogen6x/system/usr/bin/
for i in  mountpoint; do \
			install -m 755 $i /media/908a347e-7db6-4533-aa18-a448b2ad70d0/home/raja/myandroid_wifi/out/target/product/nitrogen6x/system/bin/ ; \
		done
for i in init halt shutdown runlevel killall5 fstab-decode sulogin bootlogd; do \
			install -m 755 $i /media/908a347e-7db6-4533-aa18-a448b2ad70d0/home/raja/myandroid_wifi/out/target/product/nitrogen6x/system/sbin/ ; \
		done
for i in last mesg utmpdump wall; do \
			install -m 755 $i /media/908a347e-7db6-4533-aa18-a448b2ad70d0/home/raja/myandroid_wifi/out/target/product/nitrogen6x/system/usr/bin/ ; \
		done
# install -m 755 -d /media/908a347e-7db6-4533-aa18-a448b2ad70d0/home/raja/myandroid_wifi/out/target/product/nitrogen6x/system/etc/
# install -m 755 initscript.sample /media/908a347e-7db6-4533-aa18-a448b2ad70d0/home/raja/myandroid_wifi/out/target/product/nitrogen6x/system/etc/
ln -sf halt /media/908a347e-7db6-4533-aa18-a448b2ad70d0/home/raja/myandroid_wifi/out/target/product/nitrogen6x/system/sbin/reboot
ln -sf halt /media/908a347e-7db6-4533-aa18-a448b2ad70d0/home/raja/myandroid_wifi/out/target/product/nitrogen6x/system/sbin/poweroff
ln -sf init /media/908a347e-7db6-4533-aa18-a448b2ad70d0/home/raja/myandroid_wifi/out/target/product/nitrogen6x/system/sbin/telinit
ln -sf /sbin/killall5 /media/908a347e-7db6-4533-aa18-a448b2ad70d0/home/raja/myandroid_wifi/out/target/product/nitrogen6x/system/bin/pidof
if [ ! -f /media/908a347e-7db6-4533-aa18-a448b2ad70d0/home/raja/myandroid_wifi/out/target/product/nitrogen6x/system/usr/bin/lastb ]; then \
			ln -sf last /media/908a347e-7db6-4533-aa18-a448b2ad70d0/home/raja/myandroid_wifi/out/target/product/nitrogen6x/system/usr/bin/lastb; \
		fi
install -m 755 -d /media/908a347e-7db6-4533-aa18-a448b2ad70d0/home/raja/myandroid_wifi/out/target/product/nitrogen6x/system/usr/include/
install -m 644 initreq.h /media/908a347e-7db6-4533-aa18-a448b2ad70d0/home/raja/myandroid_wifi/out/target/product/nitrogen6x/system/usr/include/
install -m 755 -d /media/908a347e-7db6-4533-aa18-a448b2ad70d0/home/raja/myandroid_wifi/out/target/product/nitrogen6x/system/usr/share/man/man1/
install -m 755 -d /media/908a347e-7db6-4533-aa18-a448b2ad70d0/home/raja/myandroid_wifi/out/target/product/nitrogen6x/system/usr/share/man/man5/
install -m 755 -d /media/908a347e-7db6-4533-aa18-a448b2ad70d0/home/raja/myandroid_wifi/out/target/product/nitrogen6x/system/usr/share/man/man8/
for i in last.1 lastb.1 mesg.1 utmpdump.1 mountpoint.1 wall.1; do \
			install -m 644 ../man/$i /media/908a347e-7db6-4533-aa18-a448b2ad70d0/home/raja/myandroid_wifi/out/target/product/nitrogen6x/system/usr/share/man/man1/; \
		done
for i in initscript.5 inittab.5; do \
			install -m 644 ../man/$i /media/908a347e-7db6-4533-aa18-a448b2ad70d0/home/raja/myandroid_wifi/out/target/product/nitrogen6x/system/usr/share/man/man5/; \
		done
for i in halt.8 init.8 killall5.8 pidof.8 poweroff.8 reboot.8 runlevel.8 shutdown.8 telinit.8 fstab-decode.8 sulogin.8 bootlogd.8; do \
			install -m 644 ../man/$i /media/908a347e-7db6-4533-aa18-a448b2ad70d0/home/raja/myandroid_wifi/out/target/product/nitrogen6x/system/usr/share/man/man8/; \
		done
make[2]: Leaving directory `/media/908a347e-7db6-4533-aa18-a448b2ad70d0/home/raja/myandroid_wifi/myfiles/sysvinit-2.88dsf/src'
make[1]: Leaving directory `/media/908a347e-7db6-4533-aa18-a448b2ad70d0/home/raja/myandroid_wifi/myfiles/sysvinit-2.88dsf'
Symlink: out/target/product/nitrogen6x/system/bin/cat -> toolbox
Symlink: out/target/product/nitrogen6x/system/bin/chmod -> toolbox
Symlink: out/target/product/nitrogen6x/system/bin/chown -> toolbox
Symlink: out/target/product/nitrogen6x/system/bin/cmp -> toolbox
Symlink: out/target/product/nitrogen6x/system/bin/date -> toolbox
Symlink: out/target/product/nitrogen6x/system/bin/dd -> toolbox
Symlink: out/target/product/nitrogen6x/system/bin/df -> toolbox
Symlink: out/target/product/nitrogen6x/system/bin/dmesg -> toolbox
Symlink: out/target/product/nitrogen6x/system/bin/getevent -> toolbox
Symlink: out/target/product/nitrogen6x/system/bin/getprop -> toolbox
Symlink: out/target/product/nitrogen6x/system/bin/hd -> toolbox
Symlink: out/target/product/nitrogen6x/system/bin/id -> toolbox
Symlink: out/target/product/nitrogen6x/system/bin/iftop -> toolbox
Symlink: out/target/product/nitrogen6x/system/bin/insmod -> toolbox
Symlink: out/target/product/nitrogen6x/system/bin/ioctl -> toolbox
Symlink: out/target/product/nitrogen6x/system/bin/ionice -> toolbox
Symlink: out/target/product/nitrogen6x/system/bin/kill -> toolbox
Symlink: out/target/product/nitrogen6x/system/bin/ln -> toolbox
Symlink: out/target/product/nitrogen6x/system/bin/log -> toolbox
Symlink: out/target/product/nitrogen6x/system/bin/lsmod -> toolbox
Symlink: out/target/product/nitrogen6x/system/bin/lsof -> toolbox
Symlink: out/target/product/nitrogen6x/system/bin/mkdir -> toolbox
Symlink: out/target/product/nitrogen6x/system/bin/mount -> toolbox
Symlink: out/target/product/nitrogen6x/system/bin/mv -> toolbox
Symlink: out/target/product/nitrogen6x/system/bin/nandread -> toolbox
Symlink: out/target/product/nitrogen6x/system/bin/netstat -> toolbox
Symlink: out/target/product/nitrogen6x/system/bin/newfs_msdos -> toolbox
Symlink: out/target/product/nitrogen6x/system/bin/notify -> toolbox
Symlink: out/target/product/nitrogen6x/system/bin/printenv -> toolbox
Symlink: out/target/product/nitrogen6x/system/bin/ps -> toolbox
Symlink: out/target/product/nitrogen6x/system/bin/r -> toolbox
Symlink: out/target/product/nitrogen6x/system/bin/reboot -> toolbox
Symlink: out/target/product/nitrogen6x/system/bin/renice -> toolbox
Symlink: out/target/product/nitrogen6x/system/bin/rm -> toolbox
Symlink: out/target/product/nitrogen6x/system/bin/rmdir -> toolbox
Symlink: out/target/product/nitrogen6x/system/bin/rmmod -> toolbox
Symlink: out/target/product/nitrogen6x/system/bin/route -> toolbox
Symlink: out/target/product/nitrogen6x/system/bin/schedtop -> toolbox
Symlink: out/target/product/nitrogen6x/system/bin/sendevent -> toolbox
Symlink: out/target/product/nitrogen6x/system/bin/setconsole -> toolbox
Symlink: out/target/product/nitrogen6x/system/bin/setprop -> toolbox
Symlink: out/target/product/nitrogen6x/system/bin/sleep -> toolbox
Symlink: out/target/product/nitrogen6x/system/bin/smd -> toolbox
Symlink: out/target/product/nitrogen6x/system/bin/start -> toolbox
Symlink: out/target/product/nitrogen6x/system/bin/stop -> toolbox
Symlink: out/target/product/nitrogen6x/system/bin/sync -> toolbox
Symlink: out/target/product/nitrogen6x/system/bin/top -> toolbox
Symlink: out/target/product/nitrogen6x/system/bin/touch -> toolbox
Symlink: out/target/product/nitrogen6x/system/bin/umount -> toolbox
Symlink: out/target/product/nitrogen6x/system/bin/uptime -> toolbox
Symlink: out/target/product/nitrogen6x/system/bin/vmstat -> toolbox
Symlink: out/target/product/nitrogen6x/system/bin/watchprops -> toolbox
Symlink: out/target/product/nitrogen6x/system/bin/wipe -> toolbox
Finding NOTICE files: out/target/product/nitrogen6x/obj/NOTICE_FILES/hash-timestamp
Combining NOTICE files: out/target/product/nitrogen6x/obj/NOTICE.html
Installed file list: out/target/product/nitrogen6x/installed-files.txt
Target system fs image: out/target/product/nitrogen6x/obj/PACKAGING/systemimage_intermediates/system.img
in mkuserimg.sh PATH=out/host/linux-x86/bin/:/usr/lib/jvm/java-6-sun/bin:/home/raja/bin:/usr/lib/lightdm/lightdm:/usr/local/sbin:/usr/local/bin:/usr/sbin:/usr/bin:/sbin:/bin:/usr/games:/media/908a347e-7db6-4533-aa18-a448b2ad70d0/home/raja/myandroid_wifi/out/host/linux-x86/bin:/media/908a347e-7db6-4533-aa18-a448b2ad70d0/home/raja/myandroid_wifi/prebuilt/linux-x86/toolchain/arm-linux-androideabi-4.4.x/bin:/media/908a347e-7db6-4533-aa18-a448b2ad70d0/home/raja/myandroid_wifi/development/emulator/qtools:/media/908a347e-7db6-4533-aa18-a448b2ad70d0/home/raja/myandroid_wifi/prebuilt/linux-x86/toolchain/arm-linux-androideabi-4.4.x/bin:/media/908a347e-7db6-4533-aa18-a448b2ad70d0/home/raja/myandroid_wifi/prebuilt/linux-x86/toolchain/arm-eabi-4.4.3/bin
make_ext4fs -l 293601280 -a system out/target/product/nitrogen6x/obj/PACKAGING/systemimage_intermediates/system.img out/target/product/nitrogen6x/system
Creating filesystem with parameters:
    Size: 293601280
    Block size: 4096
    Blocks per group: 32768
    Inodes per group: 5984
    Inode size: 256
    Journal blocks: 1120
    Label: 
    Blocks: 71680
    Block groups: 3
    Reserved block group size: 23
Created filesystem with 1389/17952 inodes and 39487/71680 blocks
Construct recovery from boot
mkdir -p out/target/product/nitrogen6x/obj/PACKAGING/recovery_patch_intermediates/
PATH=out/host/linux-x86/bin:$PATH out/host/linux-x86/bin/imgdiff out/target/product/nitrogen6x/boot.img out/target/product/nitrogen6x/recovery.img out/target/product/nitrogen6x/obj/PACKAGING/recovery_patch_intermediates/recovery_from_boot.p
failed to reconstruct target deflate chunk 1 [(null)]; treating as normal
Construct patches for 3 chunks...
patch   0 is 211 bytes (of 4319242)
patch   1 is 709758 bytes (of 212474)
patch   2 is 183 bytes (of 508)
chunk   0: normal   (         0,    4319242)         211
chunk   1: deflate  (   4319242,     983534)      709758  (null)
chunk   2: normal   (   5302776,       1544)         183
Install system fs image: out/target/product/nitrogen6x/system.img
out/target/product/nitrogen6x/system.img+out/target/product/nitrogen6x/obj/PACKAGING/recovery_patch_intermediates/recovery_from_boot.p total size is 294311564
make: Leaving directory `/media/908a347e-7db6-4533-aa18-a448b2ad70d0/home/raja/myandroid_wifi'
