============================================
PLATFORM_VERSION_CODENAME=REL
PLATFORM_VERSION=4.0.4
TARGET_PRODUCT=nitrogen6x
TARGET_BUILD_VARIANT=eng
TARGET_BUILD_TYPE=release
TARGET_BUILD_APPS=
TARGET_ARCH=arm
TARGET_ARCH_VARIANT=armv7-a-neon
HOST_ARCH=x86
HOST_OS=linux
HOST_BUILD_TYPE=release
BUILD_ID=UNKNOWN
BUILD_NUMBER=eng.raja.20130304.181155
============================================
external/libnfc-1.6
make: Entering directory `/media/Workspace/iMX/myandroid_new'
external/wpa_supplicant_8/wpa_supplicant/Android.mk:38: NL80211 doesn't belong to Broadcom
hardware/imx/alsa/Android.mk:46: Nitrogen6x
No private recovery resources for TARGET_DEVICE nitrogen6x
Symlink: out/target/product/nitrogen6x/root/sbin/ueventd -> ../init
make -C kernel_imx -j8 uImage modules ARCH=arm CROSS_COMPILE=`pwd`/prebuilt/linux-x86/toolchain/arm-eabi-4.4.3/bin/arm-eabi-
make[1]: Entering directory `/media/Workspace/iMX/myandroid_new/kernel_imx'
  CHK     include/linux/version.h
  CHK     include/generated/utsrelease.h
make[2]: `include/generated/mach-types.h' is up to date.
  CALL    scripts/checksyscalls.sh
  CHK     include/generated/compile.h
  CC      drivers/base/bus.o
  LD      drivers/base/built-in.o
  LD      drivers/built-in.o
  LD      vmlinux.o
  MODPOST vmlinux.o
WARNING: modpost: Found 2 section mismatch(es).
To see full details build your kernel with:
'make CONFIG_DEBUG_SECTION_MISMATCH=y'
  GEN     .version
  CHK     include/generated/compile.h
  UPD     include/generated/compile.h
  CC      init/version.o
  LD      init/built-in.o
  LD      .tmp_vmlinux1
  KSYM    .tmp_kallsyms1.S
  AS      .tmp_kallsyms1.o
  LD      .tmp_vmlinux2
  KSYM    .tmp_kallsyms2.S
  AS      .tmp_kallsyms2.o
  LD      vmlinux
  SYSMAP  System.map
  SYSMAP  .tmp_System.map
  OBJCOPY arch/arm/boot/Image
  Building modules, stage 2.
  MODPOST 9 modules
  Kernel: arch/arm/boot/Image is ready
  GZIP    arch/arm/boot/compressed/piggy.gzip
  SHIPPED arch/arm/boot/compressed/lib1funcs.S
  AS      arch/arm/boot/compressed/lib1funcs.o
  AS      arch/arm/boot/compressed/piggy.gzip.o
  LD      arch/arm/boot/compressed/vmlinux
  OBJCOPY arch/arm/boot/zImage
  Kernel: arch/arm/boot/zImage is ready
  UIMAGE  arch/arm/boot/uImage
Image Name:   Linux-3.0.35-g4a46dbf-dirty
Created:      Mon Mar  4 18:12:26 2013
Image Type:   ARM Linux Kernel Image (uncompressed)
Data Size:    4636696 Bytes = 4528.02 kB = 4.42 MB
Load Address: 10008000
Entry Point:  10008000
  Image arch/arm/boot/uImage is ready
make[1]: Leaving directory `/media/Workspace/iMX/myandroid_new/kernel_imx'
install -D kernel_imx/arch/arm/boot/uImage out/target/product/nitrogen6x/uImage
install -D kernel_imx/arch/arm/boot/zImage out/target/product/nitrogen6x/kernel
Target boot image: out/target/product/nitrogen6x/boot.img
----- Making recovery image ------
rm -rf out/target/product/nitrogen6x/recovery
mkdir -p out/target/product/nitrogen6x/recovery
mkdir -p out/target/product/nitrogen6x/recovery/root
mkdir -p out/target/product/nitrogen6x/recovery/root/etc
mkdir -p out/target/product/nitrogen6x/recovery/root/tmp
echo Copying baseline ramdisk...
Copying baseline ramdisk...
cp -R out/target/product/nitrogen6x/root out/target/product/nitrogen6x/recovery
rm out/target/product/nitrogen6x/recovery/root/init*.rc
echo Modifying ramdisk contents...
Modifying ramdisk contents...
cp -f bootable/recovery/etc/init.rc out/target/product/nitrogen6x/recovery/root/
cp -f out/target/product/nitrogen6x/obj/EXECUTABLES/recovery_intermediates/recovery out/target/product/nitrogen6x/recovery/root/sbin/
cp -rf bootable/recovery/res out/target/product/nitrogen6x/recovery/root/
cp -f device/boundary/nitrogen6x/recovery.fstab out/target/product/nitrogen6x/recovery/root/etc/recovery.fstab
cp out/target/product/nitrogen6x/obj/PACKAGING/ota_keys_intermediates/keys out/target/product/nitrogen6x/recovery/root/res/keys
cat out/target/product/nitrogen6x/root/default.prop out/target/product/nitrogen6x/system/build.prop \
	        > out/target/product/nitrogen6x/recovery/root/default.prop
mkdir -p out/target/product/nitrogen6x/recovery/root/system/bin/
mkdir -p out/target/product/nitrogen6x/recovery/root/system/lib/
cp -f out/target/product/nitrogen6x/system/bin/linker out/target/product/nitrogen6x/system/bin/sh out/target/product/nitrogen6x/system/bin/mke2fs out/target/product/nitrogen6x/recovery/root/system/bin/
cp -f out/target/product/nitrogen6x/system/lib/libc.so out/target/product/nitrogen6x/system/lib/libm.so out/target/product/nitrogen6x/system/lib/libstdc++.so out/target/product/nitrogen6x/system/lib/libext2_blkid.so out/target/product/nitrogen6x/system/lib/libext2_com_err.so out/target/product/nitrogen6x/system/lib/libext2_e2p.so out/target/product/nitrogen6x/system/lib/libext2fs.so out/target/product/nitrogen6x/system/lib/libext2_profile.so out/target/product/nitrogen6x/system/lib/libext2_uuid.so out/target/product/nitrogen6x/recovery/root/system/lib/
out/host/linux-x86/bin/mkbootfs out/target/product/nitrogen6x/recovery/root | out/host/linux-x86/bin/minigzip > out/target/product/nitrogen6x/ramdisk-recovery.img
out/host/linux-x86/bin/mkbootimg  --kernel out/target/product/nitrogen6x/kernel  --ramdisk out/target/product/nitrogen6x/ramdisk-recovery.img --cmdline "console=ttymxc1,115200 init=/init video=mxcfb0 video=mxcfb1:off video=mxcfb2:off fbmem=10M vmalloc=400M androidboot.console=ttymxc1" --base 0x10800000 --output out/target/product/nitrogen6x/recovery.img
----- Made recovery image -------- out/target/product/nitrogen6x/recovery.img
mkdir -p out/target/product/nitrogen6x/
mkimage -A arm -O linux -T ramdisk -n "RAM Disk" -d out/target/product/nitrogen6x/ramdisk-recovery.img out/target/product/nitrogen6x/uramdisk-recovery.img
Image Name:   RAM Disk
Created:      Mon Mar  4 18:12:26 2013
Image Type:   ARM Linux RAMDisk Image (gzip compressed)
Data Size:    1759904 Bytes = 1718.66 kB = 1.68 MB
Load Address: 00000000
Entry Point:  00000000
make -C kernel_imx -j8 ARCH=arm CROSS_COMPILE=`pwd`/prebuilt/linux-x86/toolchain/arm-eabi-4.4.3/bin/arm-eabi- INSTALL_MOD_PATH=../out/target/product/nitrogen6x modules_install
make[1]: Entering directory `/media/Workspace/iMX/myandroid_new/kernel_imx'
  INSTALL drivers/hid/hid-samsung.ko
  INSTALL crypto/tcrypt.ko
  INSTALL drivers/hid/hid-sony.ko
  INSTALL drivers/hid/hid-sunplus.ko
  INSTALL drivers/misc/mxs-perfmon.ko
  INSTALL drivers/scsi/scsi_wait_scan.ko
  INSTALL drivers/net/wireless/wl12xx/wl12xx_sdio.ko
  INSTALL fs/nls/nls_ascii.ko
  INSTALL fs/nls/nls_utf8.ko
  DEPMOD  3.0.35-g4a46dbf-dirty
make[1]: Leaving directory `/media/Workspace/iMX/myandroid_new/kernel_imx'
Copy: out/target/product/nitrogen6x/boot/uImage
pwd
/media/Workspace/iMX/myandroid_new
make -C myfiles/mybusybox OUT_DIR=/media/Workspace/iMX/myandroid_new/out/target/product/nitrogen6x/system
make[1]: Entering directory `/media/Workspace/iMX/myandroid_new/myfiles/mybusybox'
./install.sh /media/Workspace/iMX/myandroid_new/out/target/product/nitrogen6x/system --symlinks
  /media/Workspace/iMX/myandroid_new/out/target/product/nitrogen6x/system/bin/[ -> busybox
  /media/Workspace/iMX/myandroid_new/out/target/product/nitrogen6x/system/bin/[[ -> busybox
  /media/Workspace/iMX/myandroid_new/out/target/product/nitrogen6x/system/bin/addgroup -> busybox
  /media/Workspace/iMX/myandroid_new/out/target/product/nitrogen6x/system/bin/adduser -> busybox
  /media/Workspace/iMX/myandroid_new/out/target/product/nitrogen6x/system/bin/ash -> busybox
  /media/Workspace/iMX/myandroid_new/out/target/product/nitrogen6x/system/bin/cat -> busybox
  /media/Workspace/iMX/myandroid_new/out/target/product/nitrogen6x/system/bin/catv -> busybox
  /media/Workspace/iMX/myandroid_new/out/target/product/nitrogen6x/system/bin/chattr -> busybox
  /media/Workspace/iMX/myandroid_new/out/target/product/nitrogen6x/system/bin/chgrp -> busybox
  /media/Workspace/iMX/myandroid_new/out/target/product/nitrogen6x/system/bin/chmod -> busybox
  /media/Workspace/iMX/myandroid_new/out/target/product/nitrogen6x/system/bin/chown -> busybox
  /media/Workspace/iMX/myandroid_new/out/target/product/nitrogen6x/system/bin/cp -> busybox
  /media/Workspace/iMX/myandroid_new/out/target/product/nitrogen6x/system/bin/cpio -> busybox
  /media/Workspace/iMX/myandroid_new/out/target/product/nitrogen6x/system/bin/cttyhack -> busybox
  /media/Workspace/iMX/myandroid_new/out/target/product/nitrogen6x/system/bin/date -> busybox
  /media/Workspace/iMX/myandroid_new/out/target/product/nitrogen6x/system/bin/dd -> busybox
  /media/Workspace/iMX/myandroid_new/out/target/product/nitrogen6x/system/bin/delgroup -> busybox
  /media/Workspace/iMX/myandroid_new/out/target/product/nitrogen6x/system/bin/deluser -> busybox
  /media/Workspace/iMX/myandroid_new/out/target/product/nitrogen6x/system/bin/df -> busybox
  /media/Workspace/iMX/myandroid_new/out/target/product/nitrogen6x/system/bin/dmesg -> busybox
  /media/Workspace/iMX/myandroid_new/out/target/product/nitrogen6x/system/bin/dnsdomainname -> busybox
  /media/Workspace/iMX/myandroid_new/out/target/product/nitrogen6x/system/bin/dumpkmap -> busybox
  /media/Workspace/iMX/myandroid_new/out/target/product/nitrogen6x/system/bin/echo -> busybox
  /media/Workspace/iMX/myandroid_new/out/target/product/nitrogen6x/system/bin/ed -> busybox
  /media/Workspace/iMX/myandroid_new/out/target/product/nitrogen6x/system/bin/egrep -> busybox
  /media/Workspace/iMX/myandroid_new/out/target/product/nitrogen6x/system/bin/false -> busybox
  /media/Workspace/iMX/myandroid_new/out/target/product/nitrogen6x/system/bin/fdflush -> busybox
  /media/Workspace/iMX/myandroid_new/out/target/product/nitrogen6x/system/bin/fgrep -> busybox
  /media/Workspace/iMX/myandroid_new/out/target/product/nitrogen6x/system/bin/fsync -> busybox
  /media/Workspace/iMX/myandroid_new/out/target/product/nitrogen6x/system/bin/getopt -> busybox
  /media/Workspace/iMX/myandroid_new/out/target/product/nitrogen6x/system/bin/grep -> busybox
  /media/Workspace/iMX/myandroid_new/out/target/product/nitrogen6x/system/bin/gunzip -> busybox
  /media/Workspace/iMX/myandroid_new/out/target/product/nitrogen6x/system/bin/gzip -> busybox
  /media/Workspace/iMX/myandroid_new/out/target/product/nitrogen6x/system/bin/hostname -> busybox
  /media/Workspace/iMX/myandroid_new/out/target/product/nitrogen6x/system/bin/hush -> busybox
  /media/Workspace/iMX/myandroid_new/out/target/product/nitrogen6x/system/bin/ionice -> busybox
  /media/Workspace/iMX/myandroid_new/out/target/product/nitrogen6x/system/bin/ip -> busybox
  /media/Workspace/iMX/myandroid_new/out/target/product/nitrogen6x/system/bin/ipaddr -> busybox
  /media/Workspace/iMX/myandroid_new/out/target/product/nitrogen6x/system/bin/ipcalc -> busybox
  /media/Workspace/iMX/myandroid_new/out/target/product/nitrogen6x/system/bin/iplink -> busybox
  /media/Workspace/iMX/myandroid_new/out/target/product/nitrogen6x/system/bin/iproute -> busybox
  /media/Workspace/iMX/myandroid_new/out/target/product/nitrogen6x/system/bin/iprule -> busybox
  /media/Workspace/iMX/myandroid_new/out/target/product/nitrogen6x/system/bin/iptunnel -> busybox
  /media/Workspace/iMX/myandroid_new/out/target/product/nitrogen6x/system/bin/kill -> busybox
  /media/Workspace/iMX/myandroid_new/out/target/product/nitrogen6x/system/bin/linux32 -> busybox
  /media/Workspace/iMX/myandroid_new/out/target/product/nitrogen6x/system/bin/linux64 -> busybox
  /media/Workspace/iMX/myandroid_new/out/target/product/nitrogen6x/system/bin/ln -> busybox
  /media/Workspace/iMX/myandroid_new/out/target/product/nitrogen6x/system/bin/login -> busybox
  /media/Workspace/iMX/myandroid_new/out/target/product/nitrogen6x/system/bin/ls -> busybox
  /media/Workspace/iMX/myandroid_new/out/target/product/nitrogen6x/system/bin/lsattr -> busybox
  /media/Workspace/iMX/myandroid_new/out/target/product/nitrogen6x/system/bin/lzop -> busybox
  /media/Workspace/iMX/myandroid_new/out/target/product/nitrogen6x/system/bin/makemime -> busybox
  /media/Workspace/iMX/myandroid_new/out/target/product/nitrogen6x/system/bin/mkdir -> busybox
  /media/Workspace/iMX/myandroid_new/out/target/product/nitrogen6x/system/bin/mknod -> busybox
  /media/Workspace/iMX/myandroid_new/out/target/product/nitrogen6x/system/bin/mktemp -> busybox
  /media/Workspace/iMX/myandroid_new/out/target/product/nitrogen6x/system/bin/more -> busybox
  /media/Workspace/iMX/myandroid_new/out/target/product/nitrogen6x/system/bin/mount -> busybox
  /media/Workspace/iMX/myandroid_new/out/target/product/nitrogen6x/system/bin/mountpoint -> busybox
  /media/Workspace/iMX/myandroid_new/out/target/product/nitrogen6x/system/bin/msh -> busybox
  /media/Workspace/iMX/myandroid_new/out/target/product/nitrogen6x/system/bin/mt -> busybox
  /media/Workspace/iMX/myandroid_new/out/target/product/nitrogen6x/system/bin/mv -> busybox
  /media/Workspace/iMX/myandroid_new/out/target/product/nitrogen6x/system/bin/netstat -> busybox
  /media/Workspace/iMX/myandroid_new/out/target/product/nitrogen6x/system/bin/nice -> busybox
  /media/Workspace/iMX/myandroid_new/out/target/product/nitrogen6x/system/bin/pidof -> busybox
  /media/Workspace/iMX/myandroid_new/out/target/product/nitrogen6x/system/bin/ping -> busybox
  /media/Workspace/iMX/myandroid_new/out/target/product/nitrogen6x/system/bin/ping6 -> busybox
  /media/Workspace/iMX/myandroid_new/out/target/product/nitrogen6x/system/bin/pipe_progress -> busybox
  /media/Workspace/iMX/myandroid_new/out/target/product/nitrogen6x/system/bin/printenv -> busybox
  /media/Workspace/iMX/myandroid_new/out/target/product/nitrogen6x/system/bin/ps -> busybox
  /media/Workspace/iMX/myandroid_new/out/target/product/nitrogen6x/system/bin/pwd -> busybox
  /media/Workspace/iMX/myandroid_new/out/target/product/nitrogen6x/system/bin/reformime -> busybox
  /media/Workspace/iMX/myandroid_new/out/target/product/nitrogen6x/system/bin/rm -> busybox
  /media/Workspace/iMX/myandroid_new/out/target/product/nitrogen6x/system/bin/rmdir -> busybox
  /media/Workspace/iMX/myandroid_new/out/target/product/nitrogen6x/system/bin/run-parts -> busybox
  /media/Workspace/iMX/myandroid_new/out/target/product/nitrogen6x/system/bin/scriptreplay -> busybox
  /media/Workspace/iMX/myandroid_new/out/target/product/nitrogen6x/system/bin/sed -> busybox
  /media/Workspace/iMX/myandroid_new/out/target/product/nitrogen6x/system/bin/setarch -> busybox
  /media/Workspace/iMX/myandroid_new/out/target/product/nitrogen6x/system/bin/sh -> busybox
  /media/Workspace/iMX/myandroid_new/out/target/product/nitrogen6x/system/bin/sleep -> busybox
  /media/Workspace/iMX/myandroid_new/out/target/product/nitrogen6x/system/bin/stat -> busybox
  /media/Workspace/iMX/myandroid_new/out/target/product/nitrogen6x/system/bin/stty -> busybox
  /media/Workspace/iMX/myandroid_new/out/target/product/nitrogen6x/system/bin/su -> busybox
  /media/Workspace/iMX/myandroid_new/out/target/product/nitrogen6x/system/bin/sync -> busybox
  /media/Workspace/iMX/myandroid_new/out/target/product/nitrogen6x/system/bin/tar -> busybox
  /media/Workspace/iMX/myandroid_new/out/target/product/nitrogen6x/system/bin/test -> busybox
  /media/Workspace/iMX/myandroid_new/out/target/product/nitrogen6x/system/bin/touch -> busybox
  /media/Workspace/iMX/myandroid_new/out/target/product/nitrogen6x/system/bin/true -> busybox
  /media/Workspace/iMX/myandroid_new/out/target/product/nitrogen6x/system/bin/umount -> busybox
  /media/Workspace/iMX/myandroid_new/out/target/product/nitrogen6x/system/bin/uname -> busybox
  /media/Workspace/iMX/myandroid_new/out/target/product/nitrogen6x/system/bin/uncompress -> busybox
  /media/Workspace/iMX/myandroid_new/out/target/product/nitrogen6x/system/bin/usleep -> busybox
  /media/Workspace/iMX/myandroid_new/out/target/product/nitrogen6x/system/bin/vi -> busybox
  /media/Workspace/iMX/myandroid_new/out/target/product/nitrogen6x/system/bin/watch -> busybox
  /media/Workspace/iMX/myandroid_new/out/target/product/nitrogen6x/system/bin/zcat -> busybox
  /media/Workspace/iMX/myandroid_new/out/target/product/nitrogen6x/system/linuxrc -> bin/busybox
  /media/Workspace/iMX/myandroid_new/out/target/product/nitrogen6x/system/sbin/adjtimex -> ../bin/busybox
  /media/Workspace/iMX/myandroid_new/out/target/product/nitrogen6x/system/sbin/arp -> ../bin/busybox
  /media/Workspace/iMX/myandroid_new/out/target/product/nitrogen6x/system/sbin/blkid -> ../bin/busybox
  /media/Workspace/iMX/myandroid_new/out/target/product/nitrogen6x/system/sbin/depmod -> ../bin/busybox
  /media/Workspace/iMX/myandroid_new/out/target/product/nitrogen6x/system/sbin/devmem -> ../bin/busybox
  /media/Workspace/iMX/myandroid_new/out/target/product/nitrogen6x/system/sbin/fbsplash -> ../bin/busybox
  /media/Workspace/iMX/myandroid_new/out/target/product/nitrogen6x/system/sbin/fdisk -> ../bin/busybox
  /media/Workspace/iMX/myandroid_new/out/target/product/nitrogen6x/system/sbin/findfs -> ../bin/busybox
  /media/Workspace/iMX/myandroid_new/out/target/product/nitrogen6x/system/sbin/freeramdisk -> ../bin/busybox
  /media/Workspace/iMX/myandroid_new/out/target/product/nitrogen6x/system/sbin/fsck -> ../bin/busybox
  /media/Workspace/iMX/myandroid_new/out/target/product/nitrogen6x/system/sbin/fsck.minix -> ../bin/busybox
  /media/Workspace/iMX/myandroid_new/out/target/product/nitrogen6x/system/sbin/getty -> ../bin/busybox
  /media/Workspace/iMX/myandroid_new/out/target/product/nitrogen6x/system/sbin/halt -> ../bin/busybox
  /media/Workspace/iMX/myandroid_new/out/target/product/nitrogen6x/system/sbin/hdparm -> ../bin/busybox
  /media/Workspace/iMX/myandroid_new/out/target/product/nitrogen6x/system/sbin/hwclock -> ../bin/busybox
  /media/Workspace/iMX/myandroid_new/out/target/product/nitrogen6x/system/sbin/ifconfig -> ../bin/busybox
  /media/Workspace/iMX/myandroid_new/out/target/product/nitrogen6x/system/sbin/ifdown -> ../bin/busybox
  /media/Workspace/iMX/myandroid_new/out/target/product/nitrogen6x/system/sbin/ifenslave -> ../bin/busybox
  /media/Workspace/iMX/myandroid_new/out/target/product/nitrogen6x/system/sbin/ifup -> ../bin/busybox
  /media/Workspace/iMX/myandroid_new/out/target/product/nitrogen6x/system/sbin/init -> ../bin/busybox
  /media/Workspace/iMX/myandroid_new/out/target/product/nitrogen6x/system/sbin/insmod -> ../bin/busybox
  /media/Workspace/iMX/myandroid_new/out/target/product/nitrogen6x/system/sbin/klogd -> ../bin/busybox
  /media/Workspace/iMX/myandroid_new/out/target/product/nitrogen6x/system/sbin/loadkmap -> ../bin/busybox
  /media/Workspace/iMX/myandroid_new/out/target/product/nitrogen6x/system/sbin/logread -> ../bin/busybox
  /media/Workspace/iMX/myandroid_new/out/target/product/nitrogen6x/system/sbin/losetup -> ../bin/busybox
  /media/Workspace/iMX/myandroid_new/out/target/product/nitrogen6x/system/sbin/lsmod -> ../bin/busybox
  /media/Workspace/iMX/myandroid_new/out/target/product/nitrogen6x/system/sbin/makedevs -> ../bin/busybox
  /media/Workspace/iMX/myandroid_new/out/target/product/nitrogen6x/system/sbin/man -> ../bin/busybox
  /media/Workspace/iMX/myandroid_new/out/target/product/nitrogen6x/system/sbin/mdev -> ../bin/busybox
  /media/Workspace/iMX/myandroid_new/out/target/product/nitrogen6x/system/sbin/mkdosfs -> ../bin/busybox
  /media/Workspace/iMX/myandroid_new/out/target/product/nitrogen6x/system/sbin/mkfs.minix -> ../bin/busybox
  /media/Workspace/iMX/myandroid_new/out/target/product/nitrogen6x/system/sbin/mkfs.vfat -> ../bin/busybox
  /media/Workspace/iMX/myandroid_new/out/target/product/nitrogen6x/system/sbin/mkswap -> ../bin/busybox
  /media/Workspace/iMX/myandroid_new/out/target/product/nitrogen6x/system/sbin/modprobe -> ../bin/busybox
  /media/Workspace/iMX/myandroid_new/out/target/product/nitrogen6x/system/sbin/nameif -> ../bin/busybox
  /media/Workspace/iMX/myandroid_new/out/target/product/nitrogen6x/system/sbin/pivot_root -> ../bin/busybox
  /media/Workspace/iMX/myandroid_new/out/target/product/nitrogen6x/system/sbin/poweroff -> ../bin/busybox
  /media/Workspace/iMX/myandroid_new/out/target/product/nitrogen6x/system/sbin/raidautorun -> ../bin/busybox
  /media/Workspace/iMX/myandroid_new/out/target/product/nitrogen6x/system/sbin/reboot -> ../bin/busybox
  /media/Workspace/iMX/myandroid_new/out/target/product/nitrogen6x/system/sbin/rmmod -> ../bin/busybox
  /media/Workspace/iMX/myandroid_new/out/target/product/nitrogen6x/system/sbin/route -> ../bin/busybox
  /media/Workspace/iMX/myandroid_new/out/target/product/nitrogen6x/system/sbin/runlevel -> ../bin/busybox
  /media/Workspace/iMX/myandroid_new/out/target/product/nitrogen6x/system/sbin/setconsole -> ../bin/busybox
  /media/Workspace/iMX/myandroid_new/out/target/product/nitrogen6x/system/sbin/slattach -> ../bin/busybox
  /media/Workspace/iMX/myandroid_new/out/target/product/nitrogen6x/system/sbin/start-stop-daemon -> ../bin/busybox
  /media/Workspace/iMX/myandroid_new/out/target/product/nitrogen6x/system/sbin/sulogin -> ../bin/busybox
  /media/Workspace/iMX/myandroid_new/out/target/product/nitrogen6x/system/sbin/swapoff -> ../bin/busybox
  /media/Workspace/iMX/myandroid_new/out/target/product/nitrogen6x/system/sbin/swapon -> ../bin/busybox
  /media/Workspace/iMX/myandroid_new/out/target/product/nitrogen6x/system/sbin/switch_root -> ../bin/busybox
  /media/Workspace/iMX/myandroid_new/out/target/product/nitrogen6x/system/sbin/sysctl -> ../bin/busybox
  /media/Workspace/iMX/myandroid_new/out/target/product/nitrogen6x/system/sbin/syslogd -> ../bin/busybox
  /media/Workspace/iMX/myandroid_new/out/target/product/nitrogen6x/system/sbin/tunctl -> ../bin/busybox
  /media/Workspace/iMX/myandroid_new/out/target/product/nitrogen6x/system/sbin/udhcpc -> ../bin/busybox
  /media/Workspace/iMX/myandroid_new/out/target/product/nitrogen6x/system/sbin/vconfig -> ../bin/busybox
  /media/Workspace/iMX/myandroid_new/out/target/product/nitrogen6x/system/sbin/watchdog -> ../bin/busybox
  /media/Workspace/iMX/myandroid_new/out/target/product/nitrogen6x/system/sbin/zcip -> ../bin/busybox
  /media/Workspace/iMX/myandroid_new/out/target/product/nitrogen6x/system/usr/bin/ar -> ../../bin/busybox
  /media/Workspace/iMX/myandroid_new/out/target/product/nitrogen6x/system/usr/bin/arping -> ../../bin/busybox
  /media/Workspace/iMX/myandroid_new/out/target/product/nitrogen6x/system/usr/bin/awk -> ../../bin/busybox
  /media/Workspace/iMX/myandroid_new/out/target/product/nitrogen6x/system/usr/bin/basename -> ../../bin/busybox
  /media/Workspace/iMX/myandroid_new/out/target/product/nitrogen6x/system/usr/bin/beep -> ../../bin/busybox
  /media/Workspace/iMX/myandroid_new/out/target/product/nitrogen6x/system/usr/bin/bunzip2 -> ../../bin/busybox
  /media/Workspace/iMX/myandroid_new/out/target/product/nitrogen6x/system/usr/bin/bzcat -> ../../bin/busybox
  /media/Workspace/iMX/myandroid_new/out/target/product/nitrogen6x/system/usr/bin/bzip2 -> ../../bin/busybox
  /media/Workspace/iMX/myandroid_new/out/target/product/nitrogen6x/system/usr/bin/cal -> ../../bin/busybox
  /media/Workspace/iMX/myandroid_new/out/target/product/nitrogen6x/system/usr/bin/chat -> ../../bin/busybox
  /media/Workspace/iMX/myandroid_new/out/target/product/nitrogen6x/system/usr/bin/chpst -> ../../bin/busybox
  /media/Workspace/iMX/myandroid_new/out/target/product/nitrogen6x/system/usr/bin/chrt -> ../../bin/busybox
  /media/Workspace/iMX/myandroid_new/out/target/product/nitrogen6x/system/usr/bin/chvt -> ../../bin/busybox
  /media/Workspace/iMX/myandroid_new/out/target/product/nitrogen6x/system/usr/bin/cksum -> ../../bin/busybox
  /media/Workspace/iMX/myandroid_new/out/target/product/nitrogen6x/system/usr/bin/clear -> ../../bin/busybox
  /media/Workspace/iMX/myandroid_new/out/target/product/nitrogen6x/system/usr/bin/cmp -> ../../bin/busybox
  /media/Workspace/iMX/myandroid_new/out/target/product/nitrogen6x/system/usr/bin/comm -> ../../bin/busybox
  /media/Workspace/iMX/myandroid_new/out/target/product/nitrogen6x/system/usr/bin/crontab -> ../../bin/busybox
  /media/Workspace/iMX/myandroid_new/out/target/product/nitrogen6x/system/usr/bin/cryptpw -> ../../bin/busybox
  /media/Workspace/iMX/myandroid_new/out/target/product/nitrogen6x/system/usr/bin/cut -> ../../bin/busybox
  /media/Workspace/iMX/myandroid_new/out/target/product/nitrogen6x/system/usr/bin/dc -> ../../bin/busybox
  /media/Workspace/iMX/myandroid_new/out/target/product/nitrogen6x/system/usr/bin/deallocvt -> ../../bin/busybox
  /media/Workspace/iMX/myandroid_new/out/target/product/nitrogen6x/system/usr/bin/diff -> ../../bin/busybox
  /media/Workspace/iMX/myandroid_new/out/target/product/nitrogen6x/system/usr/bin/dirname -> ../../bin/busybox
  /media/Workspace/iMX/myandroid_new/out/target/product/nitrogen6x/system/usr/bin/dos2unix -> ../../bin/busybox
  /media/Workspace/iMX/myandroid_new/out/target/product/nitrogen6x/system/usr/bin/du -> ../../bin/busybox
  /media/Workspace/iMX/myandroid_new/out/target/product/nitrogen6x/system/usr/bin/dumpleases -> ../../bin/busybox
  /media/Workspace/iMX/myandroid_new/out/target/product/nitrogen6x/system/usr/bin/eject -> ../../bin/busybox
  /media/Workspace/iMX/myandroid_new/out/target/product/nitrogen6x/system/usr/bin/env -> ../../bin/busybox
  /media/Workspace/iMX/myandroid_new/out/target/product/nitrogen6x/system/usr/bin/envdir -> ../../bin/busybox
  /media/Workspace/iMX/myandroid_new/out/target/product/nitrogen6x/system/usr/bin/envuidgid -> ../../bin/busybox
  /media/Workspace/iMX/myandroid_new/out/target/product/nitrogen6x/system/usr/bin/ether-wake -> ../../bin/busybox
  /media/Workspace/iMX/myandroid_new/out/target/product/nitrogen6x/system/usr/bin/expand -> ../../bin/busybox
  /media/Workspace/iMX/myandroid_new/out/target/product/nitrogen6x/system/usr/bin/expr -> ../../bin/busybox
  /media/Workspace/iMX/myandroid_new/out/target/product/nitrogen6x/system/usr/bin/fdformat -> ../../bin/busybox
  /media/Workspace/iMX/myandroid_new/out/target/product/nitrogen6x/system/usr/bin/find -> ../../bin/busybox
  /media/Workspace/iMX/myandroid_new/out/target/product/nitrogen6x/system/usr/bin/fold -> ../../bin/busybox
  /media/Workspace/iMX/myandroid_new/out/target/product/nitrogen6x/system/usr/bin/free -> ../../bin/busybox
  /media/Workspace/iMX/myandroid_new/out/target/product/nitrogen6x/system/usr/bin/ftpget -> ../../bin/busybox
  /media/Workspace/iMX/myandroid_new/out/target/product/nitrogen6x/system/usr/bin/ftpput -> ../../bin/busybox
  /media/Workspace/iMX/myandroid_new/out/target/product/nitrogen6x/system/usr/bin/fuser -> ../../bin/busybox
  /media/Workspace/iMX/myandroid_new/out/target/product/nitrogen6x/system/usr/bin/hd -> ../../bin/busybox
  /media/Workspace/iMX/myandroid_new/out/target/product/nitrogen6x/system/usr/bin/head -> ../../bin/busybox
  /media/Workspace/iMX/myandroid_new/out/target/product/nitrogen6x/system/usr/bin/hexdump -> ../../bin/busybox
  /media/Workspace/iMX/myandroid_new/out/target/product/nitrogen6x/system/usr/bin/hostid -> ../../bin/busybox
  /media/Workspace/iMX/myandroid_new/out/target/product/nitrogen6x/system/usr/bin/id -> ../../bin/busybox
  /media/Workspace/iMX/myandroid_new/out/target/product/nitrogen6x/system/usr/bin/ifplugd -> ../../bin/busybox
  /media/Workspace/iMX/myandroid_new/out/target/product/nitrogen6x/system/usr/bin/install -> ../../bin/busybox
  /media/Workspace/iMX/myandroid_new/out/target/product/nitrogen6x/system/usr/bin/ipcrm -> ../../bin/busybox
  /media/Workspace/iMX/myandroid_new/out/target/product/nitrogen6x/system/usr/bin/ipcs -> ../../bin/busybox
  /media/Workspace/iMX/myandroid_new/out/target/product/nitrogen6x/system/usr/bin/kbd_mode -> ../../bin/busybox
  /media/Workspace/iMX/myandroid_new/out/target/product/nitrogen6x/system/usr/bin/killall -> ../../bin/busybox
  /media/Workspace/iMX/myandroid_new/out/target/product/nitrogen6x/system/usr/bin/killall5 -> ../../bin/busybox
  /media/Workspace/iMX/myandroid_new/out/target/product/nitrogen6x/system/usr/bin/last -> ../../bin/busybox
  /media/Workspace/iMX/myandroid_new/out/target/product/nitrogen6x/system/usr/bin/length -> ../../bin/busybox
  /media/Workspace/iMX/myandroid_new/out/target/product/nitrogen6x/system/usr/bin/less -> ../../bin/busybox
  /media/Workspace/iMX/myandroid_new/out/target/product/nitrogen6x/system/usr/bin/logger -> ../../bin/busybox
  /media/Workspace/iMX/myandroid_new/out/target/product/nitrogen6x/system/usr/bin/logname -> ../../bin/busybox
  /media/Workspace/iMX/myandroid_new/out/target/product/nitrogen6x/system/usr/bin/lpq -> ../../bin/busybox
  /media/Workspace/iMX/myandroid_new/out/target/product/nitrogen6x/system/usr/bin/lpr -> ../../bin/busybox
  /media/Workspace/iMX/myandroid_new/out/target/product/nitrogen6x/system/usr/bin/lzmacat -> ../../bin/busybox
  /media/Workspace/iMX/myandroid_new/out/target/product/nitrogen6x/system/usr/bin/lzopcat -> ../../bin/busybox
  /media/Workspace/iMX/myandroid_new/out/target/product/nitrogen6x/system/usr/bin/md5sum -> ../../bin/busybox
  /media/Workspace/iMX/myandroid_new/out/target/product/nitrogen6x/system/usr/bin/mesg -> ../../bin/busybox
  /media/Workspace/iMX/myandroid_new/out/target/product/nitrogen6x/system/usr/bin/microcom -> ../../bin/busybox
  /media/Workspace/iMX/myandroid_new/out/target/product/nitrogen6x/system/usr/bin/mkfifo -> ../../bin/busybox
  /media/Workspace/iMX/myandroid_new/out/target/product/nitrogen6x/system/usr/bin/mkpasswd -> ../../bin/busybox
  /media/Workspace/iMX/myandroid_new/out/target/product/nitrogen6x/system/usr/bin/nc -> ../../bin/busybox
  /media/Workspace/iMX/myandroid_new/out/target/product/nitrogen6x/system/usr/bin/nmeter -> ../../bin/busybox
  /media/Workspace/iMX/myandroid_new/out/target/product/nitrogen6x/system/usr/bin/nohup -> ../../bin/busybox
  /media/Workspace/iMX/myandroid_new/out/target/product/nitrogen6x/system/usr/bin/nslookup -> ../../bin/busybox
  /media/Workspace/iMX/myandroid_new/out/target/product/nitrogen6x/system/usr/bin/od -> ../../bin/busybox
  /media/Workspace/iMX/myandroid_new/out/target/product/nitrogen6x/system/usr/bin/openvt -> ../../bin/busybox
  /media/Workspace/iMX/myandroid_new/out/target/product/nitrogen6x/system/usr/bin/passwd -> ../../bin/busybox
  /media/Workspace/iMX/myandroid_new/out/target/product/nitrogen6x/system/usr/bin/patch -> ../../bin/busybox
  /media/Workspace/iMX/myandroid_new/out/target/product/nitrogen6x/system/usr/bin/pgrep -> ../../bin/busybox
  /media/Workspace/iMX/myandroid_new/out/target/product/nitrogen6x/system/usr/bin/pkill -> ../../bin/busybox
  /media/Workspace/iMX/myandroid_new/out/target/product/nitrogen6x/system/usr/bin/printf -> ../../bin/busybox
  /media/Workspace/iMX/myandroid_new/out/target/product/nitrogen6x/system/usr/bin/pscan -> ../../bin/busybox
  /media/Workspace/iMX/myandroid_new/out/target/product/nitrogen6x/system/usr/bin/readahead -> ../../bin/busybox
  /media/Workspace/iMX/myandroid_new/out/target/product/nitrogen6x/system/usr/bin/readlink -> ../../bin/busybox
  /media/Workspace/iMX/myandroid_new/out/target/product/nitrogen6x/system/usr/bin/realpath -> ../../bin/busybox
  /media/Workspace/iMX/myandroid_new/out/target/product/nitrogen6x/system/usr/bin/renice -> ../../bin/busybox
  /media/Workspace/iMX/myandroid_new/out/target/product/nitrogen6x/system/usr/bin/reset -> ../../bin/busybox
  /media/Workspace/iMX/myandroid_new/out/target/product/nitrogen6x/system/usr/bin/resize -> ../../bin/busybox
  /media/Workspace/iMX/myandroid_new/out/target/product/nitrogen6x/system/usr/bin/rtcwake -> ../../bin/busybox
  /media/Workspace/iMX/myandroid_new/out/target/product/nitrogen6x/system/usr/bin/runsv -> ../../bin/busybox
  /media/Workspace/iMX/myandroid_new/out/target/product/nitrogen6x/system/usr/bin/runsvdir -> ../../bin/busybox
  /media/Workspace/iMX/myandroid_new/out/target/product/nitrogen6x/system/usr/bin/rx -> ../../bin/busybox
  /media/Workspace/iMX/myandroid_new/out/target/product/nitrogen6x/system/usr/bin/script -> ../../bin/busybox
  /media/Workspace/iMX/myandroid_new/out/target/product/nitrogen6x/system/usr/bin/seq -> ../../bin/busybox
  /media/Workspace/iMX/myandroid_new/out/target/product/nitrogen6x/system/usr/bin/setkeycodes -> ../../bin/busybox
  /media/Workspace/iMX/myandroid_new/out/target/product/nitrogen6x/system/usr/bin/setsid -> ../../bin/busybox
  /media/Workspace/iMX/myandroid_new/out/target/product/nitrogen6x/system/usr/bin/setuidgid -> ../../bin/busybox
  /media/Workspace/iMX/myandroid_new/out/target/product/nitrogen6x/system/usr/bin/sha1sum -> ../../bin/busybox
  /media/Workspace/iMX/myandroid_new/out/target/product/nitrogen6x/system/usr/bin/sha256sum -> ../../bin/busybox
  /media/Workspace/iMX/myandroid_new/out/target/product/nitrogen6x/system/usr/bin/sha512sum -> ../../bin/busybox
  /media/Workspace/iMX/myandroid_new/out/target/product/nitrogen6x/system/usr/bin/showkey -> ../../bin/busybox
  /media/Workspace/iMX/myandroid_new/out/target/product/nitrogen6x/system/usr/bin/softlimit -> ../../bin/busybox
  /media/Workspace/iMX/myandroid_new/out/target/product/nitrogen6x/system/usr/bin/sort -> ../../bin/busybox
  /media/Workspace/iMX/myandroid_new/out/target/product/nitrogen6x/system/usr/bin/split -> ../../bin/busybox
  /media/Workspace/iMX/myandroid_new/out/target/product/nitrogen6x/system/usr/bin/strings -> ../../bin/busybox
  /media/Workspace/iMX/myandroid_new/out/target/product/nitrogen6x/system/usr/bin/sum -> ../../bin/busybox
  /media/Workspace/iMX/myandroid_new/out/target/product/nitrogen6x/system/usr/bin/sv -> ../../bin/busybox
  /media/Workspace/iMX/myandroid_new/out/target/product/nitrogen6x/system/usr/bin/tac -> ../../bin/busybox
  /media/Workspace/iMX/myandroid_new/out/target/product/nitrogen6x/system/usr/bin/tail -> ../../bin/busybox
  /media/Workspace/iMX/myandroid_new/out/target/product/nitrogen6x/system/usr/bin/tcpsvd -> ../../bin/busybox
  /media/Workspace/iMX/myandroid_new/out/target/product/nitrogen6x/system/usr/bin/tee -> ../../bin/busybox
  /media/Workspace/iMX/myandroid_new/out/target/product/nitrogen6x/system/usr/bin/telnet -> ../../bin/busybox
  /media/Workspace/iMX/myandroid_new/out/target/product/nitrogen6x/system/usr/bin/tftp -> ../../bin/busybox
  /media/Workspace/iMX/myandroid_new/out/target/product/nitrogen6x/system/usr/bin/tftpd -> ../../bin/busybox
  /media/Workspace/iMX/myandroid_new/out/target/product/nitrogen6x/system/usr/bin/time -> ../../bin/busybox
  /media/Workspace/iMX/myandroid_new/out/target/product/nitrogen6x/system/usr/bin/timeout -> ../../bin/busybox
  /media/Workspace/iMX/myandroid_new/out/target/product/nitrogen6x/system/usr/bin/top -> ../../bin/busybox
  /media/Workspace/iMX/myandroid_new/out/target/product/nitrogen6x/system/usr/bin/tr -> ../../bin/busybox
  /media/Workspace/iMX/myandroid_new/out/target/product/nitrogen6x/system/usr/bin/traceroute -> ../../bin/busybox
  /media/Workspace/iMX/myandroid_new/out/target/product/nitrogen6x/system/usr/bin/tty -> ../../bin/busybox
  /media/Workspace/iMX/myandroid_new/out/target/product/nitrogen6x/system/usr/bin/ttysize -> ../../bin/busybox
  /media/Workspace/iMX/myandroid_new/out/target/product/nitrogen6x/system/usr/bin/udpsvd -> ../../bin/busybox
  /media/Workspace/iMX/myandroid_new/out/target/product/nitrogen6x/system/usr/bin/unexpand -> ../../bin/busybox
  /media/Workspace/iMX/myandroid_new/out/target/product/nitrogen6x/system/usr/bin/uniq -> ../../bin/busybox
  /media/Workspace/iMX/myandroid_new/out/target/product/nitrogen6x/system/usr/bin/unix2dos -> ../../bin/busybox
  /media/Workspace/iMX/myandroid_new/out/target/product/nitrogen6x/system/usr/bin/unlzma -> ../../bin/busybox
  /media/Workspace/iMX/myandroid_new/out/target/product/nitrogen6x/system/usr/bin/unlzop -> ../../bin/busybox
  /media/Workspace/iMX/myandroid_new/out/target/product/nitrogen6x/system/usr/bin/unzip -> ../../bin/busybox
  /media/Workspace/iMX/myandroid_new/out/target/product/nitrogen6x/system/usr/bin/uptime -> ../../bin/busybox
  /media/Workspace/iMX/myandroid_new/out/target/product/nitrogen6x/system/usr/bin/uudecode -> ../../bin/busybox
  /media/Workspace/iMX/myandroid_new/out/target/product/nitrogen6x/system/usr/bin/uuencode -> ../../bin/busybox
  /media/Workspace/iMX/myandroid_new/out/target/product/nitrogen6x/system/usr/bin/vlock -> ../../bin/busybox
  /media/Workspace/iMX/myandroid_new/out/target/product/nitrogen6x/system/usr/bin/volname -> ../../bin/busybox
  /media/Workspace/iMX/myandroid_new/out/target/product/nitrogen6x/system/usr/bin/wc -> ../../bin/busybox
  /media/Workspace/iMX/myandroid_new/out/target/product/nitrogen6x/system/usr/bin/wget -> ../../bin/busybox
  /media/Workspace/iMX/myandroid_new/out/target/product/nitrogen6x/system/usr/bin/which -> ../../bin/busybox
  /media/Workspace/iMX/myandroid_new/out/target/product/nitrogen6x/system/usr/bin/who -> ../../bin/busybox
  /media/Workspace/iMX/myandroid_new/out/target/product/nitrogen6x/system/usr/bin/whoami -> ../../bin/busybox
  /media/Workspace/iMX/myandroid_new/out/target/product/nitrogen6x/system/usr/bin/xargs -> ../../bin/busybox
  /media/Workspace/iMX/myandroid_new/out/target/product/nitrogen6x/system/usr/bin/yes -> ../../bin/busybox
  /media/Workspace/iMX/myandroid_new/out/target/product/nitrogen6x/system/usr/sbin/brctl -> ../../bin/busybox
  /media/Workspace/iMX/myandroid_new/out/target/product/nitrogen6x/system/usr/sbin/chpasswd -> ../../bin/busybox
  /media/Workspace/iMX/myandroid_new/out/target/product/nitrogen6x/system/usr/sbin/chroot -> ../../bin/busybox
  /media/Workspace/iMX/myandroid_new/out/target/product/nitrogen6x/system/usr/sbin/crond -> ../../bin/busybox
  /media/Workspace/iMX/myandroid_new/out/target/product/nitrogen6x/system/usr/sbin/dhcprelay -> ../../bin/busybox
  /media/Workspace/iMX/myandroid_new/out/target/product/nitrogen6x/system/usr/sbin/dnsd -> ../../bin/busybox
  /media/Workspace/iMX/myandroid_new/out/target/product/nitrogen6x/system/usr/sbin/fakeidentd -> ../../bin/busybox
  /media/Workspace/iMX/myandroid_new/out/target/product/nitrogen6x/system/usr/sbin/fbset -> ../../bin/busybox
  /media/Workspace/iMX/myandroid_new/out/target/product/nitrogen6x/system/usr/sbin/ftpd -> ../../bin/busybox
  /media/Workspace/iMX/myandroid_new/out/target/product/nitrogen6x/system/usr/sbin/httpd -> ../../bin/busybox
  /media/Workspace/iMX/myandroid_new/out/target/product/nitrogen6x/system/usr/sbin/inetd -> ../../bin/busybox
  /media/Workspace/iMX/myandroid_new/out/target/product/nitrogen6x/system/usr/sbin/loadfont -> ../../bin/busybox
  /media/Workspace/iMX/myandroid_new/out/target/product/nitrogen6x/system/usr/sbin/lpd -> ../../bin/busybox
  /media/Workspace/iMX/myandroid_new/out/target/product/nitrogen6x/system/usr/sbin/popmaildir -> ../../bin/busybox
  /media/Workspace/iMX/myandroid_new/out/target/product/nitrogen6x/system/usr/sbin/rdate -> ../../bin/busybox
  /media/Workspace/iMX/myandroid_new/out/target/product/nitrogen6x/system/usr/sbin/rdev -> ../../bin/busybox
  /media/Workspace/iMX/myandroid_new/out/target/product/nitrogen6x/system/usr/sbin/readprofile -> ../../bin/busybox
  /media/Workspace/iMX/myandroid_new/out/target/product/nitrogen6x/system/usr/sbin/sendmail -> ../../bin/busybox
  /media/Workspace/iMX/myandroid_new/out/target/product/nitrogen6x/system/usr/sbin/setfont -> ../../bin/busybox
  /media/Workspace/iMX/myandroid_new/out/target/product/nitrogen6x/system/usr/sbin/setlogcons -> ../../bin/busybox
  /media/Workspace/iMX/myandroid_new/out/target/product/nitrogen6x/system/usr/sbin/svlogd -> ../../bin/busybox
  /media/Workspace/iMX/myandroid_new/out/target/product/nitrogen6x/system/usr/sbin/telnetd -> ../../bin/busybox
  /media/Workspace/iMX/myandroid_new/out/target/product/nitrogen6x/system/usr/sbin/udhcpd -> ../../bin/busybox
make[1]: Leaving directory `/media/Workspace/iMX/myandroid_new/myfiles/mybusybox'
Symlink: out/target/product/nitrogen6x/system/bin/cat -> toolbox
if [ ! -e out/target/product/nitrogen6x/system/bin/cat ];then ln -sf toolbox out/target/product/nitrogen6x/system/bin/cat; fi
Symlink: out/target/product/nitrogen6x/system/bin/chmod -> toolbox
if [ ! -e out/target/product/nitrogen6x/system/bin/chmod ];then ln -sf toolbox out/target/product/nitrogen6x/system/bin/chmod; fi
Symlink: out/target/product/nitrogen6x/system/bin/chown -> toolbox
if [ ! -e out/target/product/nitrogen6x/system/bin/chown ];then ln -sf toolbox out/target/product/nitrogen6x/system/bin/chown; fi
Symlink: out/target/product/nitrogen6x/system/bin/cmp -> toolbox
if [ ! -e out/target/product/nitrogen6x/system/bin/cmp ];then ln -sf toolbox out/target/product/nitrogen6x/system/bin/cmp; fi
Symlink: out/target/product/nitrogen6x/system/bin/date -> toolbox
if [ ! -e out/target/product/nitrogen6x/system/bin/date ];then ln -sf toolbox out/target/product/nitrogen6x/system/bin/date; fi
Symlink: out/target/product/nitrogen6x/system/bin/dd -> toolbox
if [ ! -e out/target/product/nitrogen6x/system/bin/dd ];then ln -sf toolbox out/target/product/nitrogen6x/system/bin/dd; fi
Symlink: out/target/product/nitrogen6x/system/bin/df -> toolbox
if [ ! -e out/target/product/nitrogen6x/system/bin/df ];then ln -sf toolbox out/target/product/nitrogen6x/system/bin/df; fi
Symlink: out/target/product/nitrogen6x/system/bin/dmesg -> toolbox
if [ ! -e out/target/product/nitrogen6x/system/bin/dmesg ];then ln -sf toolbox out/target/product/nitrogen6x/system/bin/dmesg; fi
Symlink: out/target/product/nitrogen6x/system/bin/getevent -> toolbox
if [ ! -e out/target/product/nitrogen6x/system/bin/getevent ];then ln -sf toolbox out/target/product/nitrogen6x/system/bin/getevent; fi
Symlink: out/target/product/nitrogen6x/system/bin/getprop -> toolbox
if [ ! -e out/target/product/nitrogen6x/system/bin/getprop ];then ln -sf toolbox out/target/product/nitrogen6x/system/bin/getprop; fi
Symlink: out/target/product/nitrogen6x/system/bin/hd -> toolbox
if [ ! -e out/target/product/nitrogen6x/system/bin/hd ];then ln -sf toolbox out/target/product/nitrogen6x/system/bin/hd; fi
Symlink: out/target/product/nitrogen6x/system/bin/id -> toolbox
if [ ! -e out/target/product/nitrogen6x/system/bin/id ];then ln -sf toolbox out/target/product/nitrogen6x/system/bin/id; fi
Symlink: out/target/product/nitrogen6x/system/bin/ifconfig -> toolbox
if [ ! -e out/target/product/nitrogen6x/system/bin/ifconfig ];then ln -sf toolbox out/target/product/nitrogen6x/system/bin/ifconfig; fi
Symlink: out/target/product/nitrogen6x/system/bin/iftop -> toolbox
if [ ! -e out/target/product/nitrogen6x/system/bin/iftop ];then ln -sf toolbox out/target/product/nitrogen6x/system/bin/iftop; fi
Symlink: out/target/product/nitrogen6x/system/bin/insmod -> toolbox
if [ ! -e out/target/product/nitrogen6x/system/bin/insmod ];then ln -sf toolbox out/target/product/nitrogen6x/system/bin/insmod; fi
Symlink: out/target/product/nitrogen6x/system/bin/ioctl -> toolbox
if [ ! -e out/target/product/nitrogen6x/system/bin/ioctl ];then ln -sf toolbox out/target/product/nitrogen6x/system/bin/ioctl; fi
Symlink: out/target/product/nitrogen6x/system/bin/ionice -> toolbox
if [ ! -e out/target/product/nitrogen6x/system/bin/ionice ];then ln -sf toolbox out/target/product/nitrogen6x/system/bin/ionice; fi
Symlink: out/target/product/nitrogen6x/system/bin/kill -> toolbox
if [ ! -e out/target/product/nitrogen6x/system/bin/kill ];then ln -sf toolbox out/target/product/nitrogen6x/system/bin/kill; fi
Symlink: out/target/product/nitrogen6x/system/bin/ln -> toolbox
if [ ! -e out/target/product/nitrogen6x/system/bin/ln ];then ln -sf toolbox out/target/product/nitrogen6x/system/bin/ln; fi
Symlink: out/target/product/nitrogen6x/system/bin/log -> toolbox
if [ ! -e out/target/product/nitrogen6x/system/bin/log ];then ln -sf toolbox out/target/product/nitrogen6x/system/bin/log; fi
Symlink: out/target/product/nitrogen6x/system/bin/ls -> toolbox
if [ ! -e out/target/product/nitrogen6x/system/bin/ls ];then ln -sf toolbox out/target/product/nitrogen6x/system/bin/ls; fi
Symlink: out/target/product/nitrogen6x/system/bin/lsmod -> toolbox
if [ ! -e out/target/product/nitrogen6x/system/bin/lsmod ];then ln -sf toolbox out/target/product/nitrogen6x/system/bin/lsmod; fi
Symlink: out/target/product/nitrogen6x/system/bin/lsof -> toolbox
if [ ! -e out/target/product/nitrogen6x/system/bin/lsof ];then ln -sf toolbox out/target/product/nitrogen6x/system/bin/lsof; fi
Symlink: out/target/product/nitrogen6x/system/bin/mkdir -> toolbox
if [ ! -e out/target/product/nitrogen6x/system/bin/mkdir ];then ln -sf toolbox out/target/product/nitrogen6x/system/bin/mkdir; fi
Symlink: out/target/product/nitrogen6x/system/bin/mount -> toolbox
if [ ! -e out/target/product/nitrogen6x/system/bin/mount ];then ln -sf toolbox out/target/product/nitrogen6x/system/bin/mount; fi
Symlink: out/target/product/nitrogen6x/system/bin/mv -> toolbox
if [ ! -e out/target/product/nitrogen6x/system/bin/mv ];then ln -sf toolbox out/target/product/nitrogen6x/system/bin/mv; fi
Symlink: out/target/product/nitrogen6x/system/bin/nandread -> toolbox
if [ ! -e out/target/product/nitrogen6x/system/bin/nandread ];then ln -sf toolbox out/target/product/nitrogen6x/system/bin/nandread; fi
Symlink: out/target/product/nitrogen6x/system/bin/netstat -> toolbox
if [ ! -e out/target/product/nitrogen6x/system/bin/netstat ];then ln -sf toolbox out/target/product/nitrogen6x/system/bin/netstat; fi
Symlink: out/target/product/nitrogen6x/system/bin/newfs_msdos -> toolbox
if [ ! -e out/target/product/nitrogen6x/system/bin/newfs_msdos ];then ln -sf toolbox out/target/product/nitrogen6x/system/bin/newfs_msdos; fi
Symlink: out/target/product/nitrogen6x/system/bin/notify -> toolbox
if [ ! -e out/target/product/nitrogen6x/system/bin/notify ];then ln -sf toolbox out/target/product/nitrogen6x/system/bin/notify; fi
Symlink: out/target/product/nitrogen6x/system/bin/printenv -> toolbox
if [ ! -e out/target/product/nitrogen6x/system/bin/printenv ];then ln -sf toolbox out/target/product/nitrogen6x/system/bin/printenv; fi
Symlink: out/target/product/nitrogen6x/system/bin/ps -> toolbox
if [ ! -e out/target/product/nitrogen6x/system/bin/ps ];then ln -sf toolbox out/target/product/nitrogen6x/system/bin/ps; fi
Symlink: out/target/product/nitrogen6x/system/bin/r -> toolbox
if [ ! -e out/target/product/nitrogen6x/system/bin/r ];then ln -sf toolbox out/target/product/nitrogen6x/system/bin/r; fi
Symlink: out/target/product/nitrogen6x/system/bin/reboot -> toolbox
if [ ! -e out/target/product/nitrogen6x/system/bin/reboot ];then ln -sf toolbox out/target/product/nitrogen6x/system/bin/reboot; fi
Symlink: out/target/product/nitrogen6x/system/bin/renice -> toolbox
if [ ! -e out/target/product/nitrogen6x/system/bin/renice ];then ln -sf toolbox out/target/product/nitrogen6x/system/bin/renice; fi
Symlink: out/target/product/nitrogen6x/system/bin/rm -> toolbox
if [ ! -e out/target/product/nitrogen6x/system/bin/rm ];then ln -sf toolbox out/target/product/nitrogen6x/system/bin/rm; fi
Symlink: out/target/product/nitrogen6x/system/bin/rmdir -> toolbox
if [ ! -e out/target/product/nitrogen6x/system/bin/rmdir ];then ln -sf toolbox out/target/product/nitrogen6x/system/bin/rmdir; fi
Symlink: out/target/product/nitrogen6x/system/bin/rmmod -> toolbox
if [ ! -e out/target/product/nitrogen6x/system/bin/rmmod ];then ln -sf toolbox out/target/product/nitrogen6x/system/bin/rmmod; fi
Symlink: out/target/product/nitrogen6x/system/bin/route -> toolbox
if [ ! -e out/target/product/nitrogen6x/system/bin/route ];then ln -sf toolbox out/target/product/nitrogen6x/system/bin/route; fi
Symlink: out/target/product/nitrogen6x/system/bin/schedtop -> toolbox
if [ ! -e out/target/product/nitrogen6x/system/bin/schedtop ];then ln -sf toolbox out/target/product/nitrogen6x/system/bin/schedtop; fi
Symlink: out/target/product/nitrogen6x/system/bin/sendevent -> toolbox
if [ ! -e out/target/product/nitrogen6x/system/bin/sendevent ];then ln -sf toolbox out/target/product/nitrogen6x/system/bin/sendevent; fi
Symlink: out/target/product/nitrogen6x/system/bin/setconsole -> toolbox
if [ ! -e out/target/product/nitrogen6x/system/bin/setconsole ];then ln -sf toolbox out/target/product/nitrogen6x/system/bin/setconsole; fi
Symlink: out/target/product/nitrogen6x/system/bin/setprop -> toolbox
if [ ! -e out/target/product/nitrogen6x/system/bin/setprop ];then ln -sf toolbox out/target/product/nitrogen6x/system/bin/setprop; fi
Symlink: out/target/product/nitrogen6x/system/bin/sleep -> toolbox
if [ ! -e out/target/product/nitrogen6x/system/bin/sleep ];then ln -sf toolbox out/target/product/nitrogen6x/system/bin/sleep; fi
Symlink: out/target/product/nitrogen6x/system/bin/smd -> toolbox
if [ ! -e out/target/product/nitrogen6x/system/bin/smd ];then ln -sf toolbox out/target/product/nitrogen6x/system/bin/smd; fi
Symlink: out/target/product/nitrogen6x/system/bin/start -> toolbox
if [ ! -e out/target/product/nitrogen6x/system/bin/start ];then ln -sf toolbox out/target/product/nitrogen6x/system/bin/start; fi
Symlink: out/target/product/nitrogen6x/system/bin/stop -> toolbox
if [ ! -e out/target/product/nitrogen6x/system/bin/stop ];then ln -sf toolbox out/target/product/nitrogen6x/system/bin/stop; fi
Symlink: out/target/product/nitrogen6x/system/bin/sync -> toolbox
if [ ! -e out/target/product/nitrogen6x/system/bin/sync ];then ln -sf toolbox out/target/product/nitrogen6x/system/bin/sync; fi
Symlink: out/target/product/nitrogen6x/system/bin/top -> toolbox
if [ ! -e out/target/product/nitrogen6x/system/bin/top ];then ln -sf toolbox out/target/product/nitrogen6x/system/bin/top; fi
Symlink: out/target/product/nitrogen6x/system/bin/touch -> toolbox
if [ ! -e out/target/product/nitrogen6x/system/bin/touch ];then ln -sf toolbox out/target/product/nitrogen6x/system/bin/touch; fi
Symlink: out/target/product/nitrogen6x/system/bin/umount -> toolbox
if [ ! -e out/target/product/nitrogen6x/system/bin/umount ];then ln -sf toolbox out/target/product/nitrogen6x/system/bin/umount; fi
Symlink: out/target/product/nitrogen6x/system/bin/uptime -> toolbox
if [ ! -e out/target/product/nitrogen6x/system/bin/uptime ];then ln -sf toolbox out/target/product/nitrogen6x/system/bin/uptime; fi
Symlink: out/target/product/nitrogen6x/system/bin/vmstat -> toolbox
if [ ! -e out/target/product/nitrogen6x/system/bin/vmstat ];then ln -sf toolbox out/target/product/nitrogen6x/system/bin/vmstat; fi
Symlink: out/target/product/nitrogen6x/system/bin/watchprops -> toolbox
if [ ! -e out/target/product/nitrogen6x/system/bin/watchprops ];then ln -sf toolbox out/target/product/nitrogen6x/system/bin/watchprops; fi
Symlink: out/target/product/nitrogen6x/system/bin/wipe -> toolbox
if [ ! -e out/target/product/nitrogen6x/system/bin/wipe ];then ln -sf toolbox out/target/product/nitrogen6x/system/bin/wipe; fi
Finding NOTICE files: out/target/product/nitrogen6x/obj/NOTICE_FILES/hash-timestamp
Combining NOTICE files: out/target/product/nitrogen6x/obj/NOTICE.html
Installed file list: out/target/product/nitrogen6x/installed-files.txt
Target system fs image: out/target/product/nitrogen6x/obj/PACKAGING/systemimage_intermediates/system.img
in mkuserimg.sh PATH=out/host/linux-x86/bin/:/usr/lib/jvm/java-6-sun/bin:/home/raja/bin:/usr/lib/lightdm/lightdm:/usr/local/sbin:/usr/local/bin:/usr/sbin:/usr/bin:/sbin:/bin:/usr/games:/media/Workspace/iMX/myandroid_new/out/host/linux-x86/bin:/media/Workspace/iMX/myandroid_new/prebuilt/linux-x86/toolchain/arm-linux-androideabi-4.4.x/bin:/media/Workspace/iMX/myandroid_new/development/emulator/qtools:/media/Workspace/iMX/myandroid_new/prebuilt/linux-x86/toolchain/arm-linux-androideabi-4.4.x/bin:/media/Workspace/iMX/myandroid_new/prebuilt/linux-x86/toolchain/arm-eabi-4.4.3/bin
make_ext4fs -l 293601280 -a system out/target/product/nitrogen6x/obj/PACKAGING/systemimage_intermediates/system.img out/target/product/nitrogen6x/system
Creating filesystem with parameters:
    Size: 293601280
    Block size: 4096
    Blocks per group: 32768
    Inodes per group: 5984
    Inode size: 256
    Journal blocks: 1120
    Label: 
    Blocks: 71680
    Block groups: 3
    Reserved block group size: 23
Created filesystem with 1343/17952 inodes and 38722/71680 blocks
Construct recovery from boot
mkdir -p out/target/product/nitrogen6x/obj/PACKAGING/recovery_patch_intermediates/
PATH=out/host/linux-x86/bin:$PATH out/host/linux-x86/bin/imgdiff out/target/product/nitrogen6x/boot.img out/target/product/nitrogen6x/recovery.img out/target/product/nitrogen6x/obj/PACKAGING/recovery_patch_intermediates/recovery_from_boot.p
failed to reconstruct target deflate chunk 1 [(null)]; treating as normal
Construct patches for 3 chunks...
patch   0 is 210 bytes (of 4640778)
patch   1 is 1486437 bytes (of 212465)
patch   2 is 181 bytes (of 517)
chunk   0: normal   (         0,    4640778)         210
chunk   1: deflate  (   4640778,    1759886)     1486437  (null)
chunk   2: normal   (   6400664,       1384)         181
Install system fs image: out/target/product/nitrogen6x/system.img
out/target/product/nitrogen6x/system.img+out/target/product/nitrogen6x/obj/PACKAGING/recovery_patch_intermediates/recovery_from_boot.p total size is 295088240
make: Leaving directory `/media/Workspace/iMX/myandroid_new'
