============================================
PLATFORM_VERSION_CODENAME=REL
PLATFORM_VERSION=4.0.4
TARGET_PRODUCT=nitrogen6x
TARGET_BUILD_VARIANT=eng
TARGET_BUILD_TYPE=release
TARGET_BUILD_APPS=
TARGET_ARCH=arm
TARGET_ARCH_VARIANT=armv7-a-neon
HOST_ARCH=x86
HOST_OS=linux
HOST_BUILD_TYPE=release
BUILD_ID=UNKNOWN
BUILD_NUMBER=eng.raja.20130319.182054
============================================
external/libnfc-1.6.0-rc1
make: Entering directory `/media/908a347e-7db6-4533-aa18-a448b2ad70d0/home/raja/myandroid_wifi'
external/wpa_supplicant_8/wpa_supplicant/Android.mk:38: NL80211 doesn't belong to Broadcom
hardware/imx/alsa/Android.mk:46: Nitrogen6x
No private recovery resources for TARGET_DEVICE nitrogen6x
Symlink: out/target/product/nitrogen6x/root/sbin/ueventd -> ../init
Target ram disk: out/target/product/nitrogen6x/ramdisk.img
mkdir -p out/target/product/nitrogen6x/boot/
mkimage -A arm -O linux -T ramdisk -n "RAM Disk" -d out/target/product/nitrogen6x/ramdisk.img out/target/product/nitrogen6x/boot/uramdisk.img
Image Name:   RAM Disk
Created:      Tue Mar 19 18:21:19 2013
Image Type:   ARM Linux RAMDisk Image (gzip compressed)
Data Size:    212485 Bytes = 207.50 kB = 0.20 MB
Load Address: 00000000
Entry Point:  00000000
make -C kernel_imx nitrogen6x_defconfig ARCH=arm CROSS_COMPILE=`pwd`/prebuilt/linux-x86/toolchain/arm-eabi-4.4.3/bin/arm-eabi-
make[1]: Entering directory `/media/908a347e-7db6-4533-aa18-a448b2ad70d0/home/raja/myandroid_wifi/kernel_imx'
#
# configuration written to .config
#
make[1]: Leaving directory `/media/908a347e-7db6-4533-aa18-a448b2ad70d0/home/raja/myandroid_wifi/kernel_imx'
make -C kernel_imx -j8 uImage modules ARCH=arm CROSS_COMPILE=`pwd`/prebuilt/linux-x86/toolchain/arm-eabi-4.4.3/bin/arm-eabi-
make[1]: Entering directory `/media/908a347e-7db6-4533-aa18-a448b2ad70d0/home/raja/myandroid_wifi/kernel_imx'
scripts/kconfig/conf --silentoldconfig Kconfig
make[1]: Leaving directory `/media/908a347e-7db6-4533-aa18-a448b2ad70d0/home/raja/myandroid_wifi/kernel_imx'
make[1]: Entering directory `/media/908a347e-7db6-4533-aa18-a448b2ad70d0/home/raja/myandroid_wifi/kernel_imx'
  CHK     include/linux/version.h
  CC      scripts/mod/empty.o
  MKELF   scripts/mod/elfconfig.h
  HOSTCC  scripts/mod/file2alias.o
  HOSTCC  scripts/mod/modpost.o
  HOSTCC  scripts/mod/sumversion.o
  CHK     include/generated/utsrelease.h
make[2]: `include/generated/mach-types.h' is up to date.
  CC      kernel/bounds.s
  GEN     include/generated/bounds.h
  CC      arch/arm/kernel/asm-offsets.s
  GEN     include/generated/asm-offsets.h
  CALL    scripts/checksyscalls.sh
  HOSTLD  scripts/mod/modpost
  AS      usr/initramfs_data.o
  CHK     include/generated/compile.h
  CC      init/main.o
  CC      arch/arm/vfp/vfpmodule.o
  CC      arch/arm/common/vic.o
  CC      arch/arm/mach-versatile/core.o
  UPD     include/generated/compile.h
  CC      arch/arm/common/icst.o
  LD      usr/built-in.o
  AS      arch/arm/vfp/entry.o
  CC      arch/arm/mm/dma-mapping.o
  CC      arch/arm/kernel/elf.o
  AS      arch/arm/kernel/entry-armv.o
  AS      arch/arm/kernel/entry-common.o
  CC      init/do_mounts.o
  CC      arch/arm/plat-versatile/clock.o
  CC      arch/arm/common/timer-sp.o
  AS      arch/arm/vfp/vfphw.o
  CC      arch/arm/vfp/vfpsingle.o
  CC      arch/arm/kernel/irq.o
  CC      arch/arm/mach-versatile/versatile_pb.o
  LD      arch/arm/common/built-in.o
  CC      arch/arm/mm/extable.o
  CC      arch/arm/plat-versatile/clcd.o
  CC      arch/arm/kernel/process.o
  CC      arch/arm/mach-versatile/pci.o
  CC      arch/arm/kernel/ptrace.o
  CC      arch/arm/mm/fault.o
  CC      arch/arm/mm/init.o
  CC      arch/arm/plat-versatile/fpga-irq.o
  CC      init/do_mounts_initrd.o
  CC      arch/arm/vfp/vfpdouble.o
  LD      arch/arm/mach-versatile/built-in.o
  CC      arch/arm/plat-versatile/leds.o
  CC      init/initramfs.o
  CC      init/calibrate.o
  CC      arch/arm/plat-versatile/sched-clock.o
  CC      arch/arm/kernel/return_address.o
  CC      arch/arm/mm/iomap.o
  LD      arch/arm/plat-versatile/built-in.o
  CC      init/version.o
arch/arm/kernel/return_address.c:62:2: warning: #warning "TODO: return_address should use unwind tables"
  CC      arch/arm/kernel/setup.o
  CC      mm/filemap.o
  CC      kernel/sched.o
arch/arm/kernel/return_address.c:62:2: warning: #warning "TODO: return_address should use unwind tables"
  CC      kernel/fork.o
  CC      mm/mempool.o
  LD      init/mounts.o
  LD      init/built-in.o
  CC      arch/arm/mm/fault-armv.o
  CC      kernel/exec_domain.o
  LD      arch/arm/vfp/vfp.o
  LD      arch/arm/vfp/built-in.o
  CC      kernel/panic.o
  CC      arch/arm/mm/flush.o
  CC      arch/arm/kernel/signal.o
  CC      arch/arm/mm/idmap.o
  CC      arch/arm/kernel/sys_arm.o
  CC      arch/arm/kernel/stacktrace.o
  CC      arch/arm/mm/ioremap.o
  CC      arch/arm/kernel/time.o
  CC      fs/open.o
  CC      arch/arm/kernel/traps.o
  CC      arch/arm/kernel/armksyms.o
  CC      arch/arm/kernel/module.o
  CC      kernel/printk.o
  CC      arch/arm/mm/mmap.o
  CC      arch/arm/mm/pgd.o
  CC      arch/arm/mm/mmu.o
  CC      mm/oom_kill.o
  CC      kernel/cpu.o
  CC      arch/arm/kernel/bios32.o
  CC      arch/arm/kernel/isa.o
  CC      mm/fadvise.o
  CC      fs/read_write.o
  CC      mm/maccess.o
  CC      arch/arm/mm/vmregion.o
  AS      arch/arm/kernel/sleep.o
  CC      arch/arm/mm/proc-syms.o
  CC      kernel/exit.o
  CC      fs/file_table.o
  CC      mm/page_alloc.o
  CC      ipc/util.o
  CC      arch/arm/mm/alignment.o
  CC      security/keys/gc.o
  CC      security/keys/key.o
  CC      arch/arm/kernel/sched_clock.o
  CC      ipc/msgutil.o
  CC      fs/super.o
  CC      arch/arm/mm/highmem.o
  AS      arch/arm/mm/abort-ev5tj.o
  CC      arch/arm/kernel/unwind.o
  CC      arch/arm/kernel/io.o
  CC      ipc/msg.o
  CC      security/commoncap.o
  AS      arch/arm/mm/pabort-legacy.o
  CC      arch/arm/mm/copypage-v4wb.o
  AS      arch/arm/kernel/head.o
  CC      security/keys/keyring.o
  CC      arch/arm/kernel/init_task.o
  AS      arch/arm/mm/tlb-v4wbi.o
  AS      arch/arm/mm/proc-arm926.o
  CC      kernel/itimer.o
  LD      arch/arm/mm/built-in.o
  CC      fs/char_dev.o
  CC      fs/stat.o
  CC      ipc/sem.o
  LDS     arch/arm/kernel/vmlinux.lds
  CC      security/min_addr.o
  LD      arch/arm/kernel/built-in.o
  CC      ipc/shm.o
  CC      kernel/time.o
  CC      security/keys/keyctl.o
  CC      mm/page-writeback.o
  CC      mm/readahead.o
  CC      mm/swap.o
  CC      fs/exec.o
  CC      fs/pipe.o
  CC      ipc/ipcns_notifier.o
  CC      kernel/softirq.o
  CC      ipc/syscall.o
  CC      kernel/resource.o
  CC      security/keys/permission.o
  CC      ipc/ipc_sysctl.o
  LD      ipc/built-in.o
  CC      kernel/sysctl.o
  CC      security/keys/process_keys.o
  CC      kernel/sysctl_binary.o
  CC      mm/truncate.o
  CC      security/keys/request_key.o
  CC      kernel/capability.o
  CC      mm/vmscan.o
  CC      mm/shmem.o
  CC      fs/namei.o
  CC      security/keys/request_key_auth.o
  CC      security/keys/user_defined.o
  CC      security/keys/proc.o
  CC      security/keys/sysctl.o
  CC      fs/fcntl.o
  CC      mm/prio_tree.o
  CC      mm/util.o
  LD      security/keys/built-in.o
  LD      security/built-in.o
  CC      mm/mmzone.o
  CC      kernel/ptrace.o
  CC      kernel/timer.o
  CC      crypto/api.o
  CC      kernel/user.o
  CC      fs/ioctl.o
  CC      kernel/signal.o
  CC      kernel/sys.o
  CC      crypto/cipher.o
  CC      mm/vmstat.o
  CC      crypto/compress.o
  CC      fs/readdir.o
  CC      crypto/algapi.o
  CC      crypto/scatterwalk.o
  CC      mm/backing-dev.o
  CC      fs/select.o
  CC      kernel/kmod.o
  CC      kernel/workqueue.o
  CC      fs/fifo.o
  CC      fs/dcache.o
  CC      crypto/proc.o
  CC      crypto/ablkcipher.o
  CC      mm/page_isolation.o
  CC      crypto/blkcipher.o
  CC      mm/mm_init.o
  CC      crypto/ahash.o
  CC      block/elevator.o
  CC      mm/mmu_context.o
  CC      drivers/amba/bus.o
  CC      sound/sound_core.o
  CC      crypto/shash.o
  CC      mm/percpu.o
  CC      drivers/ata/libata-core.o
  LD      drivers/amba/built-in.o
  CC      drivers/base/core.o
  CC      kernel/pid.o
  CC      sound/core/hwdep.o
  CC      block/blk-core.o
  CC      crypto/algboss.o
  CC      fs/inode.o
  CC      sound/core/memalloc.o
  CC      drivers/base/sys.o
  CC      kernel/rcupdate.o
  CC      crypto/testmgr.o
  CC      mm/fremap.o
  CC      kernel/extable.o
  CC      drivers/base/bus.o
  CC      kernel/params.o
  CC      crypto/crypto_wq.o
  CC      mm/highmem.o
  CC      sound/core/pcm.o
  LD      crypto/crypto_algapi.o
  CC      crypto/aead.o
  CC      block/blk-tag.o
  CC      drivers/base/dd.o
  CC      fs/attr.o
  CC      kernel/posix-timers.o
  CC      mm/madvise.o
  CC      drivers/base/syscore.o
  CC      sound/core/pcm_native.o
  LD      crypto/crypto_blkcipher.o
  CC      crypto/chainiv.o
  CC      block/blk-sysfs.o
  CC      fs/bad_inode.o
  CC      mm/memory.o
  CC      drivers/base/driver.o
  CC      drivers/ata/libata-scsi.o
  CC      crypto/eseqiv.o
  CC      fs/file.o
  CC      kernel/kthread.o
  CC      block/blk-flush.o
  CC      drivers/base/class.o
  LD      crypto/crypto_hash.o
  CC      crypto/pcompress.o
  CC      kernel/wait.o
  CC      fs/filesystems.o
  CC      drivers/base/platform.o
  LD      crypto/cryptomgr.o
  CC      crypto/hmac.o
  CC      block/blk-settings.o
  CC      kernel/kfifo.o
  CC      crypto/md5.o
  CC      fs/namespace.o
  CC      drivers/base/cpu.o
  CC      crypto/sha1_generic.o
  CC      block/blk-ioc.o
  CC      mm/mincore.o
  CC      sound/core/pcm_lib.o
  CC      crypto/ecb.o
  CC      drivers/base/firmware.o
  CC      kernel/sys_ni.o
  CC      drivers/ata/libata-eh.o
  CC      kernel/posix-cpu-timers.o
  CC      mm/mlock.o
  CC      block/blk-map.o
  CC      drivers/base/init.o
  CC      crypto/cbc.o
  CC      drivers/base/map.o
  CC      crypto/des_generic.o
  CC      drivers/base/devres.o
  CC      mm/mmap.o
  CC      block/blk-exec.o
  CC      kernel/mutex.o
  CC      fs/seq_file.o
  CC      drivers/base/attribute_container.o
  CC      block/blk-merge.o
  CC      sound/core/pcm_timer.o
  CC      kernel/hrtimer.o
  CC      drivers/base/transport_class.o
  CC      crypto/blowfish.o
  CC      sound/core/pcm_misc.o
  CC      fs/xattr.o
  CC      drivers/base/power/sysfs.o
  CC      crypto/twofish_generic.o
  CC      block/blk-softirq.o
  CC      sound/core/pcm_memory.o
  CC      mm/mprotect.o
  CC      drivers/base/power/generic_ops.o
  CC      kernel/rwsem.o
  CC      drivers/ata/libata-transport.o
  CC      fs/libfs.o
  CC      crypto/twofish_common.o
  CC      drivers/base/power/main.o
  CC      sound/core/rawmidi.o
  CC      block/blk-timeout.o
  CC      mm/mremap.o
  CC      kernel/nsproxy.o
  CC      drivers/ata/libata-sff.o
  CC      kernel/srcu.o
  CC      block/blk-iopoll.o
  CC      mm/msync.o
  CC      crypto/aes_generic.o
  CC      fs/fs-writeback.o
  CC      drivers/base/power/wakeup.o
  CC      kernel/semaphore.o
  CC      mm/rmap.o
  CC      block/blk-lib.o
  CC      sound/core/timer.o
  CC      kernel/notifier.o
  CC      drivers/base/power/runtime.o
  CC      kernel/ksysfs.o
  CC      fs/pnode.o
  CC      block/ioctl.o
  CC      crypto/arc4.o
  CC      mm/vmalloc.o
  CC      drivers/ata/ahci_platform.o
  CC      kernel/pm_qos_params.o
  CC      fs/drop_caches.o
  CC      crypto/deflate.o
  CC      drivers/base/power/clock_ops.o
  CC      fs/splice.o
  CC      block/genhd.o
  CC      drivers/ata/libahci.o
  CC      crypto/michael_mic.o
  CC      kernel/sched_clock.o
  LD      drivers/base/power/built-in.o
  CC      drivers/base/dma-mapping.o
  CC      sound/core/sound.o
  CC      crypto/crc32c.o
  CC      kernel/cred.o
  CC      crypto/authenc.o
  CC      drivers/base/dma-coherent.o
  CC      sound/core/init.o
  CC      drivers/base/firmware_class.o
  CC      mm/pagewalk.o
  CC      kernel/async.o
  CC      crypto/authencesn.o
  CC      block/scsi_ioctl.o
  CC      fs/sync.o
  CC      mm/pgtable-generic.o
  LD      drivers/ata/libata.o
  LD      drivers/ata/built-in.o
  CC      mm/init-mm.o
  CC      sound/core/memory.o
  CC      drivers/base/module.o
  CC      kernel/range.o
  CC      drivers/block/loop.o
  CC      mm/bootmem.o
  LD      drivers/base/built-in.o
  CC      crypto/lzo.o
  CC      kernel/jump_label.o
  CC      fs/utimes.o
  CC      sound/core/info.o
  CC      kernel/groups.o
  CC      crypto/rng.o
  CC      block/noop-iosched.o
  CC      block/deadline-iosched.o
  CC      fs/stack.o
  CC      mm/memblock.o
  CC      crypto/krng.o
  CC      mm/bounce.o
  CC      block/cfq-iosched.o
  CC [M]  crypto/tcrypt.o
  CC      kernel/freezer.o
  CC      fs/fs_struct.o
  CC      kernel/sysctl_check.o
  CC      sound/core/control.o
  LD      drivers/block/built-in.o
  CC      drivers/bluetooth/hci_ldisc.o
  CC      drivers/bluetooth/hci_ll.o
  CC      fs/statfs.o
  CC      mm/page_io.o
  CC      kernel/stacktrace.o
  LD      crypto/crypto.o
  LD      crypto/built-in.o
  CC      kernel/events/core.o
  CC      mm/swap_state.o
  CC      sound/core/misc.o
  CC      fs/buffer.o
  LD      drivers/bluetooth/hci_uart.o
  LD      drivers/bluetooth/built-in.o
  CC      sound/core/device.o
  CC      drivers/char/mem.o
  CC      drivers/char/random.o
  CC      mm/swapfile.o
  CC      mm/thrash.o
  CC      sound/core/jack.o
  LD      block/built-in.o
  CC      mm/dmapool.o
  CC      kernel/irq/irqdesc.o
  CC      kernel/power/main.o
  LD      sound/core/snd.o
  LD      sound/core/snd-hwdep.o
  LD      sound/core/snd-timer.o
  LD      sound/core/snd-pcm.o
  LD      sound/core/snd-page-alloc.o
  LD      sound/core/snd-rawmidi.o
  LD      sound/core/built-in.o
  CC      kernel/power/console.o
  CC      drivers/char/misc.o
  CC      drivers/char/apm-emulation.o
  CC      kernel/irq/handle.o
  LD      sound/pci/ac97/built-in.o
  CC      kernel/power/process.o
  CC      kernel/irq/manage.o
  LD      sound/pci/built-in.o
  CC      kernel/time/timekeeping.o
  CC      mm/ashmem.o
  CC      kernel/power/suspend.o
  CC      drivers/char/hw_random/core.o
  CC      sound/soc/soc-core.o
  CC      fs/bio.o
  CC      kernel/irq/spurious.o
  CC      kernel/power/wakelock.o
  CC      kernel/irq/resend.o
  CC      mm/compaction.o
  LD      drivers/char/hw_random/rng-core.o
  LD      drivers/char/hw_random/built-in.o
  LD      drivers/char/built-in.o
  CC      drivers/clk/clkdev.o
  CC      kernel/irq/chip.o
  CC      kernel/time/ntp.o
  LD      drivers/clk/built-in.o
  CC      drivers/clocksource/mmio.o
  CC      mm/slab.o
  LD      drivers/clocksource/built-in.o
  CC      fs/block_dev.o
  CC      kernel/time/clocksource.o
  CC      drivers/connector/cn_queue.o
  CC      kernel/irq/dummychip.o
  LD      kernel/events/built-in.o
  CC      kernel/irq/devres.o
  CC      kernel/power/userwakelock.o
  CC      kernel/power/earlysuspend.o
  CC      kernel/irq/autoprobe.o
  CC      kernel/irq/proc.o
  CC      drivers/connector/connector.o
  CC      kernel/time/jiffies.o
  CC      drivers/connector/cn_proc.o
  CC      kernel/irq/pm.o
  CC      kernel/power/fbearlysuspend.o
  CC      sound/soc/soc-dapm.o
  CC      kernel/time/timer_list.o
  LD      kernel/irq/built-in.o
  CC      kernel/power/poweroff.o
  CC      kernel/time/timecompare.o
  CC      fs/direct-io.o
  LD      kernel/power/built-in.o
  CC      kernel/time/timeconv.o
  CC      kernel/time/posix-clock.o
  LD      drivers/connector/cn.o
  CC      sound/soc/soc-jack.o
  LD      drivers/connector/built-in.o
  CC      mm/migrate.o
  CC      drivers/gpio/gpiolib.o
  CC      drivers/gpio/pca953x.o
  CC      drivers/gpu/vga/vgaarb.o
  CC      fs/mpage.o
  CC      kernel/time/clockevents.o
  CC      kernel/time/tick-common.o
  CC      fs/ioprio.o
  CC      sound/soc/soc-cache.o
  CC      kernel/time/tick-oneshot.o
  LD      drivers/gpio/built-in.o
  CC      sound/soc/soc-utils.o
  CC      fs/autofs4/init.o
  LD      mm/built-in.o
  CC      fs/autofs4/inode.o
  CC      kernel/time/tick-sched.o
  LD      drivers/gpu/vga/built-in.o
  LD      drivers/gpu/built-in.o
  CC      drivers/hid/hid-core.o
  CC      drivers/hid/hid-input.o
  CC      drivers/hid/hidraw.o
  CC      fs/autofs4/root.o
  CC      drivers/hid/hid-quanta.o
  CC      drivers/hid/usbhid/hid-core.o
  LD      kernel/time/built-in.o
  CC      fs/cramfs/inode.o
  CC      kernel/futex.o
  CC      kernel/rtmutex.o
  CC      fs/autofs4/symlink.o
  CC      sound/soc/codecs/ad1836.o
  CC      fs/autofs4/waitq.o
  CC      fs/cramfs/uncompress.o
  CC      sound/soc/codecs/ad193x.o
  CC      sound/soc/codecs/ad73311.o
  LD      fs/cramfs/cramfs.o
  LD      fs/cramfs/built-in.o
  CC      sound/soc/codecs/ads117x.o
  CC      sound/soc/codecs/ak4104.o
  CC      drivers/hid/usbhid/hid-quirks.o
  CC      fs/autofs4/expire.o
  CC      drivers/hwmon/hwmon.o
  CC      sound/usb/card.o
  LD      firmware/built-in.o
  CC      sound/usb/mixer.o
  LD      drivers/hid/usbhid/usbhid.o
  CC      kernel/up.o
  CC      sound/usb/mixer_quirks.o
  CC      sound/soc/codecs/ak4535.o
  LD      drivers/hid/usbhid/built-in.o
  CC [M]  drivers/hid/hid-samsung.o
  CC      drivers/hwmon/max17135-hwmon.o
  CC      fs/autofs4/dev-ioctl.o
  CC      kernel/uid16.o
  CC      drivers/hwmon/mag3110.o
  CC [M]  drivers/hid/hid-sony.o
  CC      sound/soc/codecs/ak4641.o
  CC [M]  drivers/hid/hid-sunplus.o
  CC      kernel/module.o
  CC      kernel/kallsyms.o
  LD      fs/autofs4/autofs4.o
  LD      drivers/hid/hid.o
  LD      fs/autofs4/built-in.o
  LD      drivers/hid/built-in.o
  CC      kernel/cgroup.o
  CC      drivers/hwmon/mxc_mma8451.o
  CC      fs/devpts/inode.o
  CC      fs/ext2/balloc.o
  CC      sound/soc/codecs/ak4642.o
  CC      sound/usb/proc.o
  LD      fs/devpts/devpts.o
  LD      fs/devpts/built-in.o
  CC      sound/soc/codecs/ak4671.o
  LD      drivers/hwmon/built-in.o
  CC      drivers/i2c/i2c-boardinfo.o
  CC      drivers/i2c/i2c-core.o
  CC      drivers/i2c/i2c-dev.o
  CC      sound/usb/quirks.o
drivers/i2c/i2c-core.c: In function 'i2c_device_match':
drivers/i2c/i2c-core.c:76: warning: too many arguments for format
  CC      sound/soc/codecs/alc5623.o
  CC      fs/ext2/dir.o
  CC      sound/last.o
  LD      sound/soundcore.o
  LD      drivers/i2c/busses/built-in.o
  CC      net/socket.o
  CC      fs/ext3/balloc.o
  CC      sound/usb/format.o
  CC      sound/soc/codecs/cs4270.o
  CC      fs/ext2/file.o
  CC      sound/soc/codecs/cs4271.o
  LD      drivers/i2c/built-in.o
  CC      sound/usb/endpoint.o
  CC      drivers/input/input.o
  CC      fs/ext2/ialloc.o
  CC      drivers/input/serio/serio.o
  CC      sound/soc/codecs/cs42888.o
  CC      sound/usb/urb.o
  CC      fs/ext3/bitmap.o
In file included from sound/soc/codecs/cs42888.c:37:
sound/soc/codecs/../imx/imx-pcm.h:44:22: error: mach/dma.h: No such file or directory
In file included from sound/soc/codecs/cs42888.c:37:
sound/soc/codecs/../imx/imx-pcm.h:56: error: field 'dma_data' has incomplete type
sound/soc/codecs/cs42888.c: In function 'cs42888_hw_params':
sound/soc/codecs/cs42888.c:678: error: 'struct imx_pcm_runtime_data' has no member named 'p2p'
sound/soc/codecs/cs42888.c: In function 'cs42888_probe':
sound/soc/codecs/cs42888.c:846: error: implicit declaration of function 'cpu_is_mx6q'
sound/soc/codecs/cs42888.c:846: error: implicit declaration of function 'cpu_is_mx6dl'
make[4]: *** [sound/soc/codecs/cs42888.o] Error 1
make[3]: *** [sound/soc/codecs] Error 2
make[2]: *** [sound/soc] Error 2
make[2]: *** Waiting for unfinished jobs....
  CC      sound/usb/pcm.o
  CC      fs/ext2/inode.o
  CC      fs/ext3/dir.o
  CC      drivers/input/serio/serport.o
  CC      kernel/cpuset.o
  CC      net/bluetooth/af_bluetooth.o
  CC      net/can/bcm.o
  CC      fs/ext3/file.o
  CC      drivers/input/serio/libps2.o
  CC      sound/usb/helper.o
  CC      drivers/input/input-compat.o
  CC      fs/ext2/ioctl.o
  CC      fs/ext3/fsync.o
  CC      sound/usb/clock.o
  CC      drivers/input/input-mt.o
  CC      fs/ext2/namei.o
  LD      drivers/input/serio/built-in.o
  CC      fs/ext2/super.o
  CC      net/bluetooth/hci_core.o
  CC      fs/ext3/ialloc.o
  GZIP    kernel/config_data.gz
  CC      drivers/input/ff-core.o
  CC      kernel/rcutree.o
  CC      sound/usb/midi.o
  CC      net/can/raw.o
  CC      net/can/af_can.o
  CC      drivers/input/input-polldev.o
  CC      fs/ext3/inode.o
  CC      fs/ext2/symlink.o
  CC      fs/ext3/ioctl.o
  CC      drivers/input/mousedev.o
  LD      fs/ext2/ext2.o
  LD      fs/ext2/built-in.o
  CC      fs/ext3/namei.o
  CC      kernel/utsname_sysctl.o
  CC      net/can/proc.o
  LD      sound/usb/snd-usb-audio.o
  CC      fs/ext4/balloc.o
  LD      sound/usb/snd-usbmidi-lib.o
  LD      sound/usb/built-in.o
  CC      kernel/elfcore.o
make[1]: *** [sound] Error 2
make[1]: *** Waiting for unfinished jobs....
  CC      kernel/irq_work.o
  CC      drivers/input/evdev.o
  CC      drivers/input/keyboard/atkbd.o
  CC      net/bluetooth/hci_conn.o
  LD      net/can/can.o
  LD      net/can/can-raw.o
  LD      net/can/can-bcm.o
  LD      net/can/built-in.o
  CC      drivers/input/keyboard/gpio_keys.o
  IKCFG   kernel/config_data.h
  CC      kernel/configs.o
  CC      fs/ext4/bitmap.o
  LD      kernel/built-in.o
  CC      net/bluetooth/hci_event.o
  CC      fs/ext3/super.o
  CC      drivers/leds/led-core.o
  CC      drivers/leds/led-class.o
  CC      fs/ext4/dir.o
  CC      fs/ext4/file.o
  CC      net/core/sock.o
  LD      drivers/input/keyboard/built-in.o
  CC      drivers/input/misc/uinput.o
  CC      drivers/leds/led-triggers.o
  CC      drivers/leds/leds-gpio.o
  CC      fs/ext4/fsync.o
  CC      fs/fat/cache.o
  CC      fs/ext4/ialloc.o
  CC      drivers/input/misc/isl29023.o
  CC      drivers/leds/ledtrig-gpio.o
  CC      net/core/request_sock.o
  CC      drivers/leds/ledtrig-default-on.o
  CC      fs/fat/dir.o
  CC      fs/ext3/symlink.o
  CC      drivers/leds/ledtrig-sleep.o
  LD      drivers/input/misc/built-in.o
  CC      drivers/input/touchscreen/tsc2004.o
  CC      fs/ext3/hash.o
  LD      drivers/leds/built-in.o
  CC      fs/ext3/resize.o
  CC      fs/ext4/inode.o
  CC      fs/ext3/ext3_jbd.o
  CC      drivers/input/touchscreen/egalax_ts.o
  CC      drivers/input/touchscreen/ft5x06_ts.o
drivers/input/touchscreen/egalax_ts.c: In function 'egalax_ts_interrupt':
drivers/input/touchscreen/egalax_ts.c:132: error: implicit declaration of function 'irq_to_gpio'
make[4]: *** [drivers/input/touchscreen/egalax_ts.o] Error 1
make[4]: *** Waiting for unfinished jobs....
  CC      net/core/skbuff.o
drivers/input/touchscreen/ft5x06_ts.c: In function 'ts_probe':
drivers/input/touchscreen/ft5x06_ts.c:498: error: implicit declaration of function 'irq_to_gpio'
make[4]: *** [drivers/input/touchscreen/ft5x06_ts.o] Error 1
make[3]: *** [drivers/input/touchscreen] Error 2
make[2]: *** [drivers/input] Error 2
make[1]: *** [drivers] Error 2
  CC      net/core/iovec.o
  CC      fs/jbd/transaction.o
  CC      fs/jbd2/transaction.o
  CC      fs/ext3/xattr.o
fs/fat/dir.c: In function 'fat_add_entries':
fs/fat/dir.c:43: warning: 'de' may be used uninitialized in this function
fs/fat/dir.c:1243: note: 'de' was declared here
  CC      fs/fat/fatent.o
  CC      net/bluetooth/mgmt.o
  CC      fs/fat/file.o
  CC      fs/ext3/xattr_user.o
  CC      fs/jbd/commit.o
  CC      fs/ext3/xattr_trusted.o
  CC      net/bluetooth/hci_sock.o
  CC      fs/jbd2/commit.o
  CC      fs/fat/inode.o
  LD      fs/ext3/ext3.o
  LD      fs/ext3/built-in.o
  CC      fs/jbd/recovery.o
  CC      fs/ext4/page-io.o
  CC      net/core/datagram.o
  CC      fs/ext4/ioctl.o
  CC      fs/jbd/checkpoint.o
  CC      net/bluetooth/hci_sysfs.o
  CC      fs/jbd2/recovery.o
  CC      fs/jbd2/checkpoint.o
  CC      fs/jbd2/revoke.o
  CC      fs/ext4/namei.o
  CC      fs/fat/misc.o
  CC      fs/jbd/revoke.o
  CC      fs/jbd/journal.o
  CC      net/core/stream.o
  CC      net/bluetooth/lib.o
  CC      fs/fat/namei_msdos.o
  CC      net/bluetooth/l2cap_core.o
  CC      net/bluetooth/l2cap_sock.o
  CC      fs/jbd2/journal.o
  CC      net/core/scm.o
  CC      fs/fat/namei_vfat.o
  CC      net/core/gen_stats.o
  CC      net/core/gen_estimator.o
  LD      fs/jbd/jbd.o
  LD      fs/jbd/built-in.o
  CC      fs/ext4/super.o
  CC      net/core/net_namespace.o
  CC      fs/ext4/symlink.o
  LD      fs/fat/fat.o
  LD      fs/fat/vfat.o
  LD      fs/fat/msdos.o
  CC      fs/ext4/hash.o
  LD      fs/fat/built-in.o
  CC      net/ethernet/eth.o
  CC      net/core/secure_seq.o
  CC      net/core/sysctl_net_core.o
  CC      net/bluetooth/smp.o
  CC      net/bluetooth/sco.o
  LD      fs/jbd2/jbd2.o
  LD      fs/jbd2/built-in.o
  CC      net/bluetooth/bnep/core.o
  CC      net/bluetooth/hidp/core.o
  CC      net/core/dev.o
  LD      net/ethernet/built-in.o
  CC      net/core/ethtool.o
  CC      net/core/dev_addr_lists.o
  CC      net/core/dst.o
  CC      net/bluetooth/bnep/sock.o
  CC      net/bluetooth/hidp/sock.o
  CC      net/bluetooth/bnep/netdev.o
  CC      net/ipv4/route.o
  CC      fs/ext4/resize.o
  CC      fs/ext4/extents.o
  CC      fs/ext4/ext4_jbd2.o
  LD      net/bluetooth/hidp/hidp.o
  LD      net/bluetooth/hidp/built-in.o
  CC      fs/ext4/migrate.o
  LD      net/bluetooth/bnep/bnep.o
  LD      net/bluetooth/bnep/built-in.o
  CC      net/bluetooth/rfcomm/core.o
  CC      net/bluetooth/rfcomm/sock.o
  CC      net/bluetooth/rfcomm/tty.o
  CC      net/core/netevent.o
  CC      net/ipv6/af_inet6.o
  CC      net/ipv6/anycast.o
  CC      net/ipv6/ip6_output.o
  CC      fs/jffs2/compr.o
  CC      fs/ext4/mballoc.o
  LD      net/bluetooth/rfcomm/rfcomm.o
  LD      net/bluetooth/rfcomm/built-in.o
  LD      net/bluetooth/bluetooth.o
  CC      fs/jffs2/dir.o
  CC      net/ipv4/inetpeer.o
  LD      net/bluetooth/built-in.o
  CC      net/ipv4/protocol.o
  CC      net/core/neighbour.o
  CC      net/ipv4/ip_input.o
  CC      net/key/af_key.o
  CC      fs/jffs2/file.o
  CC      net/l2tp/l2tp_core.o
  CC      net/l2tp/l2tp_ppp.o
  CC      net/ipv4/ip_fragment.o
  CC      fs/jffs2/ioctl.o
  CC      fs/jffs2/nodelist.o
  CC      net/ipv6/ip6_input.o
  CC      fs/jffs2/malloc.o
  CC      net/ipv4/ip_forward.o
  CC      net/ipv4/ip_options.o
  CC      net/ipv6/addrconf.o
  CC      fs/jffs2/read.o
  CC      net/l2tp/l2tp_ip.o
  LD      net/key/built-in.o
  CC      net/core/rtnetlink.o
  CC      net/l2tp/l2tp_netlink.o
  CC      fs/jffs2/nodemgmt.o
  CC      net/core/utils.o
  CC      fs/ext4/block_validity.o
  CC      net/ipv4/ip_output.o
  CC      fs/jffs2/readinode.o
  CC      fs/ext4/move_extent.o
  CC      net/core/link_watch.o
  CC      net/l2tp/l2tp_eth.o
  CC      net/core/filter.o
  LD      net/l2tp/built-in.o
  CC      fs/lockd/clntlock.o
  CC      fs/jffs2/write.o
  CC      fs/ext4/mmp.o
  CC      fs/nfs/client.o
  CC      net/mac80211/main.o
  CC      net/core/flow.o
  CC      fs/ext4/xattr.o
  CC      net/ipv4/ip_sockglue.o
  CC      fs/jffs2/scan.o
  CC      fs/lockd/clntproc.o
  CC      net/ipv6/addrlabel.o
  CC      net/mac80211/status.o
  CC      net/core/net-sysfs.o
  CC      fs/nfs/dir.o
  CC      fs/jffs2/gc.o
  CC      fs/ext4/xattr_user.o
  CC      net/ipv6/route.o
  CC      net/mac80211/sta_info.o
  CC      net/ipv4/inet_hashtables.o
  CC      fs/lockd/clntxdr.o
  CC      fs/ext4/xattr_trusted.o
  CC      fs/jffs2/symlink.o
  CC      net/core/fib_rules.o
  LD      fs/ext4/ext4.o
  LD      fs/ext4/built-in.o
  CC      fs/jffs2/build.o
  CC      fs/nfs/file.o
  CC      fs/lockd/host.o
  CC      fs/lockd/svc.o
  CC      fs/jffs2/erase.o
  CC      net/mac80211/wep.o
  CC      net/ipv4/inet_timewait_sock.o
  CC      fs/nfs/getroot.o
  CC      fs/jffs2/background.o
  CC      net/mac80211/wpa.o
  CC      fs/jffs2/fs.o
  LD      net/core/built-in.o
  CC      net/ipv6/ip6_fib.o
  CC      net/ipv6/ipv6_sockglue.o
  CC      net/mac80211/scan.o
  CC      fs/lockd/svclock.o
  CC      net/ipv4/inet_connection_sock.o
  CC      fs/nfs/inode.o
  CC      fs/nfs/super.o
  CC      fs/jffs2/writev.o
  CC      fs/jffs2/super.o
  CC      fs/jffs2/debug.o
  CC      fs/lockd/svcshare.o
  CC      net/mac80211/offchannel.o
  CC      net/mac80211/ht.o
  CC      fs/jffs2/wbuf.o
  CC      net/ipv6/ndisc.o
  CC      net/ipv4/tcp.o
  CC      fs/lockd/svcproc.o
  CC      fs/lockd/svcsubs.o
  CC      fs/nfs/nfs2xdr.o
  CC      fs/nls/nls_base.o
  CC      net/mac80211/agg-tx.o
  CC      fs/jffs2/compr_rtime.o
  CC      fs/jffs2/compr_zlib.o
  CC      fs/nls/nls_cp437.o
  CC      fs/nls/nls_iso8859-1.o
  CC      fs/lockd/mon.o
  CC      fs/nfs/direct.o
  CC      fs/nfs/pagelist.o
  LD      fs/jffs2/jffs2.o
  CC [M]  fs/nls/nls_ascii.o
  LD      fs/jffs2/built-in.o
  CC [M]  fs/nls/nls_utf8.o
  LD      fs/nls/built-in.o
  CC      fs/nfs/proc.o
  CC      fs/notify/fsnotify.o
  CC      net/mac80211/agg-rx.o
  CC      net/ipv6/udp.o
  CC      fs/lockd/xdr.o
  CC      fs/notify/notification.o
  CC      fs/lockd/grace.o
  CC      net/ipv4/tcp_input.o
  CC      net/mac80211/ibss.o
  CC      net/mac80211/mlme.o
  CC      fs/notify/group.o
  CC      fs/nfs/read.o
  CC      fs/notify/inode_mark.o
  CC      fs/lockd/clnt4xdr.o
  CC      fs/lockd/xdr4.o
  CC      fs/notify/mark.o
  CC      fs/notify/vfsmount_mark.o
  CC      net/ipv6/udplite.o
  CC      net/ipv6/raw.o
  CC      fs/notify/dnotify/dnotify.o
  CC      net/ipv4/tcp_output.o
  CC      fs/lockd/svc4proc.o
  LD      fs/notify/dnotify/built-in.o
  CC      fs/nfs/symlink.o
  CC      fs/notify/inotify/inotify_fsnotify.o
  CC      fs/notify/inotify/inotify_user.o
  CC      fs/nfs/unlink.o
  CC      net/mac80211/work.o
  LD      fs/lockd/lockd.o
  LD      fs/lockd/built-in.o
  CC      fs/nfs/write.o
  CC      net/ipv6/protocol.o
  CC      fs/nfs/namespace.o
  LD      fs/notify/inotify/built-in.o
  LD      fs/notify/built-in.o
  CC      fs/nfs/mount_clnt.o
  CC      net/ipv4/tcp_timer.o
  CC      net/ipv6/icmp.o
  CC      fs/partitions/check.o
  CC      net/mac80211/iface.o
  CC      fs/proc/mmu.o
  CC      net/ipv6/mcast.o
  CC      fs/proc/task_mmu.o
  CC      net/ipv6/reassembly.o
  CC      fs/partitions/msdos.o
  CC      fs/nfs/dns_resolve.o
  CC      net/ipv4/tcp_ipv4.o
  CC      net/ipv4/tcp_minisocks.o
  CC      net/mac80211/rate.o
  CC      fs/proc/inode.o
  CC      fs/partitions/efi.o
  CC      fs/nfs/cache_lib.o
  CC      fs/proc/root.o
  CC      fs/nfs/nfsroot.o
  CC      fs/ramfs/inode.o
  CC      net/mac80211/michael.o
  CC      fs/proc/base.o
  LD      fs/partitions/built-in.o
  CC      fs/ramfs/file-mmu.o
  CC      fs/nfs/nfs3proc.o
  CC      net/mac80211/tkip.o
  CC      fs/nfs/nfs3xdr.o
  LD      fs/ramfs/ramfs.o
  LD      fs/ramfs/built-in.o
  CC      net/ipv6/tcp_ipv6.o
  CC      net/ipv6/exthdrs.o
  CC      net/mac80211/aes_ccm.o
  CC      net/ipv4/tcp_cong.o
  CC      net/ipv6/datagram.o
  CC      net/ipv6/ip6_flowlabel.o
  CC      net/mac80211/aes_cmac.o
  CC      fs/nfs/sysctl.o
  CC      net/mac80211/cfg.o
  CC      fs/proc/generic.o
  CC      fs/proc/array.o
  CC      fs/proc/proc_tty.o
  CC      fs/sysfs/inode.o
  CC      net/ipv4/datagram.o
  LD      fs/nfs/nfs.o
  LD      fs/nfs/built-in.o
  CC      net/ipv4/raw.o
  CC      net/ipv4/udp.o
  CC      net/ipv6/inet6_connection_sock.o
  CC      fs/sysfs/file.o
  CC      fs/sysfs/dir.o
  CC      fs/proc/cmdline.o
  CC      net/mac80211/rx.o
  CC      net/mac80211/spectmgmt.o
  CC      fs/proc/consoles.o
  CC      net/ipv6/sysctl_net_ipv6.o
  CC      net/mac80211/tx.o
  CC      fs/proc/cpuinfo.o
  CC      fs/sysfs/symlink.o
  CC      fs/proc/devices.o
  CC      fs/ubifs/shrinker.o
  CC      fs/eventpoll.o
  CC      fs/proc/interrupts.o
  CC      net/ipv6/ip6mr.o
  CC      fs/proc/loadavg.o
  CC      fs/ubifs/journal.o
  CC      fs/sysfs/mount.o
  CC      fs/proc/meminfo.o
  CC      fs/proc/stat.o
  CC      fs/sysfs/bin.o
  CC      net/ipv4/udplite.o
  CC      net/ipv4/arp.o
  CC      fs/ubifs/file.o
  CC      fs/proc/uptime.o
  CC      fs/ubifs/dir.o
  CC      fs/sysfs/group.o
  CC      fs/proc/version.o
  CC      net/mac80211/key.o
  CC      net/ipv6/xfrm6_policy.o
  CC      fs/proc/softirqs.o
  CC      net/ipv6/xfrm6_state.o
  LD      fs/sysfs/built-in.o
  CC      net/ipv6/xfrm6_input.o
  CC      fs/proc/namespaces.o
  CC      net/ipv6/xfrm6_output.o
  CC      fs/ubifs/super.o
  CC      net/ipv4/icmp.o
  CC      net/ipv4/devinet.o
  CC      net/ipv4/af_inet.o
  CC      fs/proc/proc_sysctl.o
  CC      net/mac80211/util.o
  CC      net/mac80211/wme.o
  CC      fs/proc/proc_net.o
  CC      net/ipv6/netfilter.o
  CC      fs/anon_inodes.o
  CC      fs/ubifs/sb.o
  CC      fs/signalfd.o
  CC      fs/proc/kmsg.o
  CC      net/mac80211/event.o
  CC      fs/ubifs/io.o
  CC      fs/proc/page.o
  CC      net/ipv6/fib6_rules.o
  CC      fs/ubifs/tnc.o
  CC      fs/ubifs/master.o
  CC      net/ipv4/igmp.o
  CC      net/mac80211/chan.o
  LD      fs/proc/proc.o
  LD      fs/proc/built-in.o
  CC      net/ipv4/fib_frontend.o
  CC      net/ipv4/fib_semantics.o
  CC      net/ipv6/proc.o
  CC      net/netlink/af_netlink.o
  CC      net/mac80211/pm.o
  CC      net/netfilter/core.o
  CC      net/mac80211/rc80211_minstrel.o
  CC      net/ipv6/tunnel6.o
  CC      net/netlink/genetlink.o
  CC      fs/ubifs/scan.o
  CC      net/netfilter/nf_log.o
  CC      net/ipv6/xfrm6_mode_transport.o
  CC      net/mac80211/rc80211_minstrel_ht.o
  CC      fs/ubifs/replay.o
  CC      net/ipv4/fib_trie.o
  CC      net/packet/af_packet.o
  CC      net/ipv6/xfrm6_mode_tunnel.o
  CC      net/rfkill/core.o
  LD      net/netlink/built-in.o
  CC      net/netfilter/nf_queue.o
  CC      net/netfilter/nf_sockopt.o
  LD      net/mac80211/mac80211.o
  LD      net/mac80211/built-in.o
  CC      net/netfilter/nf_conntrack_core.o
  CC      fs/ubifs/log.o
  CC      net/ipv6/xfrm6_mode_ro.o
  CC      net/ipv6/xfrm6_mode_beet.o
  CC      fs/ubifs/commit.o
  CC      net/rfkill/input.o
  CC      net/ipv6/netfilter/ip6_tables.o
  CC      net/ipv6/netfilter/ip6table_filter.o
  CC      net/ipv4/inet_fragment.o
  CC      net/ipv4/ping.o
  LD      net/rfkill/rfkill.o
  LD      net/rfkill/built-in.o
  CC      fs/ubifs/gc.o
  LD      net/packet/built-in.o
  CC      net/netfilter/nf_conntrack_standalone.o
  CC      net/netfilter/nf_conntrack_expect.o
  CC      net/netfilter/nf_conntrack_helper.o
  CC      net/ipv6/netfilter/ip6table_mangle.o
  CC      net/netfilter/nf_conntrack_proto.o
  CC      fs/ubifs/orphan.o
  CC      net/sched/sch_generic.o
  CC      net/ipv6/netfilter/ip6_queue.o
  CC      net/sched/sch_mq.o
  CC      net/ipv4/sysctl_net_ipv4.o
  CC      fs/ubifs/budget.o
  CC      fs/ubifs/find.o
  CC      net/netfilter/nf_conntrack_l3proto_generic.o
  CC      net/sunrpc/clnt.o
  CC      net/netfilter/nf_conntrack_proto_generic.o
  CC      net/netfilter/nf_conntrack_proto_tcp.o
  CC      net/ipv6/netfilter/ip6table_raw.o
  CC      fs/ubifs/tnc_commit.o
  CC      fs/ubifs/compress.o
  CC      net/ipv4/sysfs_net_ipv4.o
  CC      net/ipv4/proc.o
  LD      net/sched/built-in.o
  CC      net/ipv4/ipip.o
  CC      net/ipv6/netfilter/nf_conntrack_l3proto_ipv6.o
  CC      net/ipv4/gre.o
  CC      net/sunrpc/xprt.o
  CC      fs/ubifs/lpt.o
  CC      net/ipv6/netfilter/nf_conntrack_proto_icmpv6.o
  CC      net/unix/af_unix.o
  CC      net/unix/garbage.o
  CC      net/unix/sysctl_net_unix.o
  CC      net/netfilter/nf_conntrack_proto_udp.o
  CC      net/ipv4/ipcomp.o
  CC      net/ipv6/netfilter/nf_defrag_ipv6_hooks.o
  CC      net/ipv6/netfilter/nf_conntrack_reasm.o
  CC      net/ipv4/xfrm4_tunnel.o
  CC      net/ipv4/xfrm4_mode_beet.o
  CC      fs/ubifs/lprops.o
  CC      net/sunrpc/socklib.o
  CC      net/netfilter/nf_conntrack_extend.o
  CC      net/netfilter/nf_conntrack_acct.o
  CC      net/ipv6/sit.o
  CC      net/ipv6/netfilter/ip6t_REJECT.o
  CC      fs/ubifs/recovery.o
  CC      net/ipv4/tunnel4.o
  LD      net/unix/unix.o
  LD      net/unix/built-in.o
  CC      fs/ubifs/ioctl.o
  CC      fs/ubifs/lpt_commit.o
  CC      net/sunrpc/xprtsock.o
  CC      net/netfilter/nf_conntrack_timestamp.o
  CC      net/sunrpc/sched.o
  LD      net/ipv6/netfilter/nf_conntrack_ipv6.o
  LD      net/ipv6/netfilter/nf_defrag_ipv6.o
  LD      net/ipv6/netfilter/built-in.o
  CC      net/ipv4/xfrm4_mode_transport.o
  CC      net/ipv4/xfrm4_mode_tunnel.o
  CC      net/sunrpc/auth.o
  CC      net/netfilter/nf_conntrack_ecache.o
  CC      net/ipv6/ip6_tunnel.o
  CC      fs/ubifs/tnc_misc.o
  CC      net/netfilter/nf_conntrack_h323_main.o
  CC      net/ipv4/ipconfig.o
  CC      net/ipv4/netfilter.o
  LD      fs/ubifs/ubifs.o
  LD      fs/ubifs/built-in.o
  CC      fs/timerfd.o
  CC      fs/eventfd.o
  CC      fs/aio.o
  CC      net/sunrpc/auth_null.o
  CC      net/ipv6/addrconf_core.o
  CC      net/ipv6/exthdrs_core.o
  CC      net/netfilter/nf_conntrack_h323_asn1.o
  CC      net/sunrpc/auth_unix.o
  CC      net/netfilter/nfnetlink.o
  CC      net/ipv4/netfilter/nf_nat_rule.o
  CC      net/ipv4/netfilter/nf_nat_standalone.o
  CC      net/ipv4/netfilter/nf_conntrack_l3proto_ipv4_compat.o
  CC      net/sunrpc/auth_generic.o
  CC      net/ipv4/netfilter/nf_conntrack_l3proto_ipv4.o
  CC      net/ipv6/inet6_hashtables.o
  CC      fs/locks.o
  CC      net/wireless/core.o
  LD      net/ipv6/ipv6.o
  CC      net/netfilter/nfnetlink_queue.o
  CC      net/netfilter/nfnetlink_log.o
  LD      net/netfilter/nf_conntrack.o
  CC      net/xfrm/xfrm_policy.o
  CC      net/sunrpc/svc.o
  LD      net/ipv6/built-in.o
  CC      net/ipv4/netfilter/nf_conntrack_proto_icmp.o
  CC      net/sunrpc/svcsock.o
  CC      net/ipv4/inet_diag.o
  CC      net/wireless/sysfs.o
  CC      net/netfilter/nf_conntrack_proto_dccp.o
  CC      net/ipv4/netfilter/nf_nat_core.o
  CC      fs/binfmt_script.o
  CC      net/wireless/radiotap.o
  CC      fs/binfmt_elf.o
  CC      fs/mbcache.o
  CC      net/netfilter/nf_conntrack_proto_gre.o
  CC      net/wireless/util.o
  CC      net/xfrm/xfrm_state.o
  CC      net/sunrpc/svcauth.o
  CC      net/ipv4/netfilter/nf_nat_helper.o
  CC      net/wireless/reg.o
  CC      net/wireless/scan.o
  LD      fs/built-in.o
  CC      net/netfilter/nf_conntrack_proto_sctp.o
  CC      net/sunrpc/svcauth_unix.o
  CC      net/sunrpc/addr.o
  CC      net/sunrpc/rpcb_clnt.o
  CC      net/netfilter/nf_conntrack_proto_udplite.o
  CC      net/ipv4/netfilter/nf_nat_proto_unknown.o
  CC      net/ipv4/netfilter/nf_nat_proto_common.o
  CC      net/xfrm/xfrm_hash.o
  CC      net/wireless/nl80211.o
  CC      net/sunrpc/timer.o
  CC      net/ipv4/tcp_diag.o
  CC      net/ipv4/tcp_cubic.o
  CC      net/netfilter/nf_conntrack_netlink.o
  CC      net/xfrm/xfrm_input.o
  CC      net/ipv4/netfilter/nf_nat_proto_tcp.o
  CC      net/xfrm/xfrm_output.o
  CC      net/xfrm/xfrm_algo.o
  CC      net/sunrpc/xdr.o
  CC      net/xfrm/xfrm_sysctl.o
  CC      net/ipv4/netfilter/nf_nat_proto_udp.o
  CC      net/ipv4/netfilter/nf_nat_proto_icmp.o
  CC      net/ipv4/netfilter/nf_defrag_ipv4.o
  CC      net/sysctl_net.o
  CC      net/activity_stats.o
  CC      net/xfrm/xfrm_replay.o
  CC      net/xfrm/xfrm_ipcomp.o
  CC      net/netfilter/nf_conntrack_amanda.o
  CC      net/sunrpc/sunrpc_syms.o
  CC      net/netfilter/nf_conntrack_ftp.o
  CC      net/ipv4/netfilter/nf_nat_amanda.o
  CC      net/sunrpc/cache.o
  LD      net/netfilter/nf_conntrack_h323.o
  CC      net/sunrpc/rpc_pipe.o
  CC      net/sunrpc/svc_xprt.o
  CC      net/netfilter/nf_conntrack_irc.o
  CC      net/ipv4/netfilter/nf_nat_ftp.o
  LD      net/xfrm/built-in.o
  CC      net/ipv4/xfrm4_policy.o
  CC      net/ipv4/xfrm4_state.o
  CC      net/ipv4/netfilter/nf_nat_h323.o
  CC      net/wireless/mlme.o
  CC      net/netfilter/nf_conntrack_broadcast.o
  CC      net/wireless/ibss.o
  CC      net/wireless/sme.o
  CC      net/wireless/chan.o
  CC      net/ipv4/netfilter/nf_nat_irc.o
  CC      net/sunrpc/stats.o
  CC      net/ipv4/xfrm4_input.o
  CC      net/netfilter/nf_conntrack_netbios_ns.o
  CC      net/ipv4/xfrm4_output.o
  CC      net/ipv4/netfilter/nf_nat_pptp.o
  CC      net/sunrpc/sysctl.o
  CC      net/netfilter/nf_conntrack_snmp.o
  CC      net/ipv4/netfilter/nf_nat_sip.o
  CC      net/wireless/ethtool.o
  CC      net/ipv4/netfilter/nf_nat_snmp_basic.o
  CC      net/ipv4/netfilter/nf_nat_tftp.o
  LD      net/sunrpc/sunrpc.o
  CC      net/ipv4/netfilter/nf_nat_proto_dccp.o
  LD      net/sunrpc/built-in.o
  CC      net/ipv4/netfilter/nf_nat_proto_gre.o
  CC      net/netfilter/nf_conntrack_pptp.o
  CC      net/netfilter/nf_conntrack_sane.o
  CC      net/wireless/mesh.o
  CC      net/wireless/wext-compat.o
  CC      net/wireless/wext-sme.o
  CC      net/wireless/lib80211.o
  CC      net/wireless/lib80211_crypt_wep.o
  CC      net/ipv4/netfilter/nf_nat_proto_udplite.o
  CC      net/ipv4/netfilter/nf_nat_proto_sctp.o
  CC      net/ipv4/netfilter/ip_tables.o
  CC      net/netfilter/nf_conntrack_sip.o
  CC      net/netfilter/nf_conntrack_tftp.o
  CC      net/netfilter/nf_tproxy_core.o
  CC      net/netfilter/x_tables.o
  CC      net/wireless/lib80211_crypt_ccmp.o
  CC      net/ipv4/netfilter/iptable_filter.o
  CC      net/netfilter/xt_tcpudp.o
  CC      net/ipv4/netfilter/iptable_mangle.o
  LD      net/ipv4/netfilter/iptable_nat.o
  CC      net/wireless/lib80211_crypt_tkip.o
  CC      net/ipv4/netfilter/iptable_raw.o
  CC      net/netfilter/xt_mark.o
  CC      net/netfilter/xt_connmark.o
  CC      net/ipv4/netfilter/ipt_ah.o
  CC      net/netfilter/xt_CHECKSUM.o
  CC      net/ipv4/netfilter/ipt_ecn.o
  CC      net/netfilter/xt_CLASSIFY.o
  CC      net/ipv4/netfilter/ipt_LOG.o
  CC      net/ipv4/netfilter/ipt_MASQUERADE.o
  CC      net/ipv4/netfilter/ipt_NETMAP.o
  CC      net/wireless/wext-core.o
  CC      net/wireless/wext-proc.o
  CC      net/wireless/wext-spy.o
  CC      net/netfilter/xt_NFQUEUE.o
  CC      net/wireless/wext-priv.o
  CC      net/ipv4/netfilter/ipt_REDIRECT.o
In file included from net/ipv4/netfilter/ipt_LOG.c:27:
include/net/netfilter/xt_log.h: In function 'sb_close':
include/net/netfilter/xt_log.h:50: warning: value computed is not used
  CC      net/ipv4/netfilter/ipt_REJECT.o
  CC      net/netfilter/xt_TPROXY.o
  CC      net/ipv4/netfilter/arp_tables.o
  LD      net/wireless/cfg80211.o
  CC      net/ipv4/netfilter/ip_queue.o
  LD      net/ipv4/netfilter/nf_conntrack_ipv4.o
  LD      net/ipv4/netfilter/nf_nat.o
  CC      net/netfilter/xt_comment.o
  CC      net/netfilter/xt_TRACE.o
  LD      net/wireless/built-in.o
  CC      net/netfilter/xt_connbytes.o
  CC      net/netfilter/xt_connlimit.o
  CC      net/netfilter/xt_conntrack.o
  CC      net/netfilter/xt_hashlimit.o
  CC      net/netfilter/xt_helper.o
  CC      net/netfilter/xt_hl.o
  CC      net/netfilter/xt_iprange.o
  CC      net/netfilter/xt_length.o
  CC      net/netfilter/xt_limit.o
  CC      net/netfilter/xt_mac.o
  CC      net/netfilter/xt_multiport.o
  CC      net/netfilter/xt_pkttype.o
  CC      net/netfilter/xt_qtaguid_print.o
  LD      net/ipv4/netfilter/built-in.o
  LD      net/ipv4/built-in.o
  CC      net/netfilter/xt_qtaguid.o
  CC      net/netfilter/xt_quota.o
  CC      net/netfilter/xt_quota2.o
  CC      net/netfilter/xt_socket.o
  CC      net/netfilter/xt_state.o
  CC      net/netfilter/xt_statistic.o
  CC      net/netfilter/xt_string.o
  CC      net/netfilter/xt_time.o
  CC      net/netfilter/xt_u32.o
  LD      net/netfilter/netfilter.o
  LD      net/netfilter/built-in.o
  LD      net/built-in.o
make[1]: Leaving directory `/media/908a347e-7db6-4533-aa18-a448b2ad70d0/home/raja/myandroid_wifi/kernel_imx'
make: *** [out/target/product/nitrogen6x/kernel] Error 2
make: Leaving directory `/media/908a347e-7db6-4533-aa18-a448b2ad70d0/home/raja/myandroid_wifi'
