# 1 "prep.c"
# 1 "<built-in>"
# 1 "<command-line>"
# 1 "prep.c"
# 13 "prep.c"
for (p = ({ const typeof( ((typeof(*p) *)0)->node ) *__mptr = ((&clock)->next); (typeof(*p) *)( (char *)__mptr - offsetof(typeof(*p),node) );}); &p->node != (&clock); p = ({ const typeof( ((typeof(*p) *)0)->node ) *__mptr = (p->node.next); (typeof(*p) *)( (char *)__mptr - offsetof(typeof(*p),node) );}))
